<?xml version='1.0' encoding='UTF-8'?>
<osm version='0.6' generator='JOSM'>
  <node id='-934576' visible='true' lat='-34.08604296874' lon='150.53737692985'>
    <tag k='addr:housenumber' v='140' />
    <tag k='addr:street' v='Binalong Road' />
  </node>
  <node id='-934578' visible='true' lat='-34.07650151525' lon='150.54219875998'>
    <tag k='addr:housenumber' v='1151' />
    <tag k='addr:street' v='Burragorang Road' />
  </node>
  <node id='-934580' visible='true' lat='-34.08580624463' lon='150.53270894409'>
    <tag k='addr:housenumber' v='60' />
    <tag k='addr:street' v='Kundabung Street' />
  </node>
  <node id='-934582' visible='true' lat='-34.09167946132' lon='150.53278506789'>
    <tag k='addr:housenumber' v='229' />
    <tag k='addr:street' v='Binalong Road' />
  </node>
  <node id='-934584' visible='true' lat='-34.0865859727' lon='150.53729220497'>
    <tag k='addr:housenumber' v='150' />
    <tag k='addr:street' v='Binalong Road' />
  </node>
  <node id='-934586' visible='true' lat='-34.08856464821' lon='150.5406446352'>
    <tag k='addr:housenumber' v='116' />
    <tag k='addr:street' v='Wanawong Street' />
  </node>
  <node id='-934588' visible='true' lat='-34.08260482704' lon='150.54018328564'>
    <tag k='addr:housenumber' v='65' />
    <tag k='addr:street' v='Yallah Street' />
  </node>
  <node id='-934590' visible='true' lat='-34.07607504359' lon='150.53754652238'>
    <tag k='addr:housenumber' v='1185' />
    <tag k='addr:street' v='Burragorang Road' />
  </node>
  <node id='-934592' visible='true' lat='-34.08957627762' lon='150.53503417312'>
    <tag k='addr:housenumber' v='214' />
    <tag k='addr:street' v='Binalong Road' />
  </node>
  <node id='-934594' visible='true' lat='-34.07688531072' lon='150.54484412996'>
    <tag k='addr:housenumber' v='1129' />
    <tag k='addr:street' v='Burragorang Road' />
  </node>
  <node id='-934596' visible='true' lat='-34.08627641967' lon='150.53524817986'>
    <tag k='addr:housenumber' v='61' />
    <tag k='addr:street' v='Kundabung Street' />
  </node>
  <node id='-934598' visible='true' lat='-34.08093232962' lon='150.53564619126'>
    <tag k='addr:housenumber' v='50' />
    <tag k='addr:street' v='Yallah Street' />
  </node>
  <node id='-934600' visible='true' lat='-34.07831026565' lon='150.54418263252'>
    <tag k='addr:housenumber' v='21' />
    <tag k='addr:street' v='Binalong Road' />
  </node>
  <node id='-934602' visible='true' lat='-34.07605390709' lon='150.53875669199'>
    <tag k='addr:housenumber' v='1175' />
    <tag k='addr:street' v='Burragorang Road' />
  </node>
  <node id='-934604' visible='true' lat='-34.09209250199' lon='150.54146519598'>
    <tag k='addr:housenumber' v='99' />
    <tag k='addr:street' v='Wanawong Street' />
  </node>
  <node id='-934606' visible='true' lat='-34.07639747586' lon='150.54154457702'>
    <tag k='addr:housenumber' v='1155' />
    <tag k='addr:street' v='Burragorang Road' />
  </node>
  <node id='-934608' visible='true' lat='-34.08712925995' lon='150.53721857123'>
    <tag k='addr:housenumber' v='154' />
    <tag k='addr:street' v='Binalong Road' />
  </node>
  <node id='-934610' visible='true' lat='-34.07644904977' lon='150.54187018917'>
    <tag k='addr:housenumber' v='1153' />
    <tag k='addr:street' v='Burragorang Road' />
  </node>
  <node id='-934612' visible='true' lat='-34.08433503735' lon='150.54495148113'>
    <tag k='addr:housenumber' v='25' />
    <tag k='addr:street' v='Wanawong Street' />
  </node>
  <node id='-934614' visible='true' lat='-34.08309458369' lon='150.54209248648'>
    <tag k='addr:housenumber' v='90' />
    <tag k='addr:street' v='Binalong Road' />
  </node>
  <node id='-934616' visible='true' lat='-34.08706952348' lon='150.54411198204'>
    <tag k='addr:housenumber' v='50' />
    <tag k='addr:street' v='Wanawong Street' />
  </node>
  <node id='-934618' visible='true' lat='-34.08389558282' lon='150.54324113376'>
    <tag k='addr:housenumber' v='87' />
    <tag k='addr:street' v='Binalong Road' />
  </node>
  <node id='-934620' visible='true' lat='-34.07947339099' lon='150.54819766449'>
    <tag k='addr:housenumber' v='1107' />
    <tag k='addr:street' v='Burragorang Road' />
  </node>
  <node id='-934622' visible='true' lat='-34.08330353003' lon='150.53609362998'>
    <tag k='addr:housenumber' v='26' />
    <tag k='addr:street' v='Kundabung Street' />
  </node>
  <node id='-934624' visible='true' lat='-34.08234505444' lon='150.53581492053'>
    <tag k='addr:housenumber' v='70' />
    <tag k='addr:street' v='Yallah Street' />
  </node>
  <node id='-934626' visible='true' lat='-34.08510316034' lon='150.53805093689'>
    <tag k='addr:housenumber' v='130' />
    <tag k='addr:street' v='Binalong Road' />
  </node>
  <node id='-934628' visible='true' lat='-34.08870260958' lon='150.54124089454'>
    <tag k='addr:housenumber' v='110' />
    <tag k='addr:street' v='Wanawong Street' />
  </node>
  <node id='-934630' visible='true' lat='-34.0834705409' lon='150.54403800307'>
    <tag k='addr:housenumber' v='83' />
    <tag k='addr:street' v='Binalong Road' />
  </node>
  <node id='-934632' visible='true' lat='-34.08316364941' lon='150.53541637405'>
    <tag k='addr:housenumber' v='30' />
    <tag k='addr:street' v='Kundabung Street' />
  </node>
  <node id='-934634' visible='true' lat='-34.0825068697' lon='150.54601371163'>
    <tag k='addr:housenumber' v='69' />
    <tag k='addr:street' v='Binalong Road' />
  </node>
  <node id='-934636' visible='true' lat='-34.08869094361' lon='150.54584623468'>
    <tag k='addr:housenumber' v='63' />
    <tag k='addr:street' v='Wanawong Street' />
  </node>
  <node id='-934638' visible='true' lat='-34.08472233307' lon='150.53292896364'>
    <tag k='addr:housenumber' v='50' />
    <tag k='addr:street' v='Kundabung Street' />
  </node>
  <node id='-934640' visible='true' lat='-34.08946582536' lon='150.53718415021'>
    <tag k='addr:housenumber' v='180' />
    <tag k='addr:street' v='Binalong Road' />
  </node>
  <node id='-934642' visible='true' lat='-34.07934283445' lon='150.54754850076'>
    <tag k='addr:housenumber' v='1111' />
    <tag k='addr:street' v='Burragorang Road' />
  </node>
  <node id='-934644' visible='true' lat='-34.08579691695' lon='150.53914175555'>
    <tag k='addr:housenumber' v='139' />
    <tag k='addr:street' v='Binalong Road' />
  </node>
  <node id='-934646' visible='true' lat='-34.08915345563' lon='150.53247847799'>
    <tag k='addr:housenumber' v='236' />
    <tag k='addr:street' v='Binalong Road' />
  </node>
  <node id='-934648' visible='true' lat='-34.07986222103' lon='150.54125260976'>
    <tag k='addr:housenumber' v='5' />
    <tag k='addr:street' v='Yallah Street' />
  </node>
  <node id='-934650' visible='true' lat='-34.07876942186' lon='150.54408521754'>
    <tag k='addr:housenumber' v='29' />
    <tag k='addr:street' v='Binalong Road' />
  </node>
  <node id='-934652' visible='true' lat='-34.07410150751' lon='150.54257640362'>
    <tag k='addr:housenumber' v='1170' />
    <tag k='addr:street' v='Burragorang Road' />
  </node>
  <node id='-934654' visible='true' lat='-34.0822598332' lon='150.54198926611'>
    <tag k='addr:housenumber' v='74' />
    <tag k='addr:street' v='Binalong Road' />
  </node>
  <node id='-934656' visible='true' lat='-34.08417987108' lon='150.53305907439'>
    <tag k='addr:housenumber' v='44' />
    <tag k='addr:street' v='Kundabung Street' />
  </node>
  <node id='-934658' visible='true' lat='-34.09170326822' lon='150.53744672109'>
    <tag k='addr:housenumber' v='189' />
    <tag k='addr:street' v='Wanawong Street' />
  </node>
  <node id='-934660' action='modify' visible='true' lat='-34.08776236116' lon='150.54563107014'>
    <tag k='addr:housenumber' v='47' />
    <tag k='addr:street' v='Wanawong Street' />
  </node>
  <node id='-934662' action='modify' visible='true' lat='-34.08776236116' lon='150.54567445758'>
    <tag k='addr:housenumber' v='47' />
    <tag k='addr:street' v='Daley Close' />
  </node>
  <node id='-934664' visible='true' lat='-34.09138620887' lon='150.53084288581'>
    <tag k='addr:housenumber' v='245' />
    <tag k='addr:street' v='Binalong Road' />
  </node>
  <node id='-934666' visible='true' lat='-34.08048667068' lon='150.54153053356'>
    <tag k='addr:housenumber' v='50' />
    <tag k='addr:street' v='Binalong Road' />
  </node>
  <node id='-934668' visible='true' lat='-34.08882372992' lon='150.54260947099'>
    <tag k='addr:housenumber' v='90' />
    <tag k='addr:street' v='Wanawong Street' />
  </node>
  <node id='-934670' visible='true' lat='-34.08302400158' lon='150.54581936147'>
    <tag k='addr:housenumber' v='77' />
    <tag k='addr:street' v='Binalong Road' />
  </node>
  <node id='-934672' visible='true' lat='-34.07992526314' lon='150.54429294458'>
    <tag k='addr:housenumber' v='39' />
    <tag k='addr:street' v='Binalong Road' />
  </node>
  <node id='-934674' visible='true' lat='-34.08348692236' lon='150.54023616817'>
    <tag k='addr:housenumber' v='110' />
    <tag k='addr:street' v='Binalong Road' />
  </node>
  <node id='-934676' visible='true' lat='-34.0921581151' lon='150.54211701836'>
    <tag k='addr:housenumber' v='95' />
    <tag k='addr:street' v='Wanawong Street' />
  </node>
  <node id='-934678' visible='true' lat='-34.07848283554' lon='150.54139257146'>
    <tag k='addr:housenumber' v='30' />
    <tag k='addr:street' v='Binalong Road' />
  </node>
  <node id='-934680' action='modify' visible='true' lat='-34.08444340178' lon='150.5425403044'>
    <tag k='addr:housenumber' v='1/95' />
    <tag k='addr:street' v='Binalong Road' />
  </node>
  <node id='-934682' action='modify' visible='true' lat='-34.08444340178' lon='150.54258369014'>
    <tag k='addr:housenumber' v='95' />
    <tag k='addr:street' v='Binalong Road' />
  </node>
  <node id='-934684' visible='true' lat='-34.08745003932' lon='150.5390997431'>
    <tag k='addr:housenumber' v='159' />
    <tag k='addr:street' v='Binalong Road' />
  </node>
  <node id='-934686' visible='true' lat='-34.09186113776' lon='150.53408869186'>
    <tag k='addr:housenumber' v='215' />
    <tag k='addr:street' v='Binalong Road' />
  </node>
  <node id='-934688' visible='true' lat='-34.07796121106' lon='150.5493276789'>
    <tag k='addr:housenumber' v='1101' />
    <tag k='addr:street' v='Burragorang Road' />
  </node>
  <node id='-934690' visible='true' lat='-34.08842551614' lon='150.53478095407'>
    <tag k='addr:housenumber' v='85' />
    <tag k='addr:street' v='Kundabung Street' />
  </node>
  <node id='-934692' visible='true' lat='-34.09199286022' lon='150.53473319079'>
    <tag k='addr:housenumber' v='211' />
    <tag k='addr:street' v='Binalong Road' />
  </node>
  <node id='-934694' visible='true' lat='-34.08975565544' lon='150.5455305286'>
    <tag k='addr:housenumber' v='75' />
    <tag k='addr:street' v='Wanawong Street' />
  </node>
  <node id='-934696' visible='true' lat='-34.08798311873' lon='150.53907642473'>
    <tag k='addr:housenumber' v='163' />
    <tag k='addr:street' v='Binalong Road' />
  </node>
  <node id='-934698' visible='true' lat='-34.08935617037' lon='150.53357170116'>
    <tag k='addr:housenumber' v='95' />
    <tag k='addr:street' v='Kundabung Street' />
  </node>
  <node id='-934700' visible='true' lat='-34.08922425523' lon='150.54568566924'>
    <tag k='addr:housenumber' v='69' />
    <tag k='addr:street' v='Wanawong Street' />
  </node>
  <node id='-934702' visible='true' lat='-34.07622343467' lon='150.54024167575'>
    <tag k='addr:housenumber' v='1163' />
    <tag k='addr:street' v='Burragorang Road' />
  </node>
  <node id='-934704' visible='true' lat='-34.09061762537' lon='150.54614194973'>
    <tag k='addr:housenumber' v='79' />
    <tag k='addr:street' v='Wanawong Street' />
  </node>
  <node id='-934706' visible='true' lat='-34.08170513542' lon='150.54202673999'>
    <tag k='addr:housenumber' v='68' />
    <tag k='addr:street' v='Binalong Road' />
  </node>
  <node id='-934708' visible='true' lat='-34.08690343955' lon='150.53914141939'>
    <tag k='addr:housenumber' v='155' />
    <tag k='addr:street' v='Binalong Road' />
  </node>
  <node id='-934710' visible='true' lat='-34.07673643132' lon='150.54386980648'>
    <tag k='addr:housenumber' v='1135' />
    <tag k='addr:street' v='Burragorang Road' />
  </node>
  <node id='-934712' visible='true' lat='-34.07699505376' lon='150.54549370679'>
    <tag k='addr:housenumber' v='1125' />
    <tag k='addr:street' v='Burragorang Road' />
  </node>
  <node id='-934714' visible='true' lat='-34.08177475531' lon='150.53574120407'>
    <tag k='addr:housenumber' v='60' />
    <tag k='addr:street' v='Yallah Street' />
  </node>
  <node id='-934716' visible='true' lat='-34.09199524518' lon='150.53540076185'>
    <tag k='addr:housenumber' v='209' />
    <tag k='addr:street' v='Binalong Road' />
  </node>
  <node id='-934718' visible='true' lat='-34.07380615677' lon='150.54053064982'>
    <tag k='addr:housenumber' v='1180' />
    <tag k='addr:street' v='Burragorang Road' />
  </node>
  <node id='-934720' visible='true' lat='-34.07768107596' lon='150.53834417813'>
    <tag k='addr:housenumber' v='26' />
    <tag k='addr:street' v='Yallah Street' />
  </node>
  <node id='-934722' visible='true' lat='-34.08908889876' lon='150.53204947823'>
    <tag k='addr:housenumber' v='242' />
    <tag k='addr:street' v='Binalong Road' />
  </node>
  <node id='-934724' visible='true' lat='-34.0890243916' lon='150.53162043815'>
    <tag k='addr:housenumber' v='246' />
    <tag k='addr:street' v='Binalong Road' />
  </node>
  <node id='-934726' visible='true' lat='-34.08193144963' lon='150.54605547802'>
    <tag k='addr:housenumber' v='65' />
    <tag k='addr:street' v='Binalong Road' />
  </node>
  <node id='-934728' action='modify' visible='true' lat='-34.08053900864' lon='150.54441109497'>
    <tag k='addr:housenumber' v='47' />
    <tag k='addr:street' v='Binalong Road' />
  </node>
  <node id='-934730' action='modify' visible='true' lat='-34.08053900864' lon='150.5444544787'>
    <tag k='addr:housenumber' v='47-49' />
    <tag k='addr:street' v='Binalong Road' />
  </node>
  <node id='-934732' visible='true' lat='-34.08295100482' lon='150.53441854993'>
    <tag k='addr:housenumber' v='36' />
    <tag k='addr:street' v='Kundabung Street' />
  </node>
  <node id='-934734' visible='true' lat='-34.08874841172' lon='150.53693203375'>
    <tag k='addr:housenumber' v='170' />
    <tag k='addr:street' v='Binalong Road' />
  </node>
  <node id='-934736' visible='true' lat='-34.09181488363' lon='150.53676684267'>
    <tag k='addr:housenumber' v='195' />
    <tag k='addr:street' v='Binalong Road' />
  </node>
  <node id='-934738' visible='true' lat='-34.08316377011' lon='150.54124895353'>
    <tag k='addr:housenumber' v='100' />
    <tag k='addr:street' v='Binalong Road' />
  </node>
  <node id='-934740' visible='true' lat='-34.08453444588' lon='150.54400227029'>
    <tag k='addr:housenumber' v='19' />
    <tag k='addr:street' v='Wanawong Street' />
  </node>
  <node id='-934742' visible='true' lat='-34.08654370844' lon='150.54305831488'>
    <tag k='addr:housenumber' v='24' />
    <tag k='addr:street' v='Wanawong Street' />
  </node>
  <node id='-934744' visible='true' lat='-34.08964959532' lon='150.53552170682'>
    <tag k='addr:housenumber' v='206' />
    <tag k='addr:street' v='Binalong Road' />
  </node>
  <node id='-934746' visible='true' lat='-34.07786180657' lon='150.54867802172'>
    <tag k='addr:housenumber' v='1105' />
    <tag k='addr:street' v='Burragorang Road' />
  </node>
  <node id='-934748' visible='true' lat='-34.07654992108' lon='150.54253531651'>
    <tag k='addr:housenumber' v='10' />
    <tag k='addr:street' v='Binalong Road' />
  </node>
  <node id='-934750' visible='true' lat='-34.09307393964' lon='150.54435416986'>
    <tag k='addr:housenumber' v='87' />
    <tag k='addr:street' v='Wanawong Street' />
  </node>
  <node id='-934752' visible='true' lat='-34.08197608791' lon='150.54005690079'>
    <tag k='addr:housenumber' v='55' />
    <tag k='addr:street' v='Yallah Street' />
  </node>
  <node id='-934754' visible='true' lat='-34.08767071429' lon='150.53715551234'>
    <tag k='addr:housenumber' v='160' />
    <tag k='addr:street' v='Binalong Road' />
  </node>
  <node id='-934756' visible='true' lat='-34.08484199883' lon='150.54060367975'>
    <tag k='addr:housenumber' v='109' />
    <tag k='addr:street' v='Binalong Road' />
  </node>
  <node id='-934758' visible='true' lat='-34.07805926334' lon='150.54487286445'>
    <tag k='addr:housenumber' v='15' />
    <tag k='addr:street' v='Binalong Road' />
  </node>
  <node id='-934760' visible='true' lat='-34.08504373481' lon='150.53737780377'>
    <tag k='addr:housenumber' v='11' />
    <tag k='addr:street' v='Kundabung Street' />
  </node>
  <node id='-934762' visible='true' lat='-34.07683507477' lon='150.54451746122'>
    <tag k='addr:housenumber' v='1131' />
    <tag k='addr:street' v='Burragorang Road' />
  </node>
  <node id='-934764' visible='true' lat='-34.08635627816' lon='150.53919753568'>
    <tag k='addr:housenumber' v='145' />
    <tag k='addr:street' v='Binalong Road' />
  </node>
  <node id='-934766' visible='true' lat='-34.08494540291' lon='150.53672789889'>
    <tag k='addr:housenumber' v='17' />
    <tag k='addr:street' v='Kundabung Street' />
  </node>
  <node id='-934768' visible='true' lat='-34.0918568089' lon='150.5387429529'>
    <tag k='addr:housenumber' v='125' />
    <tag k='addr:street' v='Wanawong Street' />
  </node>
  <node id='-934770' visible='true' lat='-34.07771056195' lon='150.54803596741'>
    <tag k='addr:housenumber' v='1109' />
    <tag k='addr:street' v='Burragorang Road' />
  </node>
  <node id='-934772' visible='true' lat='-34.08950291041' lon='150.53454666417'>
    <tag k='addr:housenumber' v='218' />
    <tag k='addr:street' v='Binalong Road' />
  </node>
  <node id='-934774' visible='true' lat='-34.09177017748' lon='150.53343690276'>
    <tag k='addr:housenumber' v='225' />
    <tag k='addr:street' v='Binalong Road' />
  </node>
  <node id='-934776' action='modify' visible='true' lat='-34.07738229783' lon='150.54640432392'>
    <tag k='addr:housenumber' v='1119A' />
    <tag k='addr:street' v='Burragorang Road' />
  </node>
  <node id='-934778' action='modify' visible='true' lat='-34.07738229783' lon='150.54644770604'>
    <tag k='addr:housenumber' v='1119-1119A' />
    <tag k='addr:street' v='Burragorang Road' />
  </node>
  <node id='-934780' visible='true' lat='-34.07924586478' lon='150.53682369871'>
    <tag k='addr:housenumber' v='34' />
    <tag k='addr:street' v='Yallah Street' />
  </node>
  <node id='-934782' visible='true' lat='-34.08965439521' lon='150.53622696705'>
    <tag k='addr:housenumber' v='200' />
    <tag k='addr:street' v='Binalong Road' />
  </node>
  <node id='-934784' visible='true' lat='-34.08320506334' lon='150.53314032163'>
    <tag k='addr:housenumber' v='40' />
    <tag k='addr:street' v='Kundabung Street' />
  </node>
  <node id='-934786' visible='true' lat='-34.07709480448' lon='150.54614391808'>
    <tag k='addr:housenumber' v='1121' />
    <tag k='addr:street' v='Burragorang Road' />
  </node>
  <node id='-934788' visible='true' lat='-34.08679905702' lon='150.5435613899'>
    <tag k='addr:housenumber' v='28' />
    <tag k='addr:street' v='Wanawong Street' />
  </node>
  <node id='-934790' visible='true' lat='-34.08573833051' lon='150.53536523967'>
    <tag k='addr:housenumber' v='55' />
    <tag k='addr:street' v='Kundabung Street' />
  </node>
  <node id='-934792' visible='true' lat='-34.08942953098' lon='150.53405915653'>
    <tag k='addr:housenumber' v='222' />
    <tag k='addr:street' v='Binalong Road' />
  </node>
  <node id='-934794' visible='true' lat='-34.07755621069' lon='150.54739772536'>
    <tag k='addr:housenumber' v='1113' />
    <tag k='addr:street' v='Burragorang Road' />
  </node>
  <node id='-934796' visible='true' lat='-34.07669117659' lon='150.54333882594'>
    <tag k='addr:housenumber' v='5' />
    <tag k='addr:street' v='Binalong Road' />
  </node>
  <node id='-934798' visible='true' lat='-34.08110366509' lon='150.54179870234'>
    <tag k='addr:housenumber' v='60' />
    <tag k='addr:street' v='Binalong Road' />
  </node>
  <node id='-934800' visible='true' lat='-34.08457137571' lon='150.54557401647'>
    <tag k='addr:housenumber' v='29' />
    <tag k='addr:street' v='Wanawong Street' />
  </node>
  <node id='-934802' visible='true' lat='-34.08656651133' lon='150.54646776357'>
    <tag k='addr:housenumber' v='39' />
    <tag k='addr:street' v='Wanawong Street' />
  </node>
  <node id='-934804' visible='true' lat='-34.09158855922' lon='150.53213331845'>
    <tag k='addr:housenumber' v='235' />
    <tag k='addr:street' v='Binalong Road' />
  </node>
  <node id='-934806' visible='true' lat='-34.08797408244' lon='150.53226903747'>
    <tag k='addr:housenumber' v='90' />
    <tag k='addr:street' v='Kundabung Street' />
  </node>
  <node id='-934808' visible='true' lat='-34.08138597052' lon='150.53987158138'>
    <tag k='addr:housenumber' v='49' />
    <tag k='addr:street' v='Yallah Street' />
  </node>
  <node id='-934810' visible='true' lat='-34.08826817696' lon='150.54008097503'>
    <tag k='addr:housenumber' v='120' />
    <tag k='addr:street' v='Wanawong Street' />
  </node>
  <node id='-934812' visible='true' lat='-34.07731455771' lon='150.54165707736'>
    <tag k='addr:housenumber' v='16' />
    <tag k='addr:street' v='Binalong Road' />
  </node>
  <node id='-934814' visible='true' lat='-34.08349774427' lon='150.53737725026'>
    <tag k='addr:housenumber' v='14' />
    <tag k='addr:street' v='Kundabung Street' />
  </node>
  <node id='-934816' action='modify' visible='true' lat='-34.08131158445' lon='150.54591977175'>
    <tag k='addr:housenumber' v='55A' />
    <tag k='addr:street' v='Binalong Road' />
  </node>
  <node id='-934818' action='modify' visible='true' lat='-34.08132714373' lon='150.54588723365'>
    <tag k='addr:housenumber' v='55B' />
    <tag k='addr:street' v='Binalong Road' />
  </node>
  <node id='-934820' action='modify' visible='true' lat='-34.08129602517' lon='150.54588723365'>
    <tag k='addr:housenumber' v='55' />
    <tag k='addr:street' v='Binalong Road' />
  </node>
  <node id='-934822' visible='true' lat='-34.07635752387' lon='150.54122200144'>
    <tag k='addr:housenumber' v='1157' />
    <tag k='addr:street' v='Burragorang Road' />
  </node>
  <node id='-934824' visible='true' lat='-34.08642454846' lon='150.54240771883'>
    <tag k='addr:housenumber' v='20' />
    <tag k='addr:street' v='Wanawong Street' />
  </node>
  <node id='-934826' visible='true' lat='-34.08474851717' lon='150.53542822707'>
    <tag k='addr:housenumber' v='29' />
    <tag k='addr:street' v='Kundabung Street' />
  </node>
  <node id='-934828' visible='true' lat='-34.07788622505' lon='150.5398277414'>
    <tag k='addr:housenumber' v='16' />
    <tag k='addr:street' v='Yallah Street' />
  </node>
  <node id='-934830' visible='true' lat='-34.07936052296' lon='150.54438135863'>
    <tag k='addr:housenumber' v='35' />
    <tag k='addr:street' v='Binalong Road' />
  </node>
  <node id='-934832' visible='true' lat='-34.0868123057' lon='150.53513169859'>
    <tag k='addr:housenumber' v='65' />
    <tag k='addr:street' v='Kundabung Street' />
  </node>
  <node id='-934834' visible='true' lat='-34.07631376488' lon='150.54089575796'>
    <tag k='addr:housenumber' v='1159' />
    <tag k='addr:street' v='Burragorang Road' />
  </node>
  <node id='-934836' visible='true' lat='-34.08709784169' lon='150.54630950967'>
    <tag k='addr:housenumber' v='43' />
    <tag k='addr:street' v='Wanawong Street' />
  </node>
  <node id='-934838' visible='true' lat='-34.08872531957' lon='150.54190014417'>
    <tag k='addr:housenumber' v='96' />
    <tag k='addr:street' v='Wanawong Street' />
  </node>
  <node id='-934840' visible='true' lat='-34.09195825991' lon='150.53607994785'>
    <tag k='addr:housenumber' v='203' />
    <tag k='addr:street' v='Binalong Road' />
  </node>
  <node id='-934842' visible='true' lat='-34.07613976493' lon='150.53957971139'>
    <tag k='addr:housenumber' v='1167' />
    <tag k='addr:street' v='Burragorang Road' />
  </node>
  <node id='-934844' visible='true' lat='-34.09194682595' lon='150.54550764967'>
    <tag k='addr:housenumber' v='83' />
    <tag k='addr:street' v='Wanawong Street' />
  </node>
  <node id='-934846' visible='true' lat='-34.08566486003' lon='150.54137533884'>
    <tag k='addr:housenumber' v='10' />
    <tag k='addr:street' v='Wanawong Street' />
  </node>
  <node id='-934848' visible='true' lat='-34.07704475596' lon='150.54581704509'>
    <tag k='addr:housenumber' v='1123' />
    <tag k='addr:street' v='Burragorang Road' />
  </node>
  <node id='-934850' visible='true' lat='-34.07608135523' lon='150.53925688723'>
    <tag k='addr:housenumber' v='1169' />
    <tag k='addr:street' v='Burragorang Road' />
  </node>
  <node id='-934852' visible='true' lat='-34.08894287786' lon='150.54331004401'>
    <tag k='addr:housenumber' v='80' />
    <tag k='addr:street' v='Wanawong Street' />
  </node>
  <node id='-934854' visible='true' lat='-34.08894373902' lon='150.53118798531'>
    <tag k='addr:housenumber' v='250' />
    <tag k='addr:street' v='Binalong Road' />
  </node>
  <node id='-934856' visible='true' lat='-34.08689013954' lon='150.53248893029'>
    <tag k='addr:housenumber' v='70' />
    <tag k='addr:street' v='Kundabung Street' />
  </node>
  <node id='-934858' visible='true' lat='-34.08734611169' lon='150.53501562972'>
    <tag k='addr:housenumber' v='71' />
    <tag k='addr:street' v='Kundabung Street' />
  </node>
  <node id='-934860' visible='true' lat='-34.07960959643' lon='150.53954789051'>
    <tag k='addr:housenumber' v='15' />
    <tag k='addr:street' v='Yallah Street' />
  </node>
  <node id='-934862' visible='true' lat='-34.07789144435' lon='150.54152473626'>
    <tag k='addr:housenumber' v='22' />
    <tag k='addr:street' v='Binalong Road' />
  </node>
  <node id='-934864' visible='true' lat='-34.08908211795' lon='150.52921864354'>
    <tag k='addr:housenumber' v='195' />
    <tag k='addr:street' v='Russell Lane' />
  </node>
  <node id='-934866' visible='true' lat='-34.08473136963' lon='150.53473974161'>
    <tag k='addr:housenumber' v='45' />
    <tag k='addr:street' v='Kundabung Street' />
  </node>
  <node id='-934868' visible='true' lat='-34.07958892408' lon='150.54884867761'>
    <tag k='addr:housenumber' v='1103' />
    <tag k='addr:street' v='Burragorang Road' />
  </node>
  <node id='-934870' visible='true' lat='-34.08634820952' lon='150.53259903763'>
    <tag k='addr:housenumber' v='66' />
    <tag k='addr:street' v='Kundabung Street' />
  </node>
  <node id='-934872' visible='true' lat='-34.08921788956' lon='150.53290747604'>
    <tag k='addr:housenumber' v='98' />
    <tag k='addr:street' v='Kundabung Street' />
  </node>
  <node id='-934874' visible='true' lat='-34.08018342908' lon='150.53954795453'>
    <tag k='addr:housenumber' v='35' />
    <tag k='addr:street' v='Yallah Street' />
  </node>
  <node id='-934876' visible='true' lat='-34.08340183977' lon='150.53674362249'>
    <tag k='addr:housenumber' v='20' />
    <tag k='addr:street' v='Kundabung Street' />
  </node>
  <node id='-934878' visible='true' lat='-34.07780027034' lon='150.53925558111'>
    <tag k='addr:housenumber' v='20' />
    <tag k='addr:street' v='Yallah Street' />
  </node>
  <node id='-934880' visible='true' lat='-34.09174155646' lon='150.53809961283'>
    <tag k='addr:housenumber' v='133' />
    <tag k='addr:street' v='Wanawong Street' />
  </node>
  <node id='-934882' visible='true' lat='-34.08491250097' lon='150.53985424214'>
    <tag k='addr:housenumber' v='115' />
    <tag k='addr:street' v='Binalong Road' />
  </node>
  <node id='-934884' visible='true' lat='-34.07677620878' lon='150.54419559211'>
    <tag k='addr:housenumber' v='1133' />
    <tag k='addr:street' v='Burragorang Road' />
  </node>
  <node id='-934886' visible='true' lat='-34.0919901216' lon='150.53938818463'>
    <tag k='addr:housenumber' v='115' />
    <tag k='addr:street' v='Wanawong Street' />
  </node>
  <node id='-934888' visible='true' lat='-34.08820790299' lon='150.53706490218'>
    <tag k='addr:housenumber' v='164' />
    <tag k='addr:street' v='Binalong Road' />
  </node>
  <node id='-934890' visible='true' lat='-34.08922733853' lon='150.53877581457'>
    <tag k='addr:housenumber' v='175' />
    <tag k='addr:street' v='Binalong Road' />
  </node>
  <node id='-934892' visible='true' lat='-34.07743135435' lon='150.54674954775'>
    <tag k='addr:housenumber' v='1117' />
    <tag k='addr:street' v='Burragorang Road' />
  </node>
  <node id='-934894' visible='true' lat='-34.08484699614' lon='150.53607801892'>
    <tag k='addr:housenumber' v='25' />
    <tag k='addr:street' v='Kundabung Street' />
  </node>
  <node id='-934896' action='modify' visible='true' lat='-34.07799742284' lon='150.54043027224'>
    <tag k='addr:housenumber' v='10' />
    <tag k='addr:street' v='Yallah Street' />
  </node>
  <node id='-934898' action='modify' visible='true' lat='-34.07799742284' lon='150.54038688981'>
    <tag k='addr:housenumber' v='10C' />
    <tag k='addr:street' v='Yallah Street' />
  </node>
  <node id='-934900' visible='true' lat='-34.07920379139' lon='150.54690901308'>
    <tag k='addr:housenumber' v='1115' />
    <tag k='addr:street' v='Burragorang Road' />
  </node>
  <node id='-934902' visible='true' lat='-34.09213732642' lon='150.54079247516'>
    <tag k='addr:housenumber' v='105' />
    <tag k='addr:street' v='Wanawong Street' />
  </node>
  <node id='-934904' visible='true' lat='-34.07801452773' lon='150.53738588514'>
    <tag k='addr:housenumber' v='30' />
    <tag k='addr:street' v='Yallah Street' />
  </node>
  <node id='-934906' visible='true' lat='-34.08854214259' lon='150.5389901314'>
    <tag k='addr:housenumber' v='165' />
    <tag k='addr:street' v='Binalong Road' />
  </node>
  <node id='-934908' visible='true' lat='-34.08526430642' lon='150.53281904651'>
    <tag k='addr:housenumber' v='54' />
    <tag k='addr:street' v='Kundabung Street' />
  </node>
  <node id='-934910' visible='true' lat='-34.08523868331' lon='150.53926484364'>
    <tag k='addr:housenumber' v='131' />
    <tag k='addr:street' v='Binalong Road' />
  </node>
  <node id='-934912' visible='true' lat='-34.07626138821' lon='150.54057053728'>
    <tag k='addr:housenumber' v='1161' />
    <tag k='addr:street' v='Burragorang Road' />
  </node>
  <node id='-934914' visible='true' lat='-34.08788268545' lon='150.53489887164'>
    <tag k='addr:housenumber' v='79' />
    <tag k='addr:street' v='Kundabung Street' />
  </node>
  <node id='-934916' visible='true' lat='-34.0861524238' lon='150.5417440173'>
    <tag k='addr:housenumber' v='16' />
    <tag k='addr:street' v='Wanawong Street' />
  </node>
  <node id='-934918' visible='true' lat='-34.08453102211' lon='150.54187173205'>
    <tag k='addr:housenumber' v='99' />
    <tag k='addr:street' v='Binalong Road' />
  </node>
  <node id='-934920' visible='true' lat='-34.09149807263' lon='150.53148141646'>
    <tag k='addr:housenumber' v='241' />
    <tag k='addr:street' v='Binalong Road' />
  </node>
  <node id='-934922' visible='true' lat='-34.07694642312' lon='150.54516971381'>
    <tag k='addr:housenumber' v='1127' />
    <tag k='addr:street' v='Burragorang Road' />
  </node>
  <node id='-934924' visible='true' lat='-34.09212737205' lon='150.54007725068'>
    <tag k='addr:housenumber' v='109' />
    <tag k='addr:street' v='Wanawong Street' />
  </node>
  <node id='-934926' visible='true' lat='-34.09269990098' lon='150.54280999275'>
    <tag k='addr:housenumber' v='91' />
    <tag k='addr:street' v='Wanawong Street' />
  </node>
  <node id='-934928' visible='true' lat='-34.08469338404' lon='150.54124008163'>
    <tag k='addr:housenumber' v='105' />
    <tag k='addr:street' v='Binalong Road' />
  </node>
  <node id='-934930' visible='true' lat='-34.07617610669' lon='150.53991343022'>
    <tag k='addr:housenumber' v='1165' />
    <tag k='addr:street' v='Burragorang Road' />
  </node>
  <node id='-934932' visible='true' lat='-34.08743209865' lon='150.53237902339'>
    <tag k='addr:housenumber' v='80' />
    <tag k='addr:street' v='Kundabung Street' />
  </node>
  <node id='-934934' visible='true' lat='-34.07668537297' lon='150.5495033148'>
    <tag k='addr:housenumber' v='1110' />
    <tag k='addr:street' v='Burragorang Road' />
  </node>
  <node id='-934936' visible='true' lat='-34.07472719135' lon='150.54673166538'>
    <tag k='addr:housenumber' v='1130' />
    <tag k='addr:street' v='Burragorang Road' />
  </node>
  <node id='-934938' visible='true' lat='-34.07906504735' lon='150.54124986996'>
    <tag k='addr:housenumber' v='34' />
    <tag k='addr:street' v='Binalong Road' />
  </node>
  <node id='-934940' action='modify' visible='true' lat='-34.08077645787' lon='150.53965569887'>
    <tag k='addr:housenumber' v='41' />
    <tag k='addr:street' v='Yallah Street' />
  </node>
  <node id='-934942' action='modify' visible='true' lat='-34.08077645787' lon='150.53969908273'>
    <tag k='addr:housenumber' v='41A' />
    <tag k='addr:street' v='Yallah Street' />
  </node>
</osm>
