<?xml version='1.0' encoding='UTF-8'?>
<osm version='0.6' generator='JOSM'>
  <node id='-204387' lat='-33.799037' lon='151.074532'>
    <tag k='addr:housenumber' v='4' />
    <tag k='addr:street' v='Bergin Street' />
  </node>
  <node id='-204389' lat='-33.801626' lon='151.076257'>
    <tag k='addr:housenumber' v='4' />
    <tag k='addr:street' v='Driver Street' />
  </node>
  <node id='-204391' lat='-33.799679' lon='151.075005'>
    <tag k='addr:housenumber' v='2' />
    <tag k='addr:street' v='Dunshea Street' />
  </node>
  <node id='-204393' lat='-33.803047' lon='151.076435'>
    <tag k='addr:housenumber' v='38' />
    <tag k='addr:street' v='Glenayr Avenue' />
  </node>
  <node id='-204395' lat='-33.801431' lon='151.079281'>
    <tag k='addr:housenumber' v='43' />
    <tag k='addr:street' v='Mirool Street' />
  </node>
  <node id='-204397' lat='-33.799342' lon='151.074246'>
    <tag k='addr:housenumber' v='4' />
    <tag k='addr:street' v='Allars Street' />
  </node>
  <node id='-204399' lat='-33.799578' lon='151.077026'>
    <tag k='addr:housenumber' v='11' />
    <tag k='addr:street' v='Sluman Street' />
  </node>
  <node id='-204401' lat='-33.799838' lon='151.077128'>
    <tag k='addr:housenumber' v='22' />
    <tag k='addr:street' v='Perkins Street' />
  </node>
  <node id='-204403' lat='-33.8023' lon='151.08015'>
    <tag k='addr:housenumber' v='4' />
    <tag k='addr:street' v='Mimos Street' />
  </node>
  <node id='-204405' lat='-33.801974' lon='151.07899'>
    <tag k='addr:housenumber' v='43' />
    <tag k='addr:street' v='Moira Avenue' />
  </node>
  <node id='-204407' lat='-33.802368' lon='151.07559'>
    <tag k='addr:housenumber' v='49' />
    <tag k='addr:street' v='Glenayr Avenue' />
  </node>
  <node id='-204409' lat='-33.800773' lon='151.074524'>
    <tag k='addr:housenumber' v='5' />
    <tag k='addr:street' v='Perkins Street' />
  </node>
  <node id='-204411' lat='-33.79943' lon='151.077605'>
    <tag k='addr:housenumber' v='17' />
    <tag k='addr:street' v='Sluman Street' />
  </node>
  <node id='-204413' lat='-33.799759' lon='151.079246'>
    <tag k='addr:housenumber' v='10' />
    <tag k='addr:street' v='Genner Street' />
  </node>
  <node id='-204415' lat='-33.803195' lon='151.075789'>
    <tag k='addr:housenumber' v='35' />
    <tag k='addr:street' v='Glenayr Avenue' />
  </node>
  <node id='-204417' lat='-33.798311' lon='151.078754'>
    <tag k='addr:housenumber' v='112' />
    <tag k='addr:street' v='Shaftsbury Road' />
  </node>
  <node id='-204419' lat='-33.798686' lon='151.079119'>
    <tag k='addr:housenumber' v='38' />
    <tag k='addr:street' v='Sluman Street' />
  </node>
  <node id='-204421' lat='-33.801071' lon='151.075265'>
    <tag k='addr:housenumber' v='21' />
    <tag k='addr:street' v='Tramway Street' />
  </node>
  <node id='-204423' lat='-33.802558' lon='151.076346'>
    <tag k='addr:housenumber' v='46' />
    <tag k='addr:street' v='Glenayr Avenue' />
  </node>
  <node id='-204425' lat='-33.801136' lon='151.078145'>
    <tag k='addr:housenumber' v='38A' />
    <tag k='addr:street' v='Mirool Street' />
  </node>
  <node id='-204427' lat='-33.799693' lon='151.077692'>
    <tag k='addr:housenumber' v='28' />
    <tag k='addr:street' v='Perkins Street' />
  </node>
  <node id='-204429' lat='-33.799331' lon='151.077991'>
    <tag k='addr:housenumber' v='21' />
    <tag k='addr:street' v='Sluman Street' />
  </node>
  <node id='-204431' lat='-33.800989' lon='151.078772'>
    <tag k='addr:housenumber' v='42' />
    <tag k='addr:street' v='Mirool Street' />
  </node>
  <node id='-204433' lat='-33.799779' lon='151.076246'>
    <tag k='addr:housenumber' v='5' />
    <tag k='addr:street' v='Sluman Street' />
  </node>
  <node id='-204435' lat='-33.79848' lon='151.073505'>
    <tag k='addr:housenumber' v='76' />
    <tag k='addr:street' v='Darvall Road' />
  </node>
  <node id='-204437' lat='-33.801282' lon='151.079999'>
    <tag k='addr:housenumber' v='53' />
    <tag k='addr:street' v='Mirool Street' />
  </node>
  <node id='-204439' lat='-33.79886' lon='151.077665'>
    <tag k='addr:housenumber' v='22' />
    <tag k='addr:street' v='Sluman Street' />
  </node>
  <node id='-204441' lat='-33.799235' lon='151.078371'>
    <tag k='addr:housenumber' v='25' />
    <tag k='addr:street' v='Sluman Street' />
  </node>
  <node id='-204443' lat='-33.800738' lon='151.076592'>
    <tag k='addr:housenumber' v='9' />
    <tag k='addr:street' v='Tramway Street' />
  </node>
  <node id='-204445' lat='-33.798638' lon='151.073541'>
    <tag k='addr:housenumber' v='78' />
    <tag k='addr:street' v='Darvall Road' />
  </node>
  <node id='-204447' lat='-33.801532' lon='151.078379'>
    <tag k='addr:housenumber' v='41' />
    <tag k='addr:street' v='Mirool Street' />
  </node>
  <node id='-204449' lat='-33.802443' lon='151.079035'>
    <tag k='addr:housenumber' v='39' />
    <tag k='addr:street' v='Moira Avenue' />
  </node>
  <node id='-204451' lat='-33.799991' lon='151.076536'>
    <tag k='addr:housenumber' v='18' />
    <tag k='addr:street' v='Perkins Street' />
  </node>
  <node id='-204453' lat='-33.79796' lon='151.078727'>
    <tag k='addr:housenumber' v='118' />
    <tag k='addr:street' v='Shaftsbury Road' />
  </node>
  <node id='-204455' lat='-33.800256' lon='151.075591'>
    <tag k='addr:housenumber' v='23' />
    <tag k='addr:street' v='Allars Street' />
  </node>
  <node id='-204457' lat='-33.798961' lon='151.077316'>
    <tag k='addr:housenumber' v='18' />
    <tag k='addr:street' v='Sluman Street' />
  </node>
  <node id='-204459' lat='-33.80116' lon='151.07488'>
    <tag k='addr:housenumber' v='25' />
    <tag k='addr:street' v='Tramway Street' />
  </node>
  <node id='-204461' lat='-33.800784' lon='151.078652'>
    <tag k='addr:housenumber' v='1' />
    <tag k='addr:street' v='Genner Street' />
  </node>
  <node id='-204463' lat='-33.802192' lon='151.07628'>
    <tag k='addr:housenumber' v='52' />
    <tag k='addr:street' v='Glenayr Avenue' />
  </node>
  <node id='-204465' lat='-33.801371' lon='151.079568'>
    <tag k='addr:housenumber' v='47' />
    <tag k='addr:street' v='Mirool Street' />
  </node>
  <node id='-204467' lat='-33.798131' lon='151.078804'>
    <tag k='addr:housenumber' v='116' />
    <tag k='addr:street' v='Shaftsbury Road' />
  </node>
  <node id='-204469' lat='-33.80054' lon='151.077369'>
    <tag k='addr:housenumber' v='1' />
    <tag k='addr:street' v='Tramway Street' />
  </node>
  <node id='-204471' lat='-33.79907' lon='151.075363'>
    <tag k='addr:housenumber' v='10' />
    <tag k='addr:street' v='Dunshea Street' />
  </node>
  <node id='-204473' lat='-33.800837' lon='151.079389'>
    <tag k='addr:housenumber' v='46' />
    <tag k='addr:street' v='Mirool Street' />
  </node>
  <node id='-204475' lat='-33.799821' lon='151.07605'>
    <tag k='addr:housenumber' v='3' />
    <tag k='addr:street' v='Sluman Street' />
  </node>
  <node id='-204477' action='modify' lat='-33.80089355928' lon='151.07918618964'>
    <tag k='addr:housenumber' v='44' />
    <tag k='addr:street' v='Mirool Street' />
  </node>
  <node id='-204479' action='modify' lat='-33.80086244072' lon='151.07918618964'>
    <tag k='addr:housenumber' v='2/44' />
    <tag k='addr:street' v='Mirool Street' />
  </node>
  <node id='-204481' action='modify' lat='-33.800878' lon='151.07921862073'>
    <tag k='addr:housenumber' v='1/44' />
    <tag k='addr:street' v='Mirool Street' />
  </node>
  <node id='-204483' lat='-33.801311' lon='151.079856'>
    <tag k='addr:housenumber' v='51' />
    <tag k='addr:street' v='Mirool Street' />
  </node>
  <node id='-204485' lat='-33.802871' lon='151.079994'>
    <tag k='addr:housenumber' v='7' />
    <tag k='addr:street' v='Morvan Street' />
  </node>
  <node id='-204487' lat='-33.798759' lon='151.078014'>
    <tag k='addr:housenumber' v='26' />
    <tag k='addr:street' v='Sluman Street' />
  </node>
  <node id='-204489' lat='-33.801117' lon='151.075076'>
    <tag k='addr:housenumber' v='23' />
    <tag k='addr:street' v='Tramway Street' />
  </node>
  <node id='-204491' lat='-33.802844' lon='151.077868'>
    <tag k='addr:housenumber' v='29' />
    <tag k='addr:street' v='Mirool Street' />
  </node>
  <node id='-204493' lat='-33.803241' lon='151.07842'>
    <tag k='addr:housenumber' v='34' />
    <tag k='addr:street' v='Moira Avenue' />
  </node>
  <node id='-204495' lat='-33.798509' lon='151.073978'>
    <tag k='addr:housenumber' v='7' />
    <tag k='addr:street' v='Bergin Street' />
  </node>
  <node id='-204497' lat='-33.800552' lon='151.079656'>
    <tag k='addr:housenumber' v='92' />
    <tag k='addr:street' v='Shaftsbury Road' />
  </node>
  <node id='-204499' lat='-33.799283' lon='151.078182'>
    <tag k='addr:housenumber' v='23' />
    <tag k='addr:street' v='Sluman Street' />
  </node>
  <node id='-204501' lat='-33.802678' lon='151.077871'>
    <tag k='addr:housenumber' v='31' />
    <tag k='addr:street' v='Mirool Street' />
  </node>
  <node id='-204503' lat='-33.80337' lon='151.078429'>
    <tag k='addr:housenumber' v='32' />
    <tag k='addr:street' v='Moira Avenue' />
  </node>
  <node id='-204505' lat='-33.798798' lon='151.075881'>
    <tag k='addr:housenumber' v='16' />
    <tag k='addr:street' v='Dunshea Street' />
  </node>
  <node id='-204507' lat='-33.798656' lon='151.07837'>
    <tag k='addr:housenumber' v='30' />
    <tag k='addr:street' v='Sluman Street' />
  </node>
  <node id='-204509' lat='-33.803548' lon='151.075876'>
    <tag k='addr:housenumber' v='29' />
    <tag k='addr:street' v='Glenayr Avenue' />
  </node>
  <node id='-204511' lat='-33.800796' lon='151.079587'>
    <tag k='addr:housenumber' v='48' />
    <tag k='addr:street' v='Mirool Street' />
  </node>
  <node id='-204513' lat='-33.802626' lon='151.078349'>
    <tag k='addr:housenumber' v='44' />
    <tag k='addr:street' v='Moira Avenue' />
  </node>
  <node id='-204515' lat='-33.801032' lon='151.078327'>
    <tag k='addr:housenumber' v='40' />
    <tag k='addr:street' v='Mirool Street' />
  </node>
  <node id='-204517' lat='-33.802749' lon='151.078363'>
    <tag k='addr:housenumber' v='42' />
    <tag k='addr:street' v='Moira Avenue' />
  </node>
  <node id='-204519' lat='-33.800141' lon='151.074211'>
    <tag k='addr:housenumber' v='4' />
    <tag k='addr:street' v='Perkins Street' />
  </node>
  <node id='-204521' lat='-33.799187' lon='151.078561'>
    <tag k='addr:housenumber' v='27' />
    <tag k='addr:street' v='Sluman Street' />
  </node>
  <node id='-204523' lat='-33.801879' lon='151.075475'>
    <tag k='addr:housenumber' v='57' />
    <tag k='addr:street' v='Glenayr Avenue' />
  </node>
  <node id='-204525' lat='-33.802725' lon='151.079108'>
    <tag k='addr:housenumber' v='35' />
    <tag k='addr:street' v='Moira Avenue' />
  </node>
  <node id='-204527' lat='-33.800648' lon='151.075739'>
    <tag k='addr:housenumber' v='17' />
    <tag k='addr:street' v='Perkins Street' />
  </node>
  <node id='-204529' lat='-33.798904' lon='151.074586'>
    <tag k='addr:housenumber' v='6' />
    <tag k='addr:street' v='Bergin Street' />
  </node>
  <node id='-204531' lat='-33.801977' lon='151.076516'>
    <tag k='addr:housenumber' v='1' />
    <tag k='addr:street' v='Driver Street' />
  </node>
  <node id='-204533' lat='-33.802019' lon='151.077918'>
    <tag k='addr:housenumber' v='37' />
    <tag k='addr:street' v='Mirool Street' />
  </node>
  <node id='-204535' lat='-33.798668' lon='151.074011'>
    <tag k='addr:housenumber' v='5' />
    <tag k='addr:street' v='Bergin Street' />
  </node>
  <node id='-204537' lat='-33.803182' lon='151.075322'>
    <tag k='addr:housenumber' v='120' />
    <tag k='addr:street' v='Darvall Road' />
  </node>
  <node id='-204539' lat='-33.800406' lon='151.079609'>
    <tag k='addr:housenumber' v='94' />
    <tag k='addr:street' v='Shaftsbury Road' />
  </node>
  <node id='-204541' lat='-33.798676' lon='151.078563'>
    <tag k='addr:housenumber' v='32' />
    <tag k='addr:street' v='Sluman Street' />
  </node>
  <node id='-204543' lat='-33.800619' lon='151.078607'>
    <tag k='addr:housenumber' v='3' />
    <tag k='addr:street' v='Genner Street' />
  </node>
  <node id='-204545' lat='-33.802925' lon='151.076413'>
    <tag k='addr:housenumber' v='40' />
    <tag k='addr:street' v='Glenayr Avenue' />
  </node>
  <node id='-204547' lat='-33.79826' lon='151.073729'>
    <tag k='addr:housenumber' v='70' />
    <tag k='addr:street' v='Darvall Road' />
  </node>
  <node id='-204549' lat='-33.802171' lon='151.076641'>
    <tag k='addr:housenumber' v='3A' />
    <tag k='addr:street' v='Driver Street' />
  </node>
  <node id='-204551' lat='-33.799883' lon='151.07438'>
    <tag k='addr:housenumber' v='7' />
    <tag k='addr:street' v='Allars Street' />
  </node>
  <node id='-204553' lat='-33.80277' lon='151.077302'>
    <tag k='addr:housenumber' v='30' />
    <tag k='addr:street' v='Mirool Street' />
  </node>
  <node id='-204555' lat='-33.798766' lon='151.074623'>
    <tag k='addr:housenumber' v='8' />
    <tag k='addr:street' v='Bergin Street' />
  </node>
  <node id='-204557' lat='-33.802314' lon='151.076302'>
    <tag k='addr:housenumber' v='50' />
    <tag k='addr:street' v='Glenayr Avenue' />
  </node>
  <node id='-204559' lat='-33.802534' lon='151.079373'>
    <tag k='addr:housenumber' v='14' />
    <tag k='addr:street' v='Mimos Street' />
  </node>
  <node id='-204561' lat='-33.800325' lon='151.077043'>
    <tag k='addr:housenumber' v='29' />
    <tag k='addr:street' v='Perkins Street' />
  </node>
  <node id='-204563' lat='-33.801394' lon='151.077437'>
    <tag k='addr:housenumber' v='13' />
    <tag k='addr:street' v='Driver Street' />
  </node>
  <node id='-204565' lat='-33.801809' lon='151.07971'>
    <tag k='addr:housenumber' v='7' />
    <tag k='addr:street' v='Mimos Street' />
  </node>
  <node id='-204567' lat='-33.803249' lon='151.07725'>
    <tag k='addr:housenumber' v='24' />
    <tag k='addr:street' v='Mirool Street' />
  </node>
  <node id='-204569' lat='-33.802256' lon='151.078306'>
    <tag k='addr:housenumber' v='50' />
    <tag k='addr:street' v='Moira Avenue' />
  </node>
  <node id='-204571' lat='-33.799451' lon='151.076022'>
    <tag k='addr:housenumber' v='6-8' />
    <tag k='addr:street' v='Sluman Street' />
  </node>
  <node id='-204573' lat='-33.801523' lon='151.075487'>
    <tag k='addr:housenumber' v='18' />
    <tag k='addr:street' v='Tramway Street' />
  </node>
  <node id='-204575' lat='-33.80201' lon='151.078278'>
    <tag k='addr:housenumber' v='54' />
    <tag k='addr:street' v='Moira Avenue' />
  </node>
  <node id='-204577' lat='-33.80301' lon='151.079358'>
    <tag k='addr:housenumber' v='13A' />
    <tag k='addr:street' v='Morvan Street' />
  </node>
  <node id='-204579' lat='-33.800277' lon='151.077232'>
    <tag k='addr:housenumber' v='31' />
    <tag k='addr:street' v='Perkins Street' />
  </node>
  <node id='-204581' lat='-33.801657' lon='151.074898'>
    <tag k='addr:housenumber' v='26' />
    <tag k='addr:street' v='Tramway Street' />
  </node>
  <node id='-204583' lat='-33.801098' lon='151.077653'>
    <tag k='addr:housenumber' v='17' />
    <tag k='addr:street' v='Driver Street' />
  </node>
  <node id='-204585' lat='-33.798705' lon='151.078188'>
    <tag k='addr:housenumber' v='28' />
    <tag k='addr:street' v='Sluman Street' />
  </node>
  <node id='-204587' lat='-33.800931' lon='151.075839'>
    <tag k='addr:housenumber' v='15' />
    <tag k='addr:street' v='Tramway Street' />
  </node>
  <node id='-204589' lat='-33.802872' lon='151.078377'>
    <tag k='addr:housenumber' v='40' />
    <tag k='addr:street' v='Moira Avenue' />
  </node>
  <node id='-204591' lat='-33.800841' lon='151.074746'>
    <tag k='addr:housenumber' v='7' />
    <tag k='addr:street' v='Perkins Street' />
  </node>
  <node id='-204593' lat='-33.799452' lon='151.074572'>
    <tag k='addr:housenumber' v='8' />
    <tag k='addr:street' v='Allars Street' />
  </node>
  <node id='-204595' lat='-33.798824' lon='151.074'>
    <tag k='addr:housenumber' v='3' />
    <tag k='addr:street' v='Bergin Street' />
  </node>
  <node id='-204597' lat='-33.798776' lon='151.076523'>
    <tag k='addr:housenumber' v='22' />
    <tag k='addr:street' v='Dunshea Street' />
  </node>
  <node id='-204599' lat='-33.800083' lon='151.078626'>
    <tag k='addr:housenumber' v='9' />
    <tag k='addr:street' v='Genner Street' />
  </node>
  <node id='-204601' lat='-33.800469' lon='151.076477'>
    <tag k='addr:housenumber' v='23' />
    <tag k='addr:street' v='Perkins Street' />
  </node>
  <node id='-204603' lat='-33.801681' lon='151.077217'>
    <tag k='addr:housenumber' v='9' />
    <tag k='addr:street' v='Driver Street' />
  </node>
  <node id='-204605' lat='-33.798869' lon='151.075696'>
    <tag k='addr:housenumber' v='14' />
    <tag k='addr:street' v='Dunshea Street' />
  </node>
  <node id='-204607' lat='-33.799198' lon='151.076763'>
    <tag k='addr:housenumber' v='14' />
    <tag k='addr:street' v='Sluman Street' />
  </node>
  <node id='-204609' lat='-33.799969' lon='151.079474'>
    <tag k='addr:housenumber' v='100' />
    <tag k='addr:street' v='Shaftsbury Road' />
  </node>
  <node id='-204611' lat='-33.799727' lon='151.076441'>
    <tag k='addr:housenumber' v='7' />
    <tag k='addr:street' v='Sluman Street' />
  </node>
  <node id='-204613' lat='-33.801899' lon='151.079279'>
    <tag k='addr:housenumber' v='13' />
    <tag k='addr:street' v='Mimos Street' />
  </node>
  <node id='-204615' lat='-33.803366' lon='151.078014'>
    <tag k='addr:housenumber' v='15' />
    <tag k='addr:street' v='Morvan Street' />
  </node>
  <node id='-204617' lat='-33.801184' lon='151.076767'>
    <tag k='addr:housenumber' v='6' />
    <tag k='addr:street' v='Tramway Street' />
  </node>
  <node id='-204619' lat='-33.801869' lon='151.079423'>
    <tag k='addr:housenumber' v='11' />
    <tag k='addr:street' v='Mimos Street' />
  </node>
  <node id='-204621' lat='-33.803091' lon='151.077267'>
    <tag k='addr:housenumber' v='26' />
    <tag k='addr:street' v='Mirool Street' />
  </node>
  <node id='-204623' lat='-33.801231' lon='151.076581'>
    <tag k='addr:housenumber' v='8' />
    <tag k='addr:street' v='Tramway Street' />
  </node>
  <node id='-204625' lat='-33.803704' lon='151.075482'>
    <tag k='addr:housenumber' v='128' />
    <tag k='addr:street' v='Darvall Road' />
  </node>
  <node id='-204627' lat='-33.79896' lon='151.075521'>
    <tag k='addr:housenumber' v='12' />
    <tag k='addr:street' v='Dunshea Street' />
  </node>
  <node id='-204629' lat='-33.799922' lon='151.07589'>
    <tag k='addr:housenumber' v='10' />
    <tag k='addr:street' v='Allars Street' />
  </node>
  <node id='-204631' lat='-33.799736' lon='151.077525'>
    <tag k='addr:housenumber' v='26' />
    <tag k='addr:street' v='Perkins Street' />
  </node>
  <node id='-204633' lat='-33.802652' lon='151.080264'>
    <tag k='addr:housenumber' v='18' />
    <tag k='addr:street' v='Shaftsbury Road' />
  </node>
  <node id='-204635' lat='-33.801023' lon='151.075456'>
    <tag k='addr:housenumber' v='19' />
    <tag k='addr:street' v='Tramway Street' />
  </node>
  <node id='-204637' lat='-33.798981' lon='151.073969'>
    <tag k='addr:housenumber' v='1' />
    <tag k='addr:street' v='Bergin Street' />
  </node>
  <node id='-204639' lat='-33.803444' lon='151.075402'>
    <tag k='addr:housenumber' v='124' />
    <tag k='addr:street' v='Darvall Road' />
  </node>
  <node id='-204641' lat='-33.802836' lon='151.080493'>
    <tag k='addr:housenumber' v='1' />
    <tag k='addr:street' v='Morvan Street' />
  </node>
  <node id='-204643' lat='-33.801175' lon='151.076962'>
    <tag k='addr:housenumber' v='4' />
    <tag k='addr:street' v='Tramway Street' />
  </node>
  <node id='-204645' lat='-33.802142' lon='151.075007'>
    <tag k='addr:housenumber' v='104' />
    <tag k='addr:street' v='Darvall Road' />
  </node>
  <node id='-204647' lat='-33.799016' lon='151.076453'>
    <tag k='addr:housenumber' v='24' />
    <tag k='addr:street' v='Dunshea Street' />
  </node>
  <node id='-204649' lat='-33.80272' lon='151.075677'>
    <tag k='addr:housenumber' v='43' />
    <tag k='addr:street' v='Glenayr Avenue' />
  </node>
  <node id='-204651' lat='-33.800266' lon='151.078595'>
    <tag k='addr:housenumber' v='7' />
    <tag k='addr:street' v='Genner Street' />
  </node>
  <node id='-204653' lat='-33.802004' lon='151.075503'>
    <tag k='addr:housenumber' v='55' />
    <tag k='addr:street' v='Glenayr Avenue' />
  </node>
  <node id='-204655' lat='-33.798698' lon='151.076095'>
    <tag k='addr:housenumber' v='18' />
    <tag k='addr:street' v='Dunshea Street' />
  </node>
  <node id='-204657' lat='-33.801717' lon='151.08014'>
    <tag k='addr:housenumber' v='1' />
    <tag k='addr:street' v='Mimos Street' />
  </node>
  <node id='-204659' lat='-33.80228' lon='151.077395'>
    <tag k='addr:housenumber' v='36' />
    <tag k='addr:street' v='Mirool Street' />
  </node>
  <node id='-204661' lat='-33.802116' lon='151.079023'>
    <tag k='addr:housenumber' v='41' />
    <tag k='addr:street' v='Moira Avenue' />
  </node>
  <node id='-204663' lat='-33.799594' lon='151.078081'>
    <tag k='addr:housenumber' v='32' />
    <tag k='addr:street' v='Perkins Street' />
  </node>
  <node id='-204665' lat='-33.798627' lon='151.078877'>
    <tag k='addr:housenumber' v='36' />
    <tag k='addr:street' v='Sluman Street' />
  </node>
  <node id='-204667' lat='-33.80069' lon='151.076781'>
    <tag k='addr:housenumber' v='7' />
    <tag k='addr:street' v='Tramway Street' />
  </node>
  <node id='-204669' lat='-33.801401' lon='151.079425'>
    <tag k='addr:housenumber' v='45' />
    <tag k='addr:street' v='Mirool Street' />
  </node>
  <node id='-204671' lat='-33.801819' lon='151.078956'>
    <tag k='addr:housenumber' v='45' />
    <tag k='addr:street' v='Moira Avenue' />
  </node>
  <node id='-204673' lat='-33.79964' lon='151.073768'>
    <tag k='addr:housenumber' v='1' />
    <tag k='addr:street' v='Allars Street' />
  </node>
  <node id='-204675' lat='-33.802023' lon='151.076932'>
    <tag k='addr:housenumber' v='5' />
    <tag k='addr:street' v='Driver Street' />
  </node>
  <node id='-204677' lat='-33.799141' lon='151.078755'>
    <tag k='addr:housenumber' v='29' />
    <tag k='addr:street' v='Sluman Street' />
  </node>
  <node id='-204679' lat='-33.7995' lon='151.078455'>
    <tag k='addr:housenumber' v='36' />
    <tag k='addr:street' v='Perkins Street' />
  </node>
  <node id='-204681' lat='-33.799243' lon='151.076462'>
    <tag k='addr:housenumber' v='12' />
    <tag k='addr:street' v='Sluman Street' />
  </node>
  <node id='-204683' lat='-33.800968' lon='151.07429'>
    <tag k='addr:housenumber' v='88' />
    <tag k='addr:street' v='Darvall Road' />
  </node>
  <node id='-204685' lat='-33.798622' lon='151.074633'>
    <tag k='addr:housenumber' v='10' />
    <tag k='addr:street' v='Bergin Street' />
  </node>
  <node id='-204687' lat='-33.80343' lon='151.075847'>
    <tag k='addr:housenumber' v='31' />
    <tag k='addr:street' v='Glenayr Avenue' />
  </node>
  <node id='-204689' lat='-33.799351' lon='151.075133'>
    <tag k='addr:housenumber' v='6' />
    <tag k='addr:street' v='Dunshea Street' />
  </node>
  <node id='-204691' lat='-33.800984' lon='151.078504'>
    <tag k='addr:housenumber' v='40A' />
    <tag k='addr:street' v='Mirool Street' />
  </node>
  <node id='-204693' lat='-33.799056' lon='151.079142'>
    <tag k='addr:housenumber' v='108' />
    <tag k='addr:street' v='Shaftsbury Road' />
  </node>
  <node id='-204695' lat='-33.802513' lon='151.077878'>
    <tag k='addr:housenumber' v='33' />
    <tag k='addr:street' v='Mirool Street' />
  </node>
  <node id='-204697' lat='-33.799644' lon='151.077886'>
    <tag k='addr:housenumber' v='30' />
    <tag k='addr:street' v='Perkins Street' />
  </node>
  <node id='-204699' lat='-33.799326' lon='151.076271'>
    <tag k='addr:housenumber' v='10' />
    <tag k='addr:street' v='Sluman Street' />
  </node>
  <node id='-204701' lat='-33.798477' lon='151.074636'>
    <tag k='addr:housenumber' v='12' />
    <tag k='addr:street' v='Bergin Street' />
  </node>
  <node id='-204703' lat='-33.80268' lon='151.076368'>
    <tag k='addr:housenumber' v='44' />
    <tag k='addr:street' v='Glenayr Avenue' />
  </node>
  <node id='-204705' lat='-33.801446' lon='151.07683'>
    <tag k='addr:housenumber' v='10' />
    <tag k='addr:street' v='Driver Street' />
  </node>
  <node id='-204707' lat='-33.802268' lon='151.08031'>
    <tag k='addr:housenumber' v='2' />
    <tag k='addr:street' v='Mimos Street' />
  </node>
  <node id='-204709' lat='-33.799674' lon='151.076649'>
    <tag k='addr:housenumber' v='9' />
    <tag k='addr:street' v='Sluman Street' />
  </node>
  <node id='-204711' lat='-33.800977' lon='151.075649'>
    <tag k='addr:housenumber' v='17' />
    <tag k='addr:street' v='Tramway Street' />
  </node>
  <node id='-204713' lat='-33.801624' lon='151.075045'>
    <tag k='addr:housenumber' v='24' />
    <tag k='addr:street' v='Tramway Street' />
  </node>
  <node id='-204715' lat='-33.802334' lon='151.07999'>
    <tag k='addr:housenumber' v='6' />
    <tag k='addr:street' v='Mimos Street' />
  </node>
  <node id='-204717' lat='-33.800091' lon='151.074945'>
    <tag k='addr:housenumber' v='13' />
    <tag k='addr:street' v='Allars Street' />
  </node>
  <node id='-204719' lat='-33.802401' lon='151.075086'>
    <tag k='addr:housenumber' v='108' />
    <tag k='addr:street' v='Darvall Road' />
  </node>
  <node id='-204721' lat='-33.801879' lon='151.077083'>
    <tag k='addr:housenumber' v='7' />
    <tag k='addr:street' v='Driver Street' />
  </node>
  <node id='-204723' lat='-33.798359' lon='151.073958'>
    <tag k='addr:housenumber' v='9' />
    <tag k='addr:street' v='Bergin Street' />
  </node>
  <node id='-204725' lat='-33.803414' lon='151.076502'>
    <tag k='addr:housenumber' v='32' />
    <tag k='addr:street' v='Glenayr Avenue' />
  </node>
  <node id='-204727' lat='-33.799199' lon='151.075229'>
    <tag k='addr:housenumber' v='8' />
    <tag k='addr:street' v='Dunshea Street' />
  </node>
  <node id='-204729' lat='-33.799453' lon='151.078641'>
    <tag k='addr:housenumber' v='38' />
    <tag k='addr:street' v='Perkins Street' />
  </node>
  <node id='-204731' lat='-33.79913' lon='151.073717'>
    <tag k='addr:housenumber' v='84' />
    <tag k='addr:street' v='Darvall Road' />
  </node>
  <node id='-204733' lat='-33.800628' lon='151.079265'>
    <tag k='addr:housenumber' v='2' />
    <tag k='addr:street' v='Genner Street' />
  </node>
  <node id='-204735' lat='-33.80284' lon='151.075704'>
    <tag k='addr:housenumber' v='41' />
    <tag k='addr:street' v='Glenayr Avenue' />
  </node>
  <node id='-204737' lat='-33.80153' lon='151.076635'>
    <tag k='addr:housenumber' v='8' />
    <tag k='addr:street' v='Driver Street' />
  </node>
  <node id='-204739' lat='-33.803291' lon='151.07648'>
    <tag k='addr:housenumber' v='34' />
    <tag k='addr:street' v='Glenayr Avenue' />
  </node>
  <node id='-204741' lat='-33.800114' lon='151.079514'>
    <tag k='addr:housenumber' v='98' />
    <tag k='addr:street' v='Shaftsbury Road' />
  </node>
  <node id='-204743' lat='-33.799478' lon='151.077413'>
    <tag k='addr:housenumber' v='15' />
    <tag k='addr:street' v='Sluman Street' />
  </node>
  <node id='-204745' lat='-33.80002' lon='151.07475'>
    <tag k='addr:housenumber' v='11' />
    <tag k='addr:street' v='Allars Street' />
  </node>
  <node id='-204747' lat='-33.799943' lon='151.073859'>
    <tag k='addr:housenumber' v='86' />
    <tag k='addr:street' v='Darvall Road' />
  </node>
  <node id='-204749' lat='-33.799413' lon='151.075651'>
    <tag k='addr:housenumber' v='3' />
    <tag k='addr:street' v='Dunshea Street' />
  </node>
  <node id='-204751' lat='-33.798336' lon='151.074636'>
    <tag k='addr:housenumber' v='14' />
    <tag k='addr:street' v='Bergin Street' />
  </node>
  <node id='-204753' lat='-33.802486' lon='151.07562'>
    <tag k='addr:housenumber' v='47' />
    <tag k='addr:street' v='Glenayr Avenue' />
  </node>
  <node id='-204755' action='modify' lat='-33.80135' lon='151.07895262085'>
    <tag k='addr:housenumber' v='51' />
    <tag k='addr:street' v='Moira Avenue' />
  </node>
  <node id='-204757' action='modify' lat='-33.80136555928' lon='151.07892018958'>
    <tag k='addr:housenumber' v='2/51' />
    <tag k='addr:street' v='Moira Avenue' />
  </node>
  <node id='-204759' action='modify' lat='-33.80133444072' lon='151.07892018958'>
    <tag k='addr:housenumber' v='51A' />
    <tag k='addr:street' v='Moira Avenue' />
  </node>
  <node id='-204761' lat='-33.800518' lon='151.0763'>
    <tag k='addr:housenumber' v='21' />
    <tag k='addr:street' v='Perkins Street' />
  </node>
  <node id='-204763' lat='-33.799352' lon='151.079262'>
    <tag k='addr:housenumber' v='104' />
    <tag k='addr:street' v='Shaftsbury Road' />
  </node>
  <node id='-204765' lat='-33.802519' lon='151.080221'>
    <tag k='addr:housenumber' v='20' />
    <tag k='addr:street' v='Shaftsbury Road' />
  </node>
  <node id='-204767' lat='-33.802053' lon='151.076754'>
    <tag k='addr:housenumber' v='3' />
    <tag k='addr:street' v='Driver Street' />
  </node>
  <node id='-204769' lat='-33.800263' lon='151.079207'>
    <tag k='addr:housenumber' v='6' />
    <tag k='addr:street' v='Genner Street' />
  </node>
  <node id='-204771' lat='-33.803313' lon='151.075362'>
    <tag k='addr:housenumber' v='122' />
    <tag k='addr:street' v='Darvall Road' />
  </node>
  <node id='-204773' lat='-33.801672' lon='151.076055'>
    <tag k='addr:housenumber' v='2' />
    <tag k='addr:street' v='Driver Street' />
  </node>
  <node id='-204775' lat='-33.802442' lon='151.077362'>
    <tag k='addr:housenumber' v='34' />
    <tag k='addr:street' v='Mirool Street' />
  </node>
  <node id='-204777' lat='-33.799548' lon='151.078269'>
    <tag k='addr:housenumber' v='34' />
    <tag k='addr:street' v='Perkins Street' />
  </node>
  <node id='-204779' lat='-33.801879' lon='151.074928'>
    <tag k='addr:housenumber' v='100' />
    <tag k='addr:street' v='Darvall Road' />
  </node>
  <node id='-204781' lat='-33.800783' lon='151.077811'>
    <tag k='addr:housenumber' v='21' />
    <tag k='addr:street' v='Driver Street' />
  </node>
  <node id='-204783' lat='-33.802321' lon='151.077885'>
    <tag k='addr:housenumber' v='35' />
    <tag k='addr:street' v='Mirool Street' />
  </node>
  <node id='-204785' lat='-33.802972' lon='151.079515'>
    <tag k='addr:housenumber' v='13' />
    <tag k='addr:street' v='Morvan Street' />
  </node>
  <node id='-204787' lat='-33.799222' lon='151.073896'>
    <tag k='addr:housenumber' v='2' />
    <tag k='addr:street' v='Allars Street' />
  </node>
  <node id='-204789' lat='-33.800373' lon='151.076855'>
    <tag k='addr:housenumber' v='27' />
    <tag k='addr:street' v='Perkins Street' />
  </node>
  <node id='-204791' lat='-33.79881' lon='151.07784'>
    <tag k='addr:housenumber' v='24' />
    <tag k='addr:street' v='Sluman Street' />
  </node>
  <node id='-204793' lat='-33.801055' lon='151.077141'>
    <tag k='addr:housenumber' v='2' />
    <tag k='addr:street' v='Tramway Street' />
  </node>
  <node id='-204795' lat='-33.800036' lon='151.079188'>
    <tag k='addr:housenumber' v='8' />
    <tag k='addr:street' v='Genner Street' />
  </node>
  <node id='-204797' lat='-33.80205' lon='151.076189'>
    <tag k='addr:housenumber' v='54' />
    <tag k='addr:street' v='Glenayr Avenue' />
  </node>
  <node id='-204799' lat='-33.800711' lon='151.074338'>
    <tag k='addr:housenumber' v='3' />
    <tag k='addr:street' v='Perkins Street' />
  </node>
  <node id='-204801' lat='-33.80026' lon='151.079562'>
    <tag k='addr:housenumber' v='96' />
    <tag k='addr:street' v='Shaftsbury Road' />
  </node>
  <node id='-204803' lat='-33.803533' lon='151.076532'>
    <tag k='addr:housenumber' v='30' />
    <tag k='addr:street' v='Glenayr Avenue' />
  </node>
  <node id='-204805' lat='-33.800286' lon='151.0746'>
    <tag k='addr:housenumber' v='8' />
    <tag k='addr:street' v='Perkins Street' />
  </node>
  <node id='-204807' lat='-33.800883' lon='151.076028'>
    <tag k='addr:housenumber' v='13' />
    <tag k='addr:street' v='Tramway Street' />
  </node>
  <node id='-204809' lat='-33.803313' lon='151.075819'>
    <tag k='addr:housenumber' v='33' />
    <tag k='addr:street' v='Glenayr Avenue' />
  </node>
  <node id='-204811' lat='-33.802663' lon='151.075165'>
    <tag k='addr:housenumber' v='112' />
    <tag k='addr:street' v='Darvall Road' />
  </node>
  <node id='-204813' lat='-33.803175' lon='151.07787'>
    <tag k='addr:housenumber' v='25' />
    <tag k='addr:street' v='Mirool Street' />
  </node>
  <node id='-204815' lat='-33.802871' lon='151.080335'>
    <tag k='addr:housenumber' v='3' />
    <tag k='addr:street' v='Morvan Street' />
  </node>
  <node id='-204817' lat='-33.801534' lon='151.077324'>
    <tag k='addr:housenumber' v='11' />
    <tag k='addr:street' v='Driver Street' />
  </node>
  <node id='-204819' lat='-33.799937' lon='151.076744'>
    <tag k='addr:housenumber' v='20' />
    <tag k='addr:street' v='Perkins Street' />
  </node>
  <node id='-204821' lat='-33.799401' lon='151.078841'>
    <tag k='addr:housenumber' v='40' />
    <tag k='addr:street' v='Perkins Street' />
  </node>
  <node id='-204823' lat='-33.800594' lon='151.077159'>
    <tag k='addr:housenumber' v='3' />
    <tag k='addr:street' v='Tramway Street' />
  </node>
  <node id='-204825' lat='-33.800695' lon='151.075548'>
    <tag k='addr:housenumber' v='15' />
    <tag k='addr:street' v='Perkins Street' />
  </node>
  <node id='-204827' lat='-33.798801' lon='151.073579'>
    <tag k='addr:housenumber' v='80' />
    <tag k='addr:street' v='Darvall Road' />
  </node>
  <node id='-204829' lat='-33.798649' lon='151.076399'>
    <tag k='addr:housenumber' v='20' />
    <tag k='addr:street' v='Dunshea Street' />
  </node>
  <node id='-204831' lat='-33.799393' lon='151.074407'>
    <tag k='addr:housenumber' v='6' />
    <tag k='addr:street' v='Allars Street' />
  </node>
  <node id='-204833' lat='-33.802605' lon='151.07733'>
    <tag k='addr:housenumber' v='32' />
    <tag k='addr:street' v='Mirool Street' />
  </node>
  <node id='-204835' lat='-33.802904' lon='151.080175'>
    <tag k='addr:housenumber' v='5' />
    <tag k='addr:street' v='Morvan Street' />
  </node>
  <node id='-204837' lat='-33.800618' lon='151.074152'>
    <tag k='addr:housenumber' v='1' />
    <tag k='addr:street' v='Perkins Street' />
  </node>
  <node id='-204839' lat='-33.801381' lon='151.076'>
    <tag k='addr:housenumber' v='14' />
    <tag k='addr:street' v='Tramway Street' />
  </node>
  <node id='-204841' lat='-33.802128' lon='151.075532'>
    <tag k='addr:housenumber' v='53' />
    <tag k='addr:street' v='Glenayr Avenue' />
  </node>
  <node id='-204843' lat='-33.801615' lon='151.078142'>
    <tag k='addr:housenumber' v='39' />
    <tag k='addr:street' v='Mirool Street' />
  </node>
  <node id='-204845' lat='-33.800352' lon='151.074799'>
    <tag k='addr:housenumber' v='10' />
    <tag k='addr:street' v='Perkins Street' />
  </node>
  <node id='-204847' lat='-33.799757' lon='151.079466'>
    <tag k='addr:housenumber' v='102' />
    <tag k='addr:street' v='Shaftsbury Road' />
  </node>
  <node id='-204849' lat='-33.801481' lon='151.07565'>
    <tag k='addr:housenumber' v='16' />
    <tag k='addr:street' v='Tramway Street' />
  </node>
  <node id='-204851' lat='-33.802271' lon='151.075047'>
    <tag k='addr:housenumber' v='106' />
    <tag k='addr:street' v='Darvall Road' />
  </node>
  <node id='-204853' lat='-33.802604' lon='151.075647'>
    <tag k='addr:housenumber' v='45' />
    <tag k='addr:street' v='Glenayr Avenue' />
  </node>
  <node id='-204855' lat='-33.798987' lon='151.073603'>
    <tag k='addr:housenumber' v='82' />
    <tag k='addr:street' v='Darvall Road' />
  </node>
  <node id='-204857' lat='-33.800421' lon='151.076666'>
    <tag k='addr:housenumber' v='25' />
    <tag k='addr:street' v='Perkins Street' />
  </node>
  <node id='-204859' lat='-33.801327' lon='151.076203'>
    <tag k='addr:housenumber' v='12' />
    <tag k='addr:street' v='Tramway Street' />
  </node>
  <node id='-204861' lat='-33.800068' lon='151.076135'>
    <tag k='addr:housenumber' v='14' />
    <tag k='addr:street' v='Perkins Street' />
  </node>
  <node id='-204863' lat='-33.801279' lon='151.076392'>
    <tag k='addr:housenumber' v='10' />
    <tag k='addr:street' v='Tramway Street' />
  </node>
  <node id='-204865' lat='-33.799175' lon='151.074479'>
    <tag k='addr:housenumber' v='2' />
    <tag k='addr:street' v='Bergin Street' />
  </node>
  <node id='-204867' lat='-33.801762' lon='151.075444'>
    <tag k='addr:housenumber' v='59' />
    <tag k='addr:street' v='Glenayr Avenue' />
  </node>
  <node id='-204869' lat='-33.79973' lon='151.074001'>
    <tag k='addr:housenumber' v='3' />
    <tag k='addr:street' v='Allars Street' />
  </node>
  <node id='-204871' lat='-33.802938' lon='151.079674'>
    <tag k='addr:housenumber' v='11' />
    <tag k='addr:street' v='Morvan Street' />
  </node>
  <node id='-204873' lat='-33.801118' lon='151.074487'>
    <tag k='addr:housenumber' v='90' />
    <tag k='addr:street' v='Darvall Road' />
  </node>
  <node id='-204875' lat='-33.800041' lon='151.076341'>
    <tag k='addr:housenumber' v='16' />
    <tag k='addr:street' v='Perkins Street' />
  </node>
  <node id='-204877' lat='-33.798909' lon='151.07749'>
    <tag k='addr:housenumber' v='20' />
    <tag k='addr:street' v='Sluman Street' />
  </node>
  <node id='-204879' lat='-33.799527' lon='151.077223'>
    <tag k='addr:housenumber' v='13' />
    <tag k='addr:street' v='Sluman Street' />
  </node>
  <node id='-204881' lat='-33.800644' lon='151.076962'>
    <tag k='addr:housenumber' v='5' />
    <tag k='addr:street' v='Tramway Street' />
  </node>
  <node id='-204883' lat='-33.801578' lon='151.076446'>
    <tag k='addr:housenumber' v='6' />
    <tag k='addr:street' v='Driver Street' />
  </node>
  <node id='-204885' lat='-33.803118' lon='151.078406'>
    <tag k='addr:housenumber' v='36' />
    <tag k='addr:street' v='Moira Avenue' />
  </node>
  <node id='-204887' lat='-33.802533' lon='151.075125'>
    <tag k='addr:housenumber' v='110' />
    <tag k='addr:street' v='Darvall Road' />
  </node>
  <node id='-204889' lat='-33.799522' lon='151.075066'>
    <tag k='addr:housenumber' v='4' />
    <tag k='addr:street' v='Dunshea Street' />
  </node>
  <node id='-204891' lat='-33.800071' lon='151.074028'>
    <tag k='addr:housenumber' v='2' />
    <tag k='addr:street' v='Perkins Street' />
  </node>
  <node id='-204893' lat='-33.799006' lon='151.077139'>
    <tag k='addr:housenumber' v='16' />
    <tag k='addr:street' v='Sluman Street' />
  </node>
  <node id='-204895' lat='-33.800447' lon='151.078597'>
    <tag k='addr:housenumber' v='5' />
    <tag k='addr:street' v='Genner Street' />
  </node>
  <node id='-204897' lat='-33.803009' lon='151.077869'>
    <tag k='addr:housenumber' v='27' />
    <tag k='addr:street' v='Mirool Street' />
  </node>
  <node id='-204899' lat='-33.799381' lon='151.077798'>
    <tag k='addr:housenumber' v='19' />
    <tag k='addr:street' v='Sluman Street' />
  </node>
  <node id='-204901' lat='-33.799815' lon='151.074195'>
    <tag k='addr:housenumber' v='5' />
    <tag k='addr:street' v='Allars Street' />
  </node>
  <node id='-204903' lat='-33.801248' lon='151.077545'>
    <tag k='addr:housenumber' v='15' />
    <tag k='addr:street' v='Driver Street' />
  </node>
  <node id='-204905' lat='-33.802133' lon='151.078292'>
    <tag k='addr:housenumber' v='52' />
    <tag k='addr:street' v='Moira Avenue' />
  </node>
  <node id='-204907' lat='-33.800787' lon='151.07516'>
    <tag k='addr:housenumber' v='11' />
    <tag k='addr:street' v='Perkins Street' />
  </node>
  <node id='-204909' lat='-33.801691' lon='151.074754'>
    <tag k='addr:housenumber' v='28' />
    <tag k='addr:street' v='Tramway Street' />
  </node>
  <node id='-204911' lat='-33.800605' lon='151.07593'>
    <tag k='addr:housenumber' v='19' />
    <tag k='addr:street' v='Perkins Street' />
  </node>
  <node id='-204913' lat='-33.801557' lon='151.075338'>
    <tag k='addr:housenumber' v='20' />
    <tag k='addr:street' v='Tramway Street' />
  </node>
  <node id='-204915' lat='-33.798193' lon='151.074677'>
    <tag k='addr:housenumber' v='16' />
    <tag k='addr:street' v='Bergin Street' />
  </node>
  <node id='-204917' lat='-33.799269' lon='151.075957'>
    <tag k='addr:housenumber' v='5' />
    <tag k='addr:street' v='Dunshea Street' />
  </node>
  <node id='-204919' lat='-33.802905' lon='151.079834'>
    <tag k='addr:housenumber' v='9' />
    <tag k='addr:street' v='Morvan Street' />
  </node>
  <node id='-204921' lat='-33.798439' lon='151.079009'>
    <tag k='addr:housenumber' v='110' />
    <tag k='addr:street' v='Shaftsbury Road' />
  </node>
  <node id='-204923' lat='-33.802011' lon='151.074968'>
    <tag k='addr:housenumber' v='102' />
    <tag k='addr:street' v='Darvall Road' />
  </node>
  <node id='-204925' lat='-33.803169' lon='151.076457'>
    <tag k='addr:housenumber' v='36' />
    <tag k='addr:street' v='Glenayr Avenue' />
  </node>
  <node id='-204927' lat='-33.800457' lon='151.079232'>
    <tag k='addr:housenumber' v='4' />
    <tag k='addr:street' v='Genner Street' />
  </node>
  <node id='-204929' lat='-33.802501' lon='151.079533'>
    <tag k='addr:housenumber' v='12' />
    <tag k='addr:street' v='Mimos Street' />
  </node>
  <node id='-204931' lat='-33.801341' lon='151.079712'>
    <tag k='addr:housenumber' v='49' />
    <tag k='addr:street' v='Mirool Street' />
  </node>
  <node id='-204933' lat='-33.799201' lon='151.079217'>
    <tag k='addr:housenumber' v='106' />
    <tag k='addr:street' v='Shaftsbury Road' />
  </node>
  <node id='-204935' lat='-33.803052' lon='151.075282'>
    <tag k='addr:housenumber' v='118' />
    <tag k='addr:street' v='Darvall Road' />
  </node>
  <node id='-204937' lat='-33.803667' lon='151.075905'>
    <tag k='addr:housenumber' v='27' />
    <tag k='addr:street' v='Glenayr Avenue' />
  </node>
  <node id='-204939' lat='-33.80238' lon='151.07832'>
    <tag k='addr:housenumber' v='48' />
    <tag k='addr:street' v='Moira Avenue' />
  </node>
  <node id='-204941' lat='-33.800741' lon='151.075352'>
    <tag k='addr:housenumber' v='13' />
    <tag k='addr:street' v='Perkins Street' />
  </node>
  <node id='-204943' lat='-33.802436' lon='151.076324'>
    <tag k='addr:housenumber' v='48' />
    <tag k='addr:street' v='Glenayr Avenue' />
  </node>
  <node id='-204945' lat='-33.802803' lon='151.076391'>
    <tag k='addr:housenumber' v='42' />
    <tag k='addr:street' v='Glenayr Avenue' />
  </node>
  <node id='-204947' lat='-33.801748' lon='151.079997'>
    <tag k='addr:housenumber' v='3' />
    <tag k='addr:street' v='Mimos Street' />
  </node>
  <node id='-204949' lat='-33.802578' lon='151.079063'>
    <tag k='addr:housenumber' v='37' />
    <tag k='addr:street' v='Moira Avenue' />
  </node>
  <node id='-204951' lat='-33.799783' lon='151.07734'>
    <tag k='addr:housenumber' v='24' />
    <tag k='addr:street' v='Perkins Street' />
  </node>
  <node id='-204953' lat='-33.802923' lon='151.075244'>
    <tag k='addr:housenumber' v='116' />
    <tag k='addr:street' v='Darvall Road' />
  </node>
  <node id='-204955' lat='-33.799883' lon='151.078744'>
    <tag k='addr:housenumber' v='11' />
    <tag k='addr:street' v='Genner Street' />
  </node>
  <node id='-204957' lat='-33.801887' lon='151.078263'>
    <tag k='addr:housenumber' v='56' />
    <tag k='addr:street' v='Moira Avenue' />
  </node>
  <node id='-204959' lat='-33.802434' lon='151.079852'>
    <tag k='addr:housenumber' v='8' />
    <tag k='addr:street' v='Mimos Street' />
  </node>
  <node id='-204961' lat='-33.802932' lon='151.077283'>
    <tag k='addr:housenumber' v='28' />
    <tag k='addr:street' v='Mirool Street' />
  </node>
  <node id='-204963' lat='-33.802249' lon='151.075562'>
    <tag k='addr:housenumber' v='51' />
    <tag k='addr:street' v='Glenayr Avenue' />
  </node>
  <node id='-204965' lat='-33.802503' lon='151.078335'>
    <tag k='addr:housenumber' v='46' />
    <tag k='addr:street' v='Moira Avenue' />
  </node>
  <node id='-204967' lat='-33.802793' lon='151.075205'>
    <tag k='addr:housenumber' v='114' />
    <tag k='addr:street' v='Darvall Road' />
  </node>
  <node id='-204969' lat='-33.800784' lon='151.076397'>
    <tag k='addr:housenumber' v='11' />
    <tag k='addr:street' v='Tramway Street' />
  </node>
  <node id='-204971' lat='-33.801778' lon='151.079854'>
    <tag k='addr:housenumber' v='5' />
    <tag k='addr:street' v='Mimos Street' />
  </node>
  <node id='-204973' lat='-33.803574' lon='151.075442'>
    <tag k='addr:housenumber' v='126' />
    <tag k='addr:street' v='Darvall Road' />
  </node>
  <node id='-204975' lat='-33.80094' lon='151.077735'>
    <tag k='addr:housenumber' v='19' />
    <tag k='addr:street' v='Driver Street' />
  </node>
  <node id='-204977' lat='-33.801839' lon='151.079566'>
    <tag k='addr:housenumber' v='9' />
    <tag k='addr:street' v='Mimos Street' />
  </node>
  <node id='-204979' lat='-33.801764' lon='151.078249'>
    <tag k='addr:housenumber' v='58' />
    <tag k='addr:street' v='Moira Avenue' />
  </node>
  <node id='-204981' lat='-33.803368' lon='151.077735'>
    <tag k='addr:housenumber' v='17' />
    <tag k='addr:street' v='Morvan Street' />
  </node>
  <node id='-204983' lat='-33.80159' lon='151.075191'>
    <tag k='addr:housenumber' v='22' />
    <tag k='addr:street' v='Tramway Street' />
  </node>
  <node id='-204985' lat='-33.802467' lon='151.079692'>
    <tag k='addr:housenumber' v='10' />
    <tag k='addr:street' v='Mimos Street' />
  </node>
  <node id='-204987' lat='-33.80296' lon='151.075732'>
    <tag k='addr:housenumber' v='39' />
    <tag k='addr:street' v='Glenayr Avenue' />
  </node>
  <node id='-204989' lat='-33.802995' lon='151.078391'>
    <tag k='addr:housenumber' v='38' />
    <tag k='addr:street' v='Moira Avenue' />
  </node>
  <node id='-204991' lat='-33.801499' lon='151.078962'>
    <tag k='addr:housenumber' v='49' />
    <tag k='addr:street' v='Moira Avenue' />
  </node>
  <node id='-204993' lat='-33.80083' lon='151.074971'>
    <tag k='addr:housenumber' v='9' />
    <tag k='addr:street' v='Perkins Street' />
  </node>
  <node id='-204995' lat='-33.798639' lon='151.078722'>
    <tag k='addr:housenumber' v='34' />
    <tag k='addr:street' v='Sluman Street' />
  </node>
  <node id='-204997' lat='-33.799567' lon='151.075648'>
    <tag k='addr:housenumber' v='2-4' />
    <tag k='addr:street' v='Sluman Street' />
  </node>
  <node id='-204999' lat='-33.801192' lon='151.074672'>
    <tag k='addr:housenumber' v='27' />
    <tag k='addr:street' v='Tramway Street' />
  </node>
  <node id='-205001' lat='-33.803077' lon='151.075762'>
    <tag k='addr:housenumber' v='37' />
    <tag k='addr:street' v='Glenayr Avenue' />
  </node>
  <node id='-205003' lat='-33.80075' lon='151.07979'>
    <tag k='addr:housenumber' v='50' />
    <tag k='addr:street' v='Mirool Street' />
  </node>
  <node id='-205005' lat='-33.801648' lon='151.078994'>
    <tag k='addr:housenumber' v='47' />
    <tag k='addr:street' v='Moira Avenue' />
  </node>
  <node id='-205007' lat='-33.802083' lon='151.077502'>
    <tag k='addr:housenumber' v='38' />
    <tag k='addr:street' v='Mirool Street' />
  </node>
  <node id='-205009' lat='-33.799888' lon='151.075661'>
    <tag k='addr:housenumber' v='1' />
    <tag k='addr:street' v='Sluman Street' />
  </node>
  <node id='-205011' lat='-33.800088' lon='151.074481'>
    <tag k='addr:housenumber' v='6' />
    <tag k='addr:street' v='Perkins Street' />
  </node>
  <node id='-205013' lat='-33.799241' lon='151.078965'>
    <tag k='addr:housenumber' v='42' />
    <tag k='addr:street' v='Perkins Street' />
  </node>
  <node id='-205015' lat='-33.799755' lon='151.076888'>
    <tag k='addr:housenumber' v='20A' />
    <tag k='addr:street' v='Perkins Street' />
  </node>
  <node id='-205017' lat='-33.802894' lon='151.079058'>
    <tag k='addr:housenumber' v='33' />
    <tag k='addr:street' v='Moira Avenue' />
  </node>
  <node id='-205019' lat='-33.803049' lon='151.079085'>
    <tag k='addr:housenumber' v='31' />
    <tag k='addr:street' v='Moira Avenue' />
  </node>
  <node id='-205021' lat='-33.801593' lon='151.077521'>
    <tag k='addr:housenumber' v='35' />
    <tag k='addr:street' v='Perkins Street' />
  </node>
  <node id='-205023' lat='-33.800239' lon='151.077472'>
    <tag k='addr:housenumber' v='33' />
    <tag k='addr:street' v='Perkins Street' />
  </node>
  <node id='-205025' action='modify' lat='-33.803206' lon='151.07912962132'>
    <tag k='addr:housenumber' v='29' />
    <tag k='addr:street' v='Moira Avenue' />
  </node>
  <node id='-205029' action='modify' lat='-33.803206' lon='151.07908637868'>
    <tag k='addr:housenumber' v='29A' />
    <tag k='addr:street' v='Moira Avenue' />
  </node>
  <node id='-205031' lat='-33.79856' lon='151.075379'>
    <tag k='addr:housenumber' v='92' />
    <tag k='addr:street' v='Tarrants Avenue' />
  </node>
  <node id='-205033' action='modify' lat='-33.80014191303' lon='151.07531868112'>
    <tag k='addr:housenumber' v='15' />
    <tag k='addr:street' v='Allars Street' />
  </node>
  <node id='-205035' action='modify' lat='-33.800159' lon='151.07533362055'>
    <tag k='addr:housenumber' v='1/15' />
    <tag k='addr:street' v='Allars Street' />
  </node>
  <node id='-205037' action='modify' lat='-33.80016956033' lon='151.07529450861'>
    <tag k='addr:housenumber' v='2/15' />
    <tag k='addr:street' v='Allars Street' />
  </node>
  <node id='-205039' action='modify' lat='-33.80014843967' lon='151.07529450861'>
    <tag k='addr:housenumber' v='3/15' />
    <tag k='addr:street' v='Allars Street' />
  </node>
  <node id='-205041' action='modify' lat='-33.80017608697' lon='151.07531868112'>
    <tag k='addr:housenumber' v='5/15' />
    <tag k='addr:street' v='Allars Street' />
  </node>
  <node id='-205043' lat='-33.80034' lon='151.075234'>
    <tag k='addr:housenumber' v='12' />
    <tag k='addr:street' v='Perkins Street' />
  </node>
  <node id='-205045' action='modify' lat='-33.80340644072' lon='151.07721818931'>
    <tag k='addr:housenumber' v='19B' />
    <tag k='addr:street' v='Morvan Street' />
  </node>
  <node id='-205047' action='modify' lat='-33.803422' lon='151.07725062137'>
    <tag k='addr:housenumber' v='19A' />
    <tag k='addr:street' v='Morvan Street' />
  </node>
  <node id='-205049' action='modify' lat='-33.80343755928' lon='151.07721818931'>
    <tag k='addr:housenumber' v='19' />
    <tag k='addr:street' v='Morvan Street' />
  </node>
</osm>
