<?xml version='1.0' encoding='UTF-8'?>
<osm version='0.6' generator='JOSM'>
  <node id='-358578' visible='true' lat='-34.54394139211' lon='150.58480746811'>
    <tag k='addr:housenumber' v='66' />
    <tag k='addr:street' v='Moresby Hill Road' />
  </node>
  <node id='-358580' visible='true' lat='-34.53092463547' lon='150.6127687125'>
    <tag k='addr:housenumber' v='1403' />
    <tag k='addr:street' v='Tourist Road' />
  </node>
  <node id='-358582' visible='true' lat='-34.54716944156' lon='150.58518620507'>
    <tag k='addr:housenumber' v='104' />
    <tag k='addr:street' v='Moresby Hill Road' />
  </node>
  <node id='-358584' visible='true' lat='-34.54385333407' lon='150.59199714001'>
    <tag k='addr:housenumber' v='141' />
    <tag k='addr:street' v='Moresby Hill Road' />
  </node>
  <node id='-358586' visible='true' lat='-34.54425344566' lon='150.58664965157'>
    <tag k='addr:housenumber' v='98' />
    <tag k='addr:street' v='Moresby Hill Road' />
  </node>
  <node id='-358588' visible='true' lat='-34.53930524202' lon='150.61742649911'>
    <tag k='addr:housenumber' v='1531' />
    <tag k='addr:street' v='Tourist Road' />
  </node>
  <node id='-358590' visible='true' lat='-34.53482284629' lon='150.6133198921'>
    <tag k='addr:housenumber' v='1421' />
    <tag k='addr:street' v='Tourist Road' />
  </node>
  <node id='-358592' visible='true' lat='-34.55362884865' lon='150.61772598083'>
    <tag k='addr:housenumber' v='1750' />
    <tag k='addr:street' v='Tourist Road' />
  </node>
  <node id='-358594' visible='true' lat='-34.56230721089' lon='150.61664098092'>
    <tag k='addr:housenumber' v='1760' />
    <tag k='addr:street' v='Tourist Road' />
  </node>
  <node id='-358596' visible='true' lat='-34.52793835683' lon='150.57354717741'>
    <tag k='addr:housenumber' v='988' />
    <tag k='addr:street' v='Tourist Road' />
  </node>
  <node id='-358598' visible='true' lat='-34.54768055932' lon='150.58994978953'>
    <tag k='addr:housenumber' v='116' />
    <tag k='addr:street' v='Moresby Hill Road' />
  </node>
  <node id='-358600' visible='true' lat='-34.53468482276' lon='150.61850271298'>
    <tag k='addr:housenumber' v='1405' />
    <tag k='addr:street' v='Tourist Road' />
  </node>
  <node id='-358602' visible='true' lat='-34.54392522578' lon='150.58306903461'>
    <tag k='addr:housenumber' v='64' />
    <tag k='addr:street' v='Moresby Hill Road' />
  </node>
  <node id='-358604' visible='true' lat='-34.52499884271' lon='150.60111103705'>
    <tag k='addr:housenumber' v='1268' />
    <tag k='addr:street' v='Tourist Road' />
  </node>
  <node id='-358606' visible='true' lat='-34.52881387189' lon='150.59965436444'>
    <tag k='addr:housenumber' v='1170' />
    <tag k='addr:street' v='Tourist Road' />
  </node>
  <node id='-358608' visible='true' lat='-34.52981402918' lon='150.61299739883'>
    <tag k='addr:housenumber' v='1401' />
    <tag k='addr:street' v='Tourist Road' />
  </node>
  <node id='-358610' visible='true' lat='-34.54342944528' lon='150.58905494286'>
    <tag k='addr:housenumber' v='109' />
    <tag k='addr:street' v='Moresby Hill Road' />
  </node>
  <node id='-358612' visible='true' lat='-34.5553552303' lon='150.58801588007'>
    <tag k='addr:housenumber' v='2051' />
    <tag k='addr:street' v='Kangaloon Road' />
  </node>
  <node id='-358614' visible='true' lat='-34.54569434924' lon='150.61954633122'>
    <tag k='addr:housenumber' v='1581' />
    <tag k='addr:street' v='Tourist Road' />
  </node>
  <node id='-358616' visible='true' lat='-34.5513680869' lon='150.62606701472'>
    <tag k='addr:housenumber' v='1671' />
    <tag k='addr:street' v='Tourist Road' />
  </node>
  <node id='-358618' visible='true' lat='-34.53678368498' lon='150.58364485553'>
    <tag k='addr:housenumber' v='65' />
    <tag k='addr:street' v='Moresby Hill Road' />
  </node>
  <node id='-358620' visible='true' lat='-34.54284916101' lon='150.58710341205'>
    <tag k='addr:housenumber' v='97' />
    <tag k='addr:street' v='Moresby Hill Road' />
  </node>
  <node id='-358622' visible='true' lat='-34.54734320483' lon='150.59672589841'>
    <tag k='addr:housenumber' v='156' />
    <tag k='addr:street' v='Moresby Hill Road' />
  </node>
  <node id='-358624' visible='true' lat='-34.54167992515' lon='150.59590257897'>
    <tag k='addr:housenumber' v='185' />
    <tag k='addr:street' v='Moresby Hill Road' />
  </node>
  <node id='-358626' visible='true' lat='-34.52862453587' lon='150.58892752178'>
    <tag k='addr:housenumber' v='1100' />
    <tag k='addr:street' v='Tourist Road' />
  </node>
  <node id='-358628' visible='true' lat='-34.54355127048' lon='150.60492567026'>
    <tag k='addr:housenumber' v='251' />
    <tag k='addr:street' v='Moresby Hill Road' />
  </node>
  <node id='-358630' visible='true' lat='-34.53380406744' lon='150.60604916133'>
    <tag k='addr:housenumber' v='233' />
    <tag k='addr:street' v='Moresby Hill Road' />
  </node>
  <node id='-358632' visible='true' lat='-34.56105702347' lon='150.57285593717'>
    <tag k='addr:housenumber' v='1970' />
    <tag k='addr:street' v='Kangaloon Road' />
  </node>
  <node id='-358634' visible='true' lat='-34.56849994654' lon='150.60050919069'>
    <tag k='addr:housenumber' v='2179' />
    <tag k='addr:street' v='Kangaloon Road' />
  </node>
  <node id='-358636' visible='true' lat='-34.56507945072' lon='150.58856149775'>
    <tag k='addr:housenumber' v='2128' />
    <tag k='addr:street' v='Kangaloon Road' />
  </node>
  <node id='-358638' visible='true' lat='-34.55822089152' lon='150.58217224296'>
    <tag k='addr:housenumber' v='2001' />
    <tag k='addr:street' v='Kangaloon Road' />
  </node>
  <node id='-358640' visible='true' lat='-34.55792552295' lon='150.57897784316'>
    <tag k='addr:housenumber' v='1971' />
    <tag k='addr:street' v='Kangaloon Road' />
  </node>
  <node id='-358642' visible='true' lat='-34.55797614297' lon='150.57937004448'>
    <tag k='addr:housenumber' v='1973' />
    <tag k='addr:street' v='Kangaloon Road' />
  </node>
  <node id='-358644' visible='true' lat='-34.55846576384' lon='150.57898389545'>
    <tag k='addr:housenumber' v='1974' />
    <tag k='addr:street' v='Kangaloon Road' />
  </node>
  <node id='-358646' visible='true' lat='-34.55933918067' lon='150.57855501762'>
    <tag k='addr:housenumber' v='1972' />
    <tag k='addr:street' v='Kangaloon Road' />
  </node>
  <node id='-358648' visible='true' lat='-34.56116351164' lon='150.58661876189'>
    <tag k='addr:housenumber' v='2044' />
    <tag k='addr:street' v='Kangaloon Road' />
  </node>
  <node id='-358650' visible='true' lat='-34.56399183743' lon='150.58390609739'>
    <tag k='addr:housenumber' v='2040' />
    <tag k='addr:street' v='Kangaloon Road' />
  </node>
  <node id='-358652' visible='true' lat='-34.55801560582' lon='150.58073264075'>
    <tag k='addr:housenumber' v='1991' />
    <tag k='addr:street' v='Kangaloon Road' />
  </node>
  <node id='-358654' visible='true' lat='-34.56467678409' lon='150.59438064419'>
    <tag k='addr:housenumber' v='2151' />
    <tag k='addr:street' v='Kangaloon Road' />
  </node>
  <node id='-358656' visible='true' lat='-34.55446726813' lon='150.57334489602'>
    <tag k='addr:housenumber' v='1961' />
    <tag k='addr:street' v='Kangaloon Road' />
  </node>
  <node id='-358658' visible='true' lat='-34.55765472235' lon='150.59948349726'>
    <tag k='addr:housenumber' v='2053' />
    <tag k='addr:street' v='Kangaloon Road' />
  </node>
  <node id='-358660' visible='true' lat='-34.55891205223' lon='150.5789898141'>
    <tag k='addr:housenumber' v='1976' />
    <tag k='addr:street' v='Kangaloon Road' />
  </node>
  <node id='-358662' visible='true' lat='-34.56121261132' lon='150.58197610534'>
    <tag k='addr:housenumber' v='1990' />
    <tag k='addr:street' v='Kangaloon Road' />
  </node>
  <node id='-358664' visible='true' lat='-34.55905952299' lon='150.57967887975'>
    <tag k='addr:housenumber' v='1978' />
    <tag k='addr:street' v='Kangaloon Road' />
  </node>
  <node id='-358666' visible='true' lat='-34.55745256847' lon='150.57083373354'>
    <tag k='addr:housenumber' v='1881' />
    <tag k='addr:street' v='Kangaloon Road' />
  </node>
  <node id='-358668' visible='true' lat='-34.55752437607' lon='150.57930080606'>
    <tag k='addr:housenumber' v='4' />
    <tag k='addr:street' v='Kirkland Road' />
  </node>
  <node id='-358670' visible='true' lat='-34.55125738328' lon='150.58169514241'>
    <tag k='addr:housenumber' v='94' />
    <tag k='addr:street' v='Kirkland Road' />
  </node>
  <node id='-358672' visible='true' lat='-34.55569863533' lon='150.58158165839'>
    <tag k='addr:housenumber' v='34' />
    <tag k='addr:street' v='Kirkland Road' />
  </node>
  <node id='-358674' visible='true' lat='-34.54976861356' lon='150.57492540088'>
    <tag k='addr:housenumber' v='115' />
    <tag k='addr:street' v='Kirkland Road' />
  </node>
  <node id='-358676' visible='true' lat='-34.54535827664' lon='150.57778668526'>
    <tag k='addr:housenumber' v='122' />
    <tag k='addr:street' v='Kirkland Road' />
  </node>
  <node id='-358678' visible='true' lat='-34.54282350827' lon='150.57595809069'>
    <tag k='addr:housenumber' v='177' />
    <tag k='addr:street' v='Kirkland Road' />
  </node>
  <node id='-358680' visible='true' lat='-34.53218356542' lon='150.57753612944'>
    <tag k='addr:housenumber' v='300' />
    <tag k='addr:street' v='Kirkland Road' />
  </node>
  <node id='-358682' visible='true' lat='-34.52962992938' lon='150.58167215021'>
    <tag k='addr:housenumber' v='344' />
    <tag k='addr:street' v='Kirkland Road' />
  </node>
  <node id='-358684' visible='true' lat='-34.52769410699' lon='150.57965736879'>
    <tag k='addr:housenumber' v='346' />
    <tag k='addr:street' v='Kirkland Road' />
  </node>
</osm>
