<?xml version='1.0' encoding='UTF-8'?>
<osm version='0.6' generator='JOSM'>
  <node id='-397278' visible='true' lat='-34.50974146389' lon='150.48765010931'>
    <tag k='addr:housenumber' v='944' />
    <tag k='addr:street' v='Range Road' />
  </node>
  <node id='-397280' visible='true' lat='-34.52366379865' lon='150.52044223616'>
    <tag k='addr:housenumber' v='400' />
    <tag k='addr:street' v='Tourist Road' />
  </node>
  <node id='-397282' visible='true' lat='-34.52723395786' lon='150.4576917382'>
    <tag k='addr:housenumber' v='225' />
    <tag k='addr:street' v='Sproules Lane' />
  </node>
  <node id='-397284' visible='true' lat='-34.52677417891' lon='150.49220160962'>
    <tag k='addr:housenumber' v='104' />
    <tag k='addr:street' v='Tourist Road' />
  </node>
  <node id='-397286' visible='true' lat='-34.51358394386' lon='150.48146347443'>
    <tag k='addr:housenumber' v='980' />
    <tag k='addr:street' v='Range Road' />
  </node>
  <node id='-397288' visible='true' lat='-34.52132537959' lon='150.50912769646'>
    <tag k='addr:housenumber' v='311' />
    <tag k='addr:street' v='Tourist Road' />
  </node>
  <node id='-397290' visible='true' lat='-34.51743125245' lon='150.4589951975'>
    <tag k='addr:housenumber' v='114' />
    <tag k='addr:street' v='Sproules Lane' />
  </node>
  <node id='-397292' visible='true' lat='-34.52892335847' lon='150.45511286593'>
    <tag k='addr:housenumber' v='250' />
    <tag k='addr:street' v='Sproules Lane' />
  </node>
  <node id='-397294' visible='true' lat='-34.52259659023' lon='150.48458722235'>
    <tag k='addr:housenumber' v='37' />
    <tag k='addr:street' v='Tourist Road' />
  </node>
  <node id='-397296' visible='true' lat='-34.55217008755' lon='150.44958416226'>
    <tag k='addr:housenumber' v='452' />
    <tag k='addr:street' v='Sproules Lane' />
  </node>
  <node id='-397298' visible='true' lat='-34.52942314407' lon='150.45804929752'>
    <tag k='addr:housenumber' v='251' />
    <tag k='addr:street' v='Sproules Lane' />
  </node>
  <node id='-397300' visible='true' lat='-34.52020417396' lon='150.50983729651'>
    <tag k='addr:housenumber' v='329' />
    <tag k='addr:street' v='Tourist Road' />
  </node>
  <node id='-397302' visible='true' lat='-34.50421054098' lon='150.50223260179'>
    <tag k='addr:housenumber' v='50' />
    <tag k='addr:street' v='George Emery Lane' />
  </node>
  <node id='-397304' visible='true' lat='-34.52145337803' lon='150.45018781886'>
    <tag k='addr:housenumber' v='182' />
    <tag k='addr:street' v='Sproules Lane' />
  </node>
  <node id='-397306' visible='true' lat='-34.53620008147' lon='150.485131307'>
    <tag k='addr:housenumber' v='931' />
    <tag k='addr:street' v='Kangaloon Road' />
  </node>
  <node id='-397308' visible='true' lat='-34.52260601352' lon='150.45620171731'>
    <tag k='addr:housenumber' v='176' />
    <tag k='addr:street' v='Sproules Lane' />
  </node>
  <node id='-397310' visible='true' lat='-34.51538971077' lon='150.48283236253'>
    <tag k='addr:housenumber' v='1004' />
    <tag k='addr:street' v='Range Road' />
  </node>
  <node id='-397312' visible='true' lat='-34.53514163734' lon='150.45891963274'>
    <tag k='addr:housenumber' v='303' />
    <tag k='addr:street' v='Sproules Lane' />
  </node>
  <node id='-397314' visible='true' lat='-34.51202535548' lon='150.48874770391'>
    <tag k='addr:housenumber' v='931' />
    <tag k='addr:street' v='Range Road' />
  </node>
  <node id='-397316' visible='true' lat='-34.52244846283' lon='150.48351497549'>
    <tag k='addr:housenumber' v='35' />
    <tag k='addr:street' v='Tourist Road' />
  </node>
  <node id='-397318' visible='true' lat='-34.54100401192' lon='150.44990642012'>
    <tag k='addr:housenumber' v='380' />
    <tag k='addr:street' v='Sproules Lane' />
  </node>
  <node id='-397320' visible='true' lat='-34.53492741111' lon='150.45410277181'>
    <tag k='addr:housenumber' v='310' />
    <tag k='addr:street' v='Sproules Lane' />
  </node>
  <node id='-397322' visible='true' lat='-34.5085390438' lon='150.48277377033'>
    <tag k='addr:housenumber' v='978' />
    <tag k='addr:street' v='Range Road' />
  </node>
  <node id='-397324' visible='true' lat='-34.53077865234' lon='150.46029189195'>
    <tag k='addr:housenumber' v='281' />
    <tag k='addr:street' v='Sproules Lane' />
  </node>
  <node id='-397326' visible='true' lat='-34.52274187516' lon='150.49744211435'>
    <tag k='addr:housenumber' v='179' />
    <tag k='addr:street' v='Tourist Road' />
  </node>
  <node id='-397328' visible='true' lat='-34.53028939798' lon='150.44837981089'>
    <tag k='addr:housenumber' v='260' />
    <tag k='addr:street' v='Sproules Lane' />
  </node>
  <node id='-397330' visible='true' lat='-34.51706460975' lon='150.53435211534'>
    <tag k='addr:housenumber' v='470' />
    <tag k='addr:street' v='Tourist Road' />
  </node>
  <node id='-397332' action='modify' visible='true' lat='-34.52347795088' lon='150.46184929552'>
    <tag k='addr:housenumber' v='115' />
    <tag k='addr:street' v='Sproules Lane' />
  </node>
  <node id='-397334' action='modify' visible='true' lat='-34.52347795088' lon='150.46180568238'>
    <tag k='addr:housenumber' v='111' />
    <tag k='addr:street' v='Sproules Lane' />
  </node>
  <node id='-397336' visible='true' lat='-34.51640330409' lon='150.48679055293'>
    <tag k='addr:housenumber' v='81' />
    <tag k='addr:street' v='Tourist Road' />
  </node>
  <node id='-397338' visible='true' lat='-34.51907989516' lon='150.49161598536'>
    <tag k='addr:housenumber' v='83' />
    <tag k='addr:street' v='Tourist Road' />
  </node>
  <node id='-397340' visible='true' lat='-34.50815810579' lon='150.45728660704'>
    <tag k='addr:housenumber' v='540' />
    <tag k='addr:street' v='Kangaloon Road' />
  </node>
  <node id='-397342' visible='true' lat='-34.52561787659' lon='150.50121931185'>
    <tag k='addr:housenumber' v='280' />
    <tag k='addr:street' v='Tourist Road' />
  </node>
  <node id='-397344' visible='true' lat='-34.5142577665' lon='150.45743418243'>
    <tag k='addr:housenumber' v='100' />
    <tag k='addr:street' v='Sproules Lane' />
  </node>
  <node id='-397346' visible='true' lat='-34.51379256075' lon='150.44930314145'>
    <tag k='addr:housenumber' v='112' />
    <tag k='addr:street' v='Sproules Lane' />
  </node>
  <node id='-397348' visible='true' lat='-34.51034069416' lon='150.45123301933'>
    <tag k='addr:housenumber' v='542' />
    <tag k='addr:street' v='Kangaloon Road' />
  </node>
  <node id='-397350' visible='true' lat='-34.51702038744' lon='150.4448317667'>
    <tag k='addr:housenumber' v='180' />
    <tag k='addr:street' v='Sproules Lane' />
  </node>
  <node id='-397352' visible='true' lat='-34.51358701121' lon='150.53893193966'>
    <tag k='addr:housenumber' v='620' />
    <tag k='addr:street' v='Tourist Road' />
  </node>
  <node id='-397354' visible='true' lat='-34.52492732342' lon='150.52317096425'>
    <tag k='addr:housenumber' v='95' />
    <tag k='addr:street' v='Yeos Lane' />
  </node>
  <node id='-397356' visible='true' lat='-34.52643679683' lon='150.53068079039'>
    <tag k='addr:housenumber' v='71' />
    <tag k='addr:street' v='Yeos Lane' />
  </node>
  <node id='-397358' visible='true' lat='-34.52123777788' lon='150.52640276061'>
    <tag k='addr:housenumber' v='460' />
    <tag k='addr:street' v='Tourist Road' />
  </node>
  <node id='-397360' visible='true' lat='-34.50604558471' lon='150.49596122228'>
    <tag k='addr:housenumber' v='801' />
    <tag k='addr:street' v='Range Road' />
  </node>
  <node id='-397362' visible='true' lat='-34.55792326658' lon='150.46480296736'>
    <tag k='addr:housenumber' v='340' />
    <tag k='addr:street' v='Sheepwash Road' />
  </node>
  <node id='-397364' visible='true' lat='-34.52509710389' lon='150.44437550196'>
    <tag k='addr:housenumber' v='186' />
    <tag k='addr:street' v='Sproules Lane' />
  </node>
  <node id='-397366' visible='true' lat='-34.52124097234' lon='150.44443256009'>
    <tag k='addr:housenumber' v='184' />
    <tag k='addr:street' v='Sproules Lane' />
  </node>
  <node id='-397368' visible='true' lat='-34.51822357364' lon='150.46472802227'>
    <tag k='addr:housenumber' v='81' />
    <tag k='addr:street' v='Sproules Lane' />
  </node>
  <node id='-397370' visible='true' lat='-34.54067461891' lon='150.45510811407'>
    <tag k='addr:housenumber' v='371' />
    <tag k='addr:street' v='Sproules Lane' />
  </node>
  <node id='-397372' visible='true' lat='-34.51061689638' lon='150.50940752599'>
    <tag k='addr:housenumber' v='118' />
    <tag k='addr:street' v='George Emery Lane' />
  </node>
  <node id='-397374' visible='true' lat='-34.50773606224' lon='150.50396503193'>
    <tag k='addr:housenumber' v='60' />
    <tag k='addr:street' v='George Emery Lane' />
  </node>
  <node id='-397376' visible='true' lat='-34.51325305627' lon='150.49518235566'>
    <tag k='addr:housenumber' v='911' />
    <tag k='addr:street' v='Range Road' />
  </node>
  <node id='-397378' visible='true' lat='-34.51390804615' lon='150.51367853041'>
    <tag k='addr:housenumber' v='255' />
    <tag k='addr:street' v='Tourist Road' />
  </node>
  <node id='-397380' visible='true' lat='-34.50041160015' lon='150.51118169825'>
    <tag k='addr:housenumber' v='115' />
    <tag k='addr:street' v='George Emery Lane' />
  </node>
  <node id='-397382' visible='true' lat='-34.5061576498' lon='150.5123849129'>
    <tag k='addr:housenumber' v='120' />
    <tag k='addr:street' v='George Emery Lane' />
  </node>
  <node id='-397384' visible='true' lat='-34.53056466537' lon='150.46371711213'>
    <tag k='addr:housenumber' v='233' />
    <tag k='addr:street' v='Sproules Lane' />
  </node>
  <node id='-397386' visible='true' lat='-34.53706389555' lon='150.46547100122'>
    <tag k='addr:housenumber' v='351' />
    <tag k='addr:street' v='Sproules Lane' />
  </node>
  <node id='-397388' visible='true' lat='-34.53207367371' lon='150.46704347913'>
    <tag k='addr:housenumber' v='231' />
    <tag k='addr:street' v='Sproules Lane' />
  </node>
  <node id='-397390' visible='true' lat='-34.55230569793' lon='150.45772039555'>
    <tag k='addr:housenumber' v='453' />
    <tag k='addr:street' v='Sproules Lane' />
  </node>
  <node id='-397392' visible='true' lat='-34.52098164113' lon='150.53270265829'>
    <tag k='addr:housenumber' v='75' />
    <tag k='addr:street' v='Jack Emery Lane' />
  </node>
  <node id='-397394' visible='true' lat='-34.52957011251' lon='150.47933718926'>
    <tag k='addr:housenumber' v='858' />
    <tag k='addr:street' v='Kangaloon Road' />
  </node>
  <node id='-397396' visible='true' lat='-34.53470829585' lon='150.48267931828'>
    <tag k='addr:housenumber' v='912' />
    <tag k='addr:street' v='Kangaloon Road' />
  </node>
  <node id='-397398' visible='true' lat='-34.54387220123' lon='150.47877882869'>
    <tag k='addr:housenumber' v='191' />
    <tag k='addr:street' v='Sheepwash Road' />
  </node>
  <node id='-397400' visible='true' lat='-34.56552515397' lon='150.47407211747'>
    <tag k='addr:housenumber' v='424' />
    <tag k='addr:street' v='Sheepwash Road' />
  </node>
  <node id='-397402' visible='true' lat='-34.53893677034' lon='150.48760102701'>
    <tag k='addr:housenumber' v='948' />
    <tag k='addr:street' v='Kangaloon Road' />
  </node>
  <node id='-397404' visible='true' lat='-34.53472844391' lon='150.47970335895'>
    <tag k='addr:housenumber' v='32' />
    <tag k='addr:street' v='Sheepwash Road' />
  </node>
  <node id='-397406' visible='true' lat='-34.56471090838' lon='150.47655876121'>
    <tag k='addr:housenumber' v='406' />
    <tag k='addr:street' v='Sheepwash Road' />
  </node>
  <node id='-397408' visible='true' lat='-34.51053409984' lon='150.46507504355'>
    <tag k='addr:housenumber' v='2' />
    <tag k='addr:street' v='Sproules Lane' />
  </node>
  <node id='-397410' visible='true' lat='-34.55141358568' lon='150.47909038633'>
    <tag k='addr:housenumber' v='265' />
    <tag k='addr:street' v='Sheepwash Road' />
  </node>
  <node id='-397412' visible='true' lat='-34.54023379612' lon='150.49155151129'>
    <tag k='addr:housenumber' v='1026' />
    <tag k='addr:street' v='Kangaloon Road' />
  </node>
  <node id='-397414' visible='true' lat='-34.55785711702' lon='150.48431912644'>
    <tag k='addr:housenumber' v='323' />
    <tag k='addr:street' v='Sheepwash Road' />
  </node>
  <node id='-397416' visible='true' lat='-34.52461833994' lon='150.47937955805'>
    <tag k='addr:housenumber' v='800' />
    <tag k='addr:street' v='Kangaloon Road' />
  </node>
  <node id='-397418' visible='true' lat='-34.51440125789' lon='150.47246852674'>
    <tag k='addr:housenumber' v='671' />
    <tag k='addr:street' v='Kangaloon Road' />
  </node>
  <node id='-397420' visible='true' lat='-34.53969398389' lon='150.4813061'>
    <tag k='addr:housenumber' v='101' />
    <tag k='addr:street' v='Sheepwash Road' />
  </node>
  <node id='-397422' visible='true' lat='-34.56915183958' lon='150.47349563322'>
    <tag k='addr:housenumber' v='456' />
    <tag k='addr:street' v='Sheepwash Road' />
  </node>
  <node id='-397424' visible='true' lat='-34.53400718242' lon='150.49586512453'>
    <tag k='addr:housenumber' v='1070' />
    <tag k='addr:street' v='Kangaloon Road' />
  </node>
  <node id='-397426' visible='true' lat='-34.53686764218' lon='150.48303363693'>
    <tag k='addr:housenumber' v='944' />
    <tag k='addr:street' v='Kangaloon Road' />
  </node>
  <node id='-397428' visible='true' lat='-34.51074731192' lon='150.46276367233'>
    <tag k='addr:housenumber' v='550' />
    <tag k='addr:street' v='Kangaloon Road' />
  </node>
  <node id='-397430' visible='true' lat='-34.53196096677' lon='150.47950631266'>
    <tag k='addr:housenumber' v='20' />
    <tag k='addr:street' v='Sheepwash Road' />
  </node>
  <node id='-397432' visible='true' lat='-34.53138528471' lon='150.48259175578'>
    <tag k='addr:housenumber' v='891' />
    <tag k='addr:street' v='Kangaloon Road' />
  </node>
  <node id='-397434' visible='true' lat='-34.5127244315' lon='150.47103132676'>
    <tag k='addr:housenumber' v='665' />
    <tag k='addr:street' v='Kangaloon Road' />
  </node>
  <node id='-397436' visible='true' lat='-34.54333579426' lon='150.4766552974'>
    <tag k='addr:housenumber' v='150' />
    <tag k='addr:street' v='Sheepwash Road' />
  </node>
  <node id='-397438' visible='true' lat='-34.53110449477' lon='150.5018667889'>
    <tag k='addr:housenumber' v='1073' />
    <tag k='addr:street' v='Kangaloon Road' />
  </node>
  <node id='-397440' visible='true' lat='-34.52601542444' lon='150.48397025409'>
    <tag k='addr:housenumber' v='841' />
    <tag k='addr:street' v='Kangaloon Road' />
  </node>
  <node id='-397442' visible='true' lat='-34.50945053997' lon='150.46774815185'>
    <tag k='addr:housenumber' v='591' />
    <tag k='addr:street' v='Kangaloon Road' />
  </node>
  <node id='-397444' visible='true' lat='-34.51506446231' lon='150.46896952409'>
    <tag k='addr:housenumber' v='700' />
    <tag k='addr:street' v='Kangaloon Road' />
  </node>
  <node id='-397446' visible='true' lat='-34.53220248968' lon='150.48904158567'>
    <tag k='addr:housenumber' v='901' />
    <tag k='addr:street' v='Kangaloon Road' />
  </node>
  <node id='-397448' visible='true' lat='-34.53760483383' lon='150.49406674345'>
    <tag k='addr:housenumber' v='991' />
    <tag k='addr:street' v='Kangaloon Road' />
  </node>
  <node id='-397450' visible='true' lat='-34.56425246027' lon='150.48762384804'>
    <tag k='addr:housenumber' v='345' />
    <tag k='addr:street' v='Sheepwash Road' />
  </node>
  <node id='-397452' visible='true' lat='-34.53317233577' lon='150.48208584936'>
    <tag k='addr:housenumber' v='892' />
    <tag k='addr:street' v='Kangaloon Road' />
  </node>
  <node id='-397454' visible='true' lat='-34.51940978119' lon='150.47754959971'>
    <tag k='addr:housenumber' v='721' />
    <tag k='addr:street' v='Kangaloon Road' />
  </node>
  <node id='-397456' visible='true' lat='-34.56044396612' lon='150.47255527376'>
    <tag k='addr:housenumber' v='354' />
    <tag k='addr:street' v='Sheepwash Road' />
  </node>
  <node id='-397458' visible='true' lat='-34.5231146609' lon='150.47373935785'>
    <tag k='addr:housenumber' v='790' />
    <tag k='addr:street' v='Kangaloon Road' />
  </node>
  <node id='-397460' visible='true' lat='-34.53651652736' lon='150.47334891396'>
    <tag k='addr:housenumber' v='100' />
    <tag k='addr:street' v='Sheepwash Road' />
  </node>
  <node id='-397462' visible='true' lat='-34.55278262732' lon='150.47388494674'>
    <tag k='addr:housenumber' v='250' />
    <tag k='addr:street' v='Sheepwash Road' />
  </node>
  <node id='-397464' visible='true' lat='-34.5464515808' lon='150.46100869383'>
    <tag k='addr:housenumber' v='381' />
    <tag k='addr:street' v='Sproules Lane' />
  </node>
  <node id='-397466' visible='true' lat='-34.52203600467' lon='150.48622145008'>
    <tag k='addr:housenumber' v='1091' />
    <tag k='addr:street' v='Range Road' />
  </node>
  <node id='-397468' visible='true' lat='-34.52552772563' lon='150.45292798398'>
    <tag k='addr:housenumber' v='202' />
    <tag k='addr:street' v='Sproules Lane' />
  </node>
  <node id='-397470' visible='true' lat='-34.5494275425' lon='150.44360414214'>
    <tag k='addr:housenumber' v='450' />
    <tag k='addr:street' v='Sproules Lane' />
  </node>
  <node id='-397472' visible='true' lat='-34.51453545557' lon='150.48211586544'>
    <tag k='addr:housenumber' v='1000' />
    <tag k='addr:street' v='Range Road' />
  </node>
  <node id='-397474' visible='true' lat='-34.53043748553' lon='150.52709548989'>
    <tag k='addr:housenumber' v='97' />
    <tag k='addr:street' v='Yeos Lane' />
  </node>
  <node id='-397476' visible='true' lat='-34.51918240759' lon='150.45442026822'>
    <tag k='addr:housenumber' v='150' />
    <tag k='addr:street' v='Sproules Lane' />
  </node>
  <node id='-397478' visible='true' lat='-34.50882213478' lon='150.48921710625'>
    <tag k='addr:housenumber' v='890' />
    <tag k='addr:street' v='Range Road' />
  </node>
  <node id='-397480' visible='true' lat='-34.54104921654' lon='150.46276343104'>
    <tag k='addr:housenumber' v='361' />
    <tag k='addr:street' v='Sproules Lane' />
  </node>
  <node id='-397482' visible='true' lat='-34.52266842405' lon='150.49879562637'>
    <tag k='addr:housenumber' v='185' />
    <tag k='addr:street' v='Tourist Road' />
  </node>
  <node id='-397484' visible='true' lat='-34.50398925891' lon='150.49089100988'>
    <tag k='addr:housenumber' v='848' />
    <tag k='addr:street' v='Range Road' />
  </node>
  <node id='-397486' visible='true' lat='-34.52634155884' lon='150.45784364201'>
    <tag k='addr:housenumber' v='221' />
    <tag k='addr:street' v='Sproules Lane' />
  </node>
  <node id='-397488' visible='true' lat='-34.52284492875' lon='150.49630274445'>
    <tag k='addr:housenumber' v='157' />
    <tag k='addr:street' v='Tourist Road' />
  </node>
  <node id='-397490' visible='true' lat='-34.52018701553' lon='150.51398817462'>
    <tag k='addr:housenumber' v='357' />
    <tag k='addr:street' v='Tourist Road' />
  </node>
  <node id='-397492' visible='true' lat='-34.52248857712' lon='150.48916143106'>
    <tag k='addr:housenumber' v='94' />
    <tag k='addr:street' v='Tourist Road' />
  </node>
  <node id='-397494' visible='true' lat='-34.52163840928' lon='150.45640806032'>
    <tag k='addr:housenumber' v='166' />
    <tag k='addr:street' v='Sproules Lane' />
  </node>
  <node id='-397496' visible='true' lat='-34.52383826933' lon='150.48556104745'>
    <tag k='addr:housenumber' v='80' />
    <tag k='addr:street' v='Tourist Road' />
  </node>
  <node id='-397498' visible='true' lat='-34.52161945868' lon='150.50844222606'>
    <tag k='addr:housenumber' v='307' />
    <tag k='addr:street' v='Tourist Road' />
  </node>
  <node id='-397500' visible='true' lat='-34.51166777749' lon='150.48780273646'>
    <tag k='addr:housenumber' v='941' />
    <tag k='addr:street' v='Range Road' />
  </node>
  <node id='-397502' visible='true' lat='-34.53212638127' lon='150.45399015773'>
    <tag k='addr:housenumber' v='280' />
    <tag k='addr:street' v='Sproules Lane' />
  </node>
  <node id='-397504' visible='true' lat='-34.49975409565' lon='150.50669035451'>
    <tag k='addr:housenumber' v='65' />
    <tag k='addr:street' v='George Emery Lane' />
  </node>
  <node id='-397506' visible='true' lat='-34.52422584204' lon='150.51532227575'>
    <tag k='addr:housenumber' v='360' />
    <tag k='addr:street' v='Tourist Road' />
  </node>
  <node id='-397508' visible='true' lat='-34.51167601764' lon='150.47454158935'>
    <tag k='addr:housenumber' v='623' />
    <tag k='addr:street' v='Kangaloon Road' />
  </node>
  <node id='-397510' visible='true' lat='-34.52033426537' lon='150.5069087337'>
    <tag k='addr:housenumber' v='305' />
    <tag k='addr:street' v='Tourist Road' />
  </node>
  <node id='-397512' visible='true' lat='-34.51937944438' lon='150.49671862851'>
    <tag k='addr:housenumber' v='139' />
    <tag k='addr:street' v='Tourist Road' />
  </node>
  <node id='-397514' visible='true' lat='-34.51198491839' lon='150.48437860514'>
    <tag k='addr:housenumber' v='960' />
    <tag k='addr:street' v='Range Road' />
  </node>
  <node id='-397516' visible='true' lat='-34.50795946088' lon='150.50825819303'>
    <tag k='addr:housenumber' v='116' />
    <tag k='addr:street' v='George Emery Lane' />
  </node>
</osm>
