<?xml version='1.0' encoding='UTF-8'?>
<osm version='0.6' generator='JOSM'>
  <node id='-450069' visible='true' lat='-34.41277559415' lon='150.25532092104'>
    <tag k='addr:housenumber' v='89' />
    <tag k='addr:street' v='Hassall Road' />
  </node>
  <node id='-450071' visible='true' lat='-34.39806051443' lon='150.19076330825'>
    <tag k='addr:housenumber' v='424' />
    <tag k='addr:street' v='Jacks Valley Road' />
  </node>
  <node id='-450073' visible='true' lat='-34.45723177337' lon='150.26094955581'>
    <tag k='addr:housenumber' v='331' />
    <tag k='addr:street' v='Richards Lane' />
  </node>
  <node id='-450075' visible='true' lat='-34.40924834159' lon='150.22365044562'>
    <tag k='addr:housenumber' v='1720' />
    <tag k='addr:street' v='Joadja Road' />
  </node>
  <node id='-450077' visible='true' lat='-34.41913572443' lon='150.26987455425'>
    <tag k='addr:housenumber' v='71' />
    <tag k='addr:street' v='Hassall Road' />
  </node>
  <node id='-450079' visible='true' lat='-34.47643958262' lon='150.24820610243'>
    <tag k='addr:housenumber' v='610' />
    <tag k='addr:street' v='Richards Lane' />
  </node>
  <node id='-450081' visible='true' lat='-34.47985040199' lon='150.2499206024'>
    <tag k='addr:housenumber' v='608' />
    <tag k='addr:street' v='Richards Lane' />
  </node>
  <node id='-450083' visible='true' lat='-34.44310237435' lon='150.26208922096'>
    <tag k='addr:housenumber' v='165' />
    <tag k='addr:street' v='Richards Lane' />
  </node>
  <node id='-450085' visible='true' lat='-34.40097933093' lon='150.19285334018'>
    <tag k='addr:housenumber' v='363' />
    <tag k='addr:street' v='Jacks Valley Road' />
  </node>
  <node id='-450087' visible='true' lat='-34.40979018702' lon='150.21853533679'>
    <tag k='addr:housenumber' v='1672' />
    <tag k='addr:street' v='Joadja Road' />
  </node>
  <node id='-450089' visible='true' lat='-34.3825020696' lon='150.19508858482'>
    <tag k='addr:housenumber' v='600' />
    <tag k='addr:street' v='Jacks Valley Road' />
  </node>
  <node id='-450091' visible='true' lat='-34.39891825436' lon='150.22433465163'>
    <tag k='addr:housenumber' v='1760' />
    <tag k='addr:street' v='Joadja Road' />
  </node>
  <node id='-450093' visible='true' lat='-34.41435440494' lon='150.20451377565'>
    <tag k='addr:housenumber' v='56' />
    <tag k='addr:street' v='Jacks Valley Road' />
  </node>
  <node id='-450095' visible='true' lat='-34.46369606924' lon='150.25390970889'>
    <tag k='addr:housenumber' v='426' />
    <tag k='addr:street' v='Richards Lane' />
  </node>
  <node id='-450097' visible='true' lat='-34.41332262312' lon='150.20029371955'>
    <tag k='addr:housenumber' v='74' />
    <tag k='addr:street' v='Jacks Valley Road' />
  </node>
  <node id='-450099' visible='true' lat='-34.46089293229' lon='150.25330506892'>
    <tag k='addr:housenumber' v='332' />
    <tag k='addr:street' v='Richards Lane' />
  </node>
  <node id='-450101' visible='true' lat='-34.43689466389' lon='150.1779520035'>
    <tag k='addr:housenumber' v='107' />
    <tag k='addr:street' v='Jacks Valley Road' />
  </node>
  <node id='-450103' visible='true' lat='-34.43189254649' lon='150.2648621633'>
    <tag k='addr:housenumber' v='17' />
    <tag k='addr:street' v='Richards Lane' />
  </node>
  <node id='-450105' visible='true' lat='-34.43658324147' lon='150.26570251874'>
    <tag k='addr:housenumber' v='101' />
    <tag k='addr:street' v='Richards Lane' />
  </node>
  <node id='-450107' visible='true' lat='-34.42112668124' lon='150.2638732683'>
    <tag k='addr:housenumber' v='41' />
    <tag k='addr:street' v='Hassall Road' />
  </node>
  <node id='-450109' visible='true' lat='-34.4851291091' lon='150.24503722419'>
    <tag k='addr:housenumber' v='612' />
    <tag k='addr:street' v='Richards Lane' />
  </node>
  <node id='-450111' visible='true' lat='-34.40345553191' lon='150.1972136802'>
    <tag k='addr:housenumber' v='266' />
    <tag k='addr:street' v='Jacks Valley Road' />
  </node>
  <node id='-450113' visible='true' lat='-34.41818179632' lon='150.27004589339'>
    <tag k='addr:housenumber' v='83' />
    <tag k='addr:street' v='Hassall Road' />
  </node>
  <node id='-450115' visible='true' lat='-34.48326188852' lon='150.25167194279'>
    <tag k='addr:housenumber' v='604' />
    <tag k='addr:street' v='Richards Lane' />
  </node>
  <node id='-450117' visible='true' lat='-34.45513447836' lon='150.25846005141'>
    <tag k='addr:housenumber' v='325' />
    <tag k='addr:street' v='Richards Lane' />
  </node>
  <node id='-450119' visible='true' lat='-34.44040294451' lon='150.26729137392'>
    <tag k='addr:housenumber' v='135' />
    <tag k='addr:street' v='Richards Lane' />
  </node>
  <node id='-450121' visible='true' lat='-34.41310590725' lon='150.22095456068'>
    <tag k='addr:housenumber' v='1710' />
    <tag k='addr:street' v='Joadja Road' />
  </node>
  <node id='-450123' visible='true' lat='-34.48055245506' lon='150.25454722068'>
    <tag k='addr:housenumber' v='605' />
    <tag k='addr:street' v='Richards Lane' />
  </node>
  <node id='-450125' visible='true' lat='-34.41127262027' lon='150.20961051231'>
    <tag k='addr:housenumber' v='1581' />
    <tag k='addr:street' v='Joadja Road' />
  </node>
  <node id='-450127' visible='true' lat='-34.40806718429' lon='150.20086875134'>
    <tag k='addr:housenumber' v='220' />
    <tag k='addr:street' v='Jacks Valley Road' />
  </node>
  <node id='-450129' visible='true' lat='-34.47061547361' lon='150.24799512872'>
    <tag k='addr:housenumber' v='486' />
    <tag k='addr:street' v='Richards Lane' />
  </node>
  <node id='-450131' visible='true' lat='-34.42009335842' lon='150.26969997475'>
    <tag k='addr:housenumber' v='55' />
    <tag k='addr:street' v='Hassall Road' />
  </node>
  <node id='-450133' visible='true' lat='-34.42745248096' lon='150.26088034388'>
    <tag k='addr:housenumber' v='2' />
    <tag k='addr:street' v='Richards Lane' />
  </node>
  <node id='-450135' visible='true' lat='-34.46681939533' lon='150.25902248699'>
    <tag k='addr:housenumber' v='40' />
    <tag k='addr:street' v='Eagle Rock Lane' />
  </node>
  <node id='-450137' visible='true' lat='-34.42778677408' lon='150.26306237675'>
    <tag k='addr:housenumber' v='1' />
    <tag k='addr:street' v='Richards Lane' />
  </node>
  <node id='-450139' visible='true' lat='-34.41690653403' lon='150.26728945651'>
    <tag k='addr:housenumber' v='87' />
    <tag k='addr:street' v='Hassall Road' />
  </node>
  <node id='-450141' visible='true' lat='-34.46432227943' lon='150.25597343718'>
    <tag k='addr:housenumber' v='2' />
    <tag k='addr:street' v='Eagle Rock Lane' />
  </node>
  <node id='-450143' visible='true' lat='-34.40727964142' lon='150.22097843623'>
    <tag k='addr:housenumber' v='1714' />
    <tag k='addr:street' v='Joadja Road' />
  </node>
  <node id='-450145' visible='true' lat='-34.46166773674' lon='150.25992700315'>
    <tag k='addr:housenumber' v='41' />
    <tag k='addr:street' v='Eagle Rock Lane' />
  </node>
  <node id='-450147' visible='true' lat='-34.44525994061' lon='150.17502230779'>
    <tag k='addr:housenumber' v='109' />
    <tag k='addr:street' v='Jacks Valley Road' />
  </node>
  <node id='-450149' visible='true' lat='-34.4724970566' lon='150.25660979519'>
    <tag k='addr:housenumber' v='525' />
    <tag k='addr:street' v='Richards Lane' />
  </node>
  <node id='-450151' visible='true' lat='-34.48550721448' lon='150.2580442586'>
    <tag k='addr:housenumber' v='607' />
    <tag k='addr:street' v='Richards Lane' />
  </node>
  <node id='-450153' visible='true' lat='-34.39167071553' lon='150.19258856135'>
    <tag k='addr:housenumber' v='580' />
    <tag k='addr:street' v='Jacks Valley Road' />
  </node>
  <node id='-450155' visible='true' lat='-34.46457705331' lon='150.25371900374'>
    <tag k='addr:housenumber' v='444' />
    <tag k='addr:street' v='Richards Lane' />
  </node>
  <node id='-450157' visible='true' lat='-34.46528137166' lon='150.2479470633'>
    <tag k='addr:housenumber' v='456' />
    <tag k='addr:street' v='Richards Lane' />
  </node>
  <node id='-450159' visible='true' lat='-34.47879263908' lon='150.25755319305'>
    <tag k='addr:housenumber' v='609' />
    <tag k='addr:street' v='Richards Lane' />
  </node>
  <node id='-450161' visible='true' lat='-34.39571338237' lon='150.20795562178'>
    <tag k='addr:housenumber' v='170' />
    <tag k='addr:street' v='Jacks Valley Road' />
  </node>
  <node id='-450163' visible='true' lat='-34.46636605545' lon='150.22914709838'>
    <tag k='addr:housenumber' v='484' />
    <tag k='addr:street' v='Richards Lane' />
  </node>
  <node id='-450165' visible='true' lat='-34.45056739134' lon='150.25932590269'>
    <tag k='addr:housenumber' v='299' />
    <tag k='addr:street' v='Richards Lane' />
  </node>
  <node id='-450167' visible='true' lat='-34.41470513769' lon='150.27276550535'>
    <tag k='addr:housenumber' v='42' />
    <tag k='addr:street' v='Hassall Road' />
  </node>
  <node id='-450169' visible='true' lat='-34.41457809905' lon='150.22777405616'>
    <tag k='addr:housenumber' v='1270' />
    <tag k='addr:street' v='Joadja Road' />
  </node>
  <node id='-450171' visible='true' lat='-34.47067972865' lon='150.27125571156'>
    <tag k='addr:housenumber' v='81' />
    <tag k='addr:street' v='Eagle Rock Lane' />
  </node>
  <node id='-450173' visible='true' lat='-34.4412724814' lon='150.24852965799'>
    <tag k='addr:housenumber' v='146' />
    <tag k='addr:street' v='Richards Lane' />
  </node>
  <node id='-450175' visible='true' lat='-34.43662855371' lon='150.25392070867'>
    <tag k='addr:housenumber' v='142' />
    <tag k='addr:street' v='Richards Lane' />
  </node>
  <node id='-450177' visible='true' lat='-34.41429044282' lon='150.20799201833'>
    <tag k='addr:housenumber' v='20' />
    <tag k='addr:street' v='Jacks Valley Road' />
  </node>
  <node id='-450179' visible='true' lat='-34.44552956904' lon='150.2360343257'>
    <tag k='addr:housenumber' v='1083' />
    <tag k='addr:street' v='Joadja Road' />
  </node>
  <node id='-450181' visible='true' lat='-34.42767077236' lon='150.26438127567'>
    <tag k='addr:housenumber' v='865' />
    <tag k='addr:street' v='Joadja Road' />
  </node>
  <node id='-450183' visible='true' lat='-34.4306700605' lon='150.25750942955'>
    <tag k='addr:housenumber' v='933' />
    <tag k='addr:street' v='Joadja Road' />
  </node>
  <node id='-450185' visible='true' lat='-34.43537897115' lon='150.23942262498'>
    <tag k='addr:housenumber' v='1095' />
    <tag k='addr:street' v='Joadja Road' />
  </node>
  <node id='-450187' visible='true' lat='-34.45274482893' lon='150.22965761443'>
    <tag k='addr:housenumber' v='1085' />
    <tag k='addr:street' v='Joadja Road' />
  </node>
  <node id='-450189' visible='true' lat='-34.4299730366' lon='150.2380648416'>
    <tag k='addr:housenumber' v='1118' />
    <tag k='addr:street' v='Joadja Road' />
  </node>
  <node id='-450191' visible='true' lat='-34.43468651718' lon='150.23490813916'>
    <tag k='addr:housenumber' v='1155' />
    <tag k='addr:street' v='Joadja Road' />
  </node>
  <node id='-450193' visible='true' lat='-34.45189466701' lon='150.22260150804'>
    <tag k='addr:housenumber' v='1087' />
    <tag k='addr:street' v='Joadja Road' />
  </node>
  <node id='-450195' visible='true' lat='-34.43039060502' lon='150.23498846195'>
    <tag k='addr:housenumber' v='1141' />
    <tag k='addr:street' v='Joadja Road' />
  </node>
  <node id='-450197' visible='true' lat='-34.42642151488' lon='150.22435421743'>
    <tag k='addr:housenumber' v='1171' />
    <tag k='addr:street' v='Joadja Road' />
  </node>
  <node id='-450199' visible='true' lat='-34.41935659784' lon='150.29158587143'>
    <tag k='addr:housenumber' v='648' />
    <tag k='addr:street' v='Joadja Road' />
  </node>
  <node id='-450201' visible='true' lat='-34.42435662666' lon='150.2470297548'>
    <tag k='addr:housenumber' v='1078' />
    <tag k='addr:street' v='Joadja Road' />
  </node>
  <node id='-450203' visible='true' lat='-34.43360361609' lon='150.22531347569'>
    <tag k='addr:housenumber' v='1173' />
    <tag k='addr:street' v='Joadja Road' />
  </node>
  <node id='-450205' visible='true' lat='-34.4343463151' lon='150.2302816504'>
    <tag k='addr:housenumber' v='1165' />
    <tag k='addr:street' v='Joadja Road' />
  </node>
  <node id='-450207' visible='true' lat='-34.42662914266' lon='150.23241790146'>
    <tag k='addr:housenumber' v='1136' />
    <tag k='addr:street' v='Joadja Road' />
  </node>
  <node id='-450209' visible='true' lat='-34.42458785424' lon='150.23551451322'>
    <tag k='addr:housenumber' v='1104' />
    <tag k='addr:street' v='Joadja Road' />
  </node>
  <node id='-450211' visible='true' lat='-34.43396534858' lon='150.24628344316'>
    <tag k='addr:housenumber' v='1081' />
    <tag k='addr:street' v='Joadja Road' />
  </node>
  <node id='-450213' visible='true' lat='-34.43128296997' lon='150.25202363915'>
    <tag k='addr:housenumber' v='967' />
    <tag k='addr:street' v='Joadja Road' />
  </node>
  <node id='-450215' visible='true' lat='-34.42195970826' lon='150.21982350611'>
    <tag k='addr:housenumber' v='1317' />
    <tag k='addr:street' v='Joadja Road' />
  </node>
  <node id='-450217' visible='true' lat='-34.41428980561' lon='150.21461269893'>
    <tag k='addr:housenumber' v='1616' />
    <tag k='addr:street' v='Joadja Road' />
  </node>
  <node id='-450219' visible='true' lat='-34.41143126309' lon='150.2158779636'>
    <tag k='addr:housenumber' v='1640' />
    <tag k='addr:street' v='Joadja Road' />
  </node>
  <node id='-450221' visible='true' lat='-34.41928048168' lon='150.21338488249'>
    <tag k='addr:housenumber' v='1556' />
    <tag k='addr:street' v='Joadja Road' />
  </node>
  <node id='-450223' visible='true' lat='-34.42316003827' lon='150.22587318278'>
    <tag k='addr:housenumber' v='1261' />
    <tag k='addr:street' v='Joadja Road' />
  </node>
  <node id='-450225' visible='true' lat='-34.42262196737' lon='150.20508703643'>
    <tag k='addr:housenumber' v='1425' />
    <tag k='addr:street' v='Joadja Road' />
  </node>
  <node id='-450227' visible='true' lat='-34.42206029869' lon='150.2209308405'>
    <tag k='addr:housenumber' v='1307' />
    <tag k='addr:street' v='Joadja Road' />
  </node>
  <node id='-450229' visible='true' lat='-34.42487187007' lon='150.21610250437'>
    <tag k='addr:housenumber' v='1426' />
    <tag k='addr:street' v='Joadja Road' />
  </node>
  <node id='-450231' visible='true' lat='-34.42832558246' lon='150.19241900861'>
    <tag k='addr:housenumber' v='1551' />
    <tag k='addr:street' v='Joadja Road' />
  </node>
  <node id='-450233' visible='true' lat='-34.42272433205' lon='150.2247933514'>
    <tag k='addr:housenumber' v='1271' />
    <tag k='addr:street' v='Joadja Road' />
  </node>
  <node id='-450235' visible='true' lat='-34.42256630394' lon='150.22375027163'>
    <tag k='addr:housenumber' v='1277' />
    <tag k='addr:street' v='Joadja Road' />
  </node>
  <node id='-450237' visible='true' lat='-34.42083678246' lon='150.22520922709'>
    <tag k='addr:housenumber' v='1272' />
    <tag k='addr:street' v='Joadja Road' />
  </node>
  <node id='-450239' visible='true' lat='-34.42049265365' lon='150.22308346904'>
    <tag k='addr:housenumber' v='1300' />
    <tag k='addr:street' v='Joadja Road' />
  </node>
  <node id='-450241' visible='true' lat='-34.42108721935' lon='150.22843130083'>
    <tag k='addr:housenumber' v='1268' />
    <tag k='addr:street' v='Joadja Road' />
  </node>
  <node id='-450243' visible='true' lat='-34.41907437771' lon='150.22066521421'>
    <tag k='addr:housenumber' v='1304' />
    <tag k='addr:street' v='Joadja Road' />
  </node>
  <node id='-450245' visible='true' lat='-34.41933094018' lon='150.21878234179'>
    <tag k='addr:housenumber' v='1318' />
    <tag k='addr:street' v='Joadja Road' />
  </node>
  <node id='5520407393' action='modify' timestamp='2018-04-01T14:00:37Z' uid='1434393' user='k_au' visible='true' version='1' changeset='57713097' lat='-34.4797462' lon='150.2509726' />
  <node id='5520407394' action='modify' timestamp='2018-04-01T14:00:37Z' uid='1434393' user='k_au' visible='true' version='1' changeset='57713097' lat='-34.4798305' lon='150.2508891' />
  <node id='5520407395' action='modify' timestamp='2018-04-01T14:00:37Z' uid='1434393' user='k_au' visible='true' version='1' changeset='57713097' lat='-34.4798951' lon='150.2509851' />
  <node id='5520407396' action='modify' timestamp='2018-04-01T14:00:37Z' uid='1434393' user='k_au' visible='true' version='1' changeset='57713097' lat='-34.4799757' lon='150.2509054' />
  <node id='5520407397' action='modify' timestamp='2018-04-01T14:00:37Z' uid='1434393' user='k_au' visible='true' version='1' changeset='57713097' lat='-34.4800168' lon='150.2509665' />
  <node id='5520407398' action='modify' timestamp='2018-04-01T14:00:37Z' uid='1434393' user='k_au' visible='true' version='1' changeset='57713097' lat='-34.479852' lon='150.2511297' />
  <way id='575263043' action='modify' timestamp='2018-04-01T14:00:47Z' uid='1434393' user='k_au' visible='true' version='1' changeset='57713097'>
    <nd ref='5520407393' />
    <nd ref='5520407394' />
    <nd ref='5520407395' />
    <nd ref='5520407396' />
    <nd ref='5520407397' />
    <nd ref='5520407398' />
    <nd ref='5520407393' />
    <tag k='addr:housenumber' v='606' />
    <tag k='addr:street' v='Richards Lane' />
    <tag k='building' v='house' />
  </way>
</osm>
