<?xml version='1.0' encoding='UTF-8'?>
<osm version='0.6' generator='JOSM'>
  <node id='-458244' visible='true' lat='-34.54635222208' lon='150.53886436646'>
    <tag k='addr:housenumber' v='78' />
    <tag k='addr:street' v='Sugarloaf Lane' />
  </node>
  <node id='-458246' visible='true' lat='-34.56588784925' lon='150.56973754222'>
    <tag k='addr:housenumber' v='115' />
    <tag k='addr:street' v='Trig Station Lane' />
  </node>
  <node id='-458248' visible='true' lat='-34.55156472998' lon='150.55524376925'>
    <tag k='addr:housenumber' v='51' />
    <tag k='addr:street' v='Widgee Waa Lane' />
  </node>
  <node id='-458250' visible='true' lat='-34.5657745334' lon='150.56384411143'>
    <tag k='addr:housenumber' v='80' />
    <tag k='addr:street' v='Trig Station Lane' />
  </node>
  <node id='-458252' visible='true' lat='-34.52375842257' lon='150.54484769186'>
    <tag k='addr:housenumber' v='111' />
    <tag k='addr:street' v='Orfords Road' />
  </node>
  <node id='-458254' visible='true' lat='-34.53864631449' lon='150.55457518816'>
    <tag k='addr:housenumber' v='220' />
    <tag k='addr:street' v='Rowlands Road' />
  </node>
  <node id='-458256' visible='true' lat='-34.51674611957' lon='150.54893595869'>
    <tag k='addr:housenumber' v='720' />
    <tag k='addr:street' v='Tourist Road' />
  </node>
  <node id='-458258' visible='true' lat='-34.52934506095' lon='150.55755937134'>
    <tag k='addr:housenumber' v='100' />
    <tag k='addr:street' v='Rowlands Road' />
  </node>
  <node id='-458260' visible='true' lat='-34.53139589687' lon='150.54448964528'>
    <tag k='addr:housenumber' v='165' />
    <tag k='addr:street' v='Orfords Road' />
  </node>
  <node id='-458262' visible='true' lat='-34.55849294379' lon='150.55658974266'>
    <tag k='addr:housenumber' v='2' />
    <tag k='addr:street' v='Widgee Waa Lane' />
  </node>
  <node id='-458264' visible='true' lat='-34.53449885706' lon='150.55583785184'>
    <tag k='addr:housenumber' v='200' />
    <tag k='addr:street' v='Rowlands Road' />
  </node>
  <node id='-458266' visible='true' lat='-34.53592656651' lon='150.56796880287'>
    <tag k='addr:housenumber' v='145' />
    <tag k='addr:street' v='Rowlands Road' />
  </node>
  <node id='-458268' visible='true' lat='-34.52213375345' lon='150.53944580085'>
    <tag k='addr:housenumber' v='70' />
    <tag k='addr:street' v='Orfords Road' />
  </node>
  <node id='-458270' visible='true' lat='-34.54905132846' lon='150.56086454358'>
    <tag k='addr:housenumber' v='114' />
    <tag k='addr:street' v='Widgee Waa Lane' />
  </node>
  <node id='-458272' visible='true' lat='-34.53939970394' lon='150.56231347739'>
    <tag k='addr:housenumber' v='185' />
    <tag k='addr:street' v='Rowlands Road' />
  </node>
  <node id='-458274' visible='true' lat='-34.56184458511' lon='150.55826438666'>
    <tag k='addr:housenumber' v='34' />
    <tag k='addr:street' v='Trig Station Lane' />
  </node>
  <node id='-458276' visible='true' lat='-34.56463200996' lon='150.55798441566'>
    <tag k='addr:housenumber' v='55' />
    <tag k='addr:street' v='Warreeah Lane' />
  </node>
  <node id='-458278' visible='true' lat='-34.54226191171' lon='150.55074607608'>
    <tag k='addr:housenumber' v='153' />
    <tag k='addr:street' v='Widgee Waa Lane' />
  </node>
  <node id='-458280' visible='true' lat='-34.55870841096' lon='150.5315364469'>
    <tag k='addr:housenumber' v='36' />
    <tag k='addr:street' v='Hawthorne Lane' />
  </node>
  <node id='-458282' visible='true' lat='-34.52708452794' lon='150.54534688554'>
    <tag k='addr:housenumber' v='133' />
    <tag k='addr:street' v='Orfords Road' />
  </node>
  <node id='-458284' visible='true' lat='-34.55187576618' lon='150.53666737442'>
    <tag k='addr:housenumber' v='26' />
    <tag k='addr:street' v='Sugarloaf Lane' />
  </node>
  <node id='-458286' visible='true' lat='-34.56788043133' lon='150.53436757049'>
    <tag k='addr:housenumber' v='150' />
    <tag k='addr:street' v='Hawthorne Lane' />
  </node>
  <node id='-458288' visible='true' lat='-34.52897446554' lon='150.56989448874'>
    <tag k='addr:housenumber' v='948' />
    <tag k='addr:street' v='Tourist Road' />
  </node>
  <node id='-458290' visible='true' lat='-34.5207894714' lon='150.54989422383'>
    <tag k='addr:housenumber' v='730' />
    <tag k='addr:street' v='Tourist Road' />
  </node>
  <node id='-458292' visible='true' lat='-34.57104806646' lon='150.56621695378'>
    <tag k='addr:housenumber' v='153' />
    <tag k='addr:street' v='Trig Station Lane' />
  </node>
  <node id='-458294' visible='true' lat='-34.54541431636' lon='150.52610954733'>
    <tag k='addr:housenumber' v='1431' />
    <tag k='addr:street' v='Kangaloon Road' />
  </node>
  <node id='-458296' visible='true' lat='-34.52793835683' lon='150.57354717741'>
    <tag k='addr:housenumber' v='988' />
    <tag k='addr:street' v='Tourist Road East' />
  </node>
  <node id='-458298' visible='true' lat='-34.54413969462' lon='150.53452536295'>
    <tag k='addr:housenumber' v='123' />
    <tag k='addr:street' v='Sugarloaf Lane' />
  </node>
  <node id='-458300' visible='true' lat='-34.55837090178' lon='150.54494709339'>
    <tag k='addr:housenumber' v='1642' />
    <tag k='addr:street' v='Kangaloon Road' />
  </node>
  <node id='-458302' visible='true' lat='-34.56763485455' lon='150.56850667702'>
    <tag k='addr:housenumber' v='131' />
    <tag k='addr:street' v='Trig Station Lane' />
  </node>
  <node id='-458304' visible='true' lat='-34.57141266904' lon='150.53303704243'>
    <tag k='addr:housenumber' v='152' />
    <tag k='addr:street' v='Hawthorne Lane' />
  </node>
  <node id='-458306' visible='true' lat='-34.56270428009' lon='150.52279650165'>
    <tag k='addr:housenumber' v='86' />
    <tag k='addr:street' v='Hawthorne Lane' />
  </node>
  <node id='-458308' visible='true' lat='-34.5714896672' lon='150.561616375'>
    <tag k='addr:housenumber' v='172' />
    <tag k='addr:street' v='Trig Station Lane' />
  </node>
  <node id='-458310' visible='true' lat='-34.56957689775' lon='150.56659392877'>
    <tag k='addr:housenumber' v='152' />
    <tag k='addr:street' v='Trig Station Lane' />
  </node>
  <node id='-458312' visible='true' lat='-34.54564931879' lon='150.55201876249'>
    <tag k='addr:housenumber' v='155' />
    <tag k='addr:street' v='Widgee Waa Lane' />
  </node>
  <node id='-458314' visible='true' lat='-34.54750462134' lon='150.5432436632'>
    <tag k='addr:housenumber' v='46' />
    <tag k='addr:street' v='Sugarloaf Lane' />
  </node>
  <node id='-458316' visible='true' lat='-34.55708980578' lon='150.534861348'>
    <tag k='addr:housenumber' v='30' />
    <tag k='addr:street' v='Hawthorne Lane' />
  </node>
  <node id='-458318' visible='true' lat='-34.55896339737' lon='150.53646701694'>
    <tag k='addr:housenumber' v='51' />
    <tag k='addr:street' v='Hawthorne Lane' />
  </node>
  <node id='-458320' visible='true' lat='-34.55570158916' lon='150.52372253079'>
    <tag k='addr:housenumber' v='1320' />
    <tag k='addr:street' v='Kangaloon Road' />
  </node>
  <node id='-458322' visible='true' lat='-34.53704638213' lon='150.53649023883'>
    <tag k='addr:housenumber' v='137' />
    <tag k='addr:street' v='Sugarloaf Lane' />
  </node>
  <node id='-458324' visible='true' lat='-34.5513472076' lon='150.54477697896'>
    <tag k='addr:housenumber' v='44' />
    <tag k='addr:street' v='Sugarloaf Lane' />
  </node>
  <node id='-458326' visible='true' lat='-34.56764465093' lon='150.54380715005'>
    <tag k='addr:housenumber' v='60' />
    <tag k='addr:street' v='Whatman Lane' />
  </node>
  <node id='-458328' visible='true' lat='-34.56738929624' lon='150.54863318148'>
    <tag k='addr:housenumber' v='61' />
    <tag k='addr:street' v='Whatman Lane' />
  </node>
  <node id='-458330' visible='true' lat='-34.5672532943' lon='150.53848428815'>
    <tag k='addr:housenumber' v='121' />
    <tag k='addr:street' v='Hawthorne Lane' />
  </node>
  <node id='-458332' visible='true' lat='-34.56888478332' lon='150.5568843473'>
    <tag k='addr:housenumber' v='71' />
    <tag k='addr:street' v='Warreeah Lane' />
  </node>
  <node id='-458334' visible='true' lat='-34.56574219184' lon='150.53064077784'>
    <tag k='addr:housenumber' v='84' />
    <tag k='addr:street' v='Hawthorne Lane' />
  </node>
  <node id='-458336' visible='true' lat='-34.52066596012' lon='150.55680569242'>
    <tag k='addr:housenumber' v='820' />
    <tag k='addr:street' v='Tourist Road' />
  </node>
  <node id='-458338' visible='true' lat='-34.52505748382' lon='150.55795716667'>
    <tag k='addr:housenumber' v='50' />
    <tag k='addr:street' v='Rowlands Road' />
  </node>
  <node id='-458340' visible='true' lat='-34.56837925462' lon='150.56738905561'>
    <tag k='addr:housenumber' v='130' />
    <tag k='addr:street' v='Trig Station Lane' />
  </node>
  <node id='-458342' visible='true' lat='-34.52906002397' lon='150.53808395854'>
    <tag k='addr:housenumber' v='120' />
    <tag k='addr:street' v='Orfords Road' />
  </node>
  <node id='-458344' visible='true' lat='-34.5735321377' lon='150.56524993457'>
    <tag k='addr:housenumber' v='173' />
    <tag k='addr:street' v='Trig Station Lane' />
  </node>
  <node id='-458346' visible='true' lat='-34.57465706816' lon='150.56905733592'>
    <tag k='addr:housenumber' v='145' />
    <tag k='addr:street' v='Trig Station Lane' />
  </node>
  <node id='-458348' visible='true' lat='-34.54247428538' lon='150.54592465559'>
    <tag k='addr:housenumber' v='134' />
    <tag k='addr:street' v='Sugarloaf Lane' />
  </node>
  <node id='-458350' visible='true' lat='-34.56413833696' lon='150.55257767394'>
    <tag k='addr:housenumber' v='60' />
    <tag k='addr:street' v='Warreeah Lane' />
  </node>
  <node id='-458352' visible='true' lat='-34.56143147001' lon='150.55274061841'>
    <tag k='addr:housenumber' v='20' />
    <tag k='addr:street' v='Warreeah Lane' />
  </node>
  <node id='-458354' visible='true' lat='-34.53809170598' lon='150.54208844135'>
    <tag k='addr:housenumber' v='136' />
    <tag k='addr:street' v='Sugarloaf Lane' />
  </node>
  <node id='-458356' visible='true' lat='-34.55392550118' lon='150.53469591043'>
    <tag k='addr:housenumber' v='1534' />
    <tag k='addr:street' v='Kangaloon Road' />
  </node>
  <node id='-458358' visible='true' lat='-34.54629710066' lon='150.53017436568'>
    <tag k='addr:housenumber' v='1461' />
    <tag k='addr:street' v='Kangaloon Road' />
  </node>
  <node id='-458360' visible='true' lat='-34.54223384693' lon='150.49946159606'>
    <tag k='addr:housenumber' v='1101' />
    <tag k='addr:street' v='Kangaloon Road' />
  </node>
  <node id='-458362' visible='true' lat='-34.53562727652' lon='150.50046395922'>
    <tag k='addr:housenumber' v='1075' />
    <tag k='addr:street' v='Kangaloon Road' />
  </node>
  <node id='-458364' visible='true' lat='-34.5597837872' lon='150.5570295031'>
    <tag k='addr:housenumber' v='1750' />
    <tag k='addr:street' v='Kangaloon Road' />
  </node>
  <node id='-458366' visible='true' lat='-34.55602091408' lon='150.55416023099'>
    <tag k='addr:housenumber' v='1721' />
    <tag k='addr:street' v='Kangaloon Road' />
  </node>
  <node id='-458368' visible='true' lat='-34.55570608701' lon='150.56545412566'>
    <tag k='addr:housenumber' v='1851' />
    <tag k='addr:street' v='Kangaloon Road' />
  </node>
  <node id='-458370' visible='true' lat='-34.55342876886' lon='150.53460758839'>
    <tag k='addr:housenumber' v='1531' />
    <tag k='addr:street' v='Kangaloon Road' />
  </node>
  <node id='-458372' visible='true' lat='-34.55917703935' lon='150.56158122394'>
    <tag k='addr:housenumber' v='1791' />
    <tag k='addr:street' v='Kangaloon Road' />
  </node>
  <node id='-458374' visible='true' lat='-34.55102832816' lon='150.51036522895'>
    <tag k='addr:housenumber' v='1239' />
    <tag k='addr:street' v='Kangaloon Road' />
  </node>
  <node id='-458376' visible='true' lat='-34.55410450121' lon='150.53512092545'>
    <tag k='addr:housenumber' v='1540' />
    <tag k='addr:street' v='Kangaloon Road' />
  </node>
  <node id='-458378' visible='true' lat='-34.55847783661' lon='150.56455806229'>
    <tag k='addr:housenumber' v='1801' />
    <tag k='addr:street' v='Kangaloon Road' />
  </node>
  <node id='-458380' visible='true' lat='-34.55399761345' lon='150.53783090418'>
    <tag k='addr:housenumber' v='1577' />
    <tag k='addr:street' v='Kangaloon Road' />
  </node>
  <node id='-458382' visible='true' lat='-34.55272578155' lon='150.529526588'>
    <tag k='addr:housenumber' v='1488' />
    <tag k='addr:street' v='Kangaloon Road' />
  </node>
  <node id='-458384' visible='true' lat='-34.55218342588' lon='150.51418669033'>
    <tag k='addr:housenumber' v='1291' />
    <tag k='addr:street' v='Kangaloon Road' />
  </node>
  <node id='-458386' visible='true' lat='-34.55444411287' lon='150.53561008515'>
    <tag k='addr:housenumber' v='1544' />
    <tag k='addr:street' v='Kangaloon Road' />
  </node>
  <node id='-458388' visible='true' lat='-34.549595459' lon='150.5272970754'>
    <tag k='addr:housenumber' v='1441' />
    <tag k='addr:street' v='Kangaloon Road' />
  </node>
  <node id='-458390' visible='true' lat='-34.55285814334' lon='150.56610010818'>
    <tag k='addr:housenumber' v='1821' />
    <tag k='addr:street' v='Kangaloon Road' />
  </node>
  <node id='-458392' visible='true' lat='-34.55495876313' lon='150.54365526484'>
    <tag k='addr:housenumber' v='1621' />
    <tag k='addr:street' v='Kangaloon Road' />
  </node>
  <node id='-458394' visible='true' lat='-34.55879814838' lon='150.55397755984'>
    <tag k='addr:housenumber' v='1720' />
    <tag k='addr:street' v='Kangaloon Road' />
  </node>
  <node id='-458396' visible='true' lat='-34.54431217895' lon='150.49961058369'>
    <tag k='addr:housenumber' v='1102' />
    <tag k='addr:street' v='Kangaloon Road' />
  </node>
  <node id='-458398' visible='true' lat='-34.55993140473' lon='150.56617213683'>
    <tag k='addr:housenumber' v='1840' />
    <tag k='addr:street' v='Kangaloon Road' />
  </node>
  <node id='-458400' visible='true' lat='-34.54584677893' lon='150.50222927984'>
    <tag k='addr:housenumber' v='1140' />
    <tag k='addr:street' v='Kangaloon Road' />
  </node>
  <node id='-458402' visible='true' lat='-34.55039126198' lon='150.53359920858'>
    <tag k='addr:housenumber' v='1515' />
    <tag k='addr:street' v='Kangaloon Road' />
  </node>
  <node id='-458404' visible='true' lat='-34.55197027433' lon='150.52981789267'>
    <tag k='addr:housenumber' v='1465' />
    <tag k='addr:street' v='Kangaloon Road' />
  </node>
  <node id='-458406' visible='true' lat='-34.55400040683' lon='150.53488363441'>
    <tag k='addr:housenumber' v='1536' />
    <tag k='addr:street' v='Kangaloon Road' />
  </node>
  <node id='-458408' visible='true' lat='-34.54694219268' lon='150.50173859926'>
    <tag k='addr:housenumber' v='1148' />
    <tag k='addr:street' v='Kangaloon Road' />
  </node>
  <node id='-458410' visible='true' lat='-34.56069594328' lon='150.54713271739'>
    <tag k='addr:housenumber' v='1660' />
    <tag k='addr:street' v='Kangaloon Road' />
  </node>
  <node id='-458412' visible='true' lat='-34.54886904048' lon='150.50728425782'>
    <tag k='addr:housenumber' v='1213' />
    <tag k='addr:street' v='Kangaloon Road' />
  </node>
  <node id='-458414' visible='true' lat='-34.54947949609' lon='150.52130276276'>
    <tag k='addr:housenumber' v='1429' />
    <tag k='addr:street' v='Kangaloon Road' />
  </node>
  <node id='-458416' visible='true' lat='-34.5358999044' lon='150.51028835593'>
    <tag k='addr:housenumber' v='1139' />
    <tag k='addr:street' v='Kangaloon Road' />
  </node>
  <node id='-458418' visible='true' lat='-34.5616164048' lon='150.56344848744'>
    <tag k='addr:housenumber' v='1800' />
    <tag k='addr:street' v='Kangaloon Road' />
  </node>
  <node id='-458420' visible='true' lat='-34.55638070425' lon='150.54634354972'>
    <tag k='addr:housenumber' v='1641' />
    <tag k='addr:street' v='Kangaloon Road' />
  </node>
  <node id='-458422' action='modify' visible='true' lat='-34.5540050239' lon='150.55024192606'>
    <tag k='addr:housenumber' v='1681' />
    <tag k='addr:street' v='Kangaloon Road' />
  </node>
  <node id='-458424' action='modify' visible='true' lat='-34.5540050239' lon='150.55019829692'>
    <tag k='addr:housenumber' v='1685' />
    <tag k='addr:street' v='Kangaloon Road' />
  </node>
  <node id='-458426' visible='true' lat='-34.55954604672' lon='150.54287981355'>
    <tag k='addr:housenumber' v='1620' />
    <tag k='addr:street' v='Kangaloon Road' />
  </node>
  <node id='-458428' visible='true' lat='-34.55793345004' lon='150.5404253685'>
    <tag k='addr:housenumber' v='1601' />
    <tag k='addr:street' v='Kangaloon Road' />
  </node>
  <node id='-458430' visible='true' lat='-34.55597629589' lon='150.51331362445'>
    <tag k='addr:housenumber' v='1272' />
    <tag k='addr:street' v='Kangaloon Road' />
  </node>
  <node id='-458432' visible='true' lat='-34.55745256847' lon='150.57083373354'>
    <tag k='addr:housenumber' v='1881' />
    <tag k='addr:street' v='Kangaloon Road East' />
  </node>
  <node id='-458434' visible='true' lat='-34.55522825603' lon='150.55975629086'>
    <tag k='addr:housenumber' v='1785' />
    <tag k='addr:street' v='Kangaloon Road' />
  </node>
  <node id='-458436' visible='true' lat='-34.55854249741' lon='150.55914252658'>
    <tag k='addr:housenumber' v='1781' />
    <tag k='addr:street' v='Kangaloon Road' />
  </node>
  <node id='-458438' visible='true' lat='-34.55839342724' lon='150.5579363689'>
    <tag k='addr:housenumber' v='1771' />
    <tag k='addr:street' v='Kangaloon Road' />
  </node>
  <node id='-458440' visible='true' lat='-34.5530729709' lon='150.50780261744'>
    <tag k='addr:housenumber' v='1238' />
    <tag k='addr:street' v='Kangaloon Road' />
  </node>
  <node id='-458442' visible='true' lat='-34.54950407562' lon='150.50453233021'>
    <tag k='addr:housenumber' v='1200' />
    <tag k='addr:street' v='Kangaloon Road' />
  </node>
  <node id='-458444' visible='true' lat='-34.54511429329' lon='150.51539979858'>
    <tag k='addr:housenumber' v='101' />
    <tag k='addr:street' v='Kia-Ora Lane' />
  </node>
  <node id='-458446' visible='true' lat='-34.5487460775' lon='150.51853189741'>
    <tag k='addr:housenumber' v='70' />
    <tag k='addr:street' v='Kia-Ora Lane' />
  </node>
  <node id='-458448' visible='true' lat='-34.54748911041' lon='150.51157936425'>
    <tag k='addr:housenumber' v='15' />
    <tag k='addr:street' v='Kia-Ora Lane' />
  </node>
  <node id='-458450' visible='true' lat='-34.54144023937' lon='150.51461274817'>
    <tag k='addr:housenumber' v='161' />
    <tag k='addr:street' v='Kia-Ora Lane' />
  </node>
  <node id='-458452' visible='true' lat='-34.54118786164' lon='150.52486806564'>
    <tag k='addr:housenumber' v='174' />
    <tag k='addr:street' v='Kia-Ora Lane' />
  </node>
  <node id='-458454' visible='true' lat='-34.54400615038' lon='150.51735056607'>
    <tag k='addr:housenumber' v='115' />
    <tag k='addr:street' v='Kia-Ora Lane' />
  </node>
  <node id='-458456' visible='true' lat='-34.54682397079' lon='150.51501322985'>
    <tag k='addr:housenumber' v='77' />
    <tag k='addr:street' v='Kia-Ora Lane' />
  </node>
  <node id='-458458' visible='true' lat='-34.54747695912' lon='150.518869219'>
    <tag k='addr:housenumber' v='90' />
    <tag k='addr:street' v='Kia-Ora Lane' />
  </node>
  <node id='-458460' visible='true' lat='-34.55083891219' lon='150.51640333407'>
    <tag k='addr:housenumber' v='68' />
    <tag k='addr:street' v='Kia-Ora Lane' />
  </node>
  <node id='-458462' visible='true' lat='-34.53622359062' lon='150.52301881872'>
    <tag k='addr:housenumber' v='177' />
    <tag k='addr:street' v='Kia-Ora Lane' />
  </node>
  <node id='-458464' visible='true' lat='-34.53646336509' lon='150.52923265166'>
    <tag k='addr:housenumber' v='176' />
    <tag k='addr:street' v='Kia-Ora Lane' />
  </node>
  <node id='-458466' visible='true' lat='-34.54282350827' lon='150.57595809069'>
    <tag k='addr:housenumber' v='177' />
    <tag k='addr:street' v='Kirkland Road East' />
  </node>
  <node id='-458468' visible='true' lat='-34.52914056504' lon='150.55065279436'>
    <tag k='addr:housenumber' v='150' />
    <tag k='addr:street' v='Maloneys Lane' />
  </node>
  <node id='-458470' visible='true' lat='-34.53776022316' lon='150.54857937612'>
    <tag k='addr:housenumber' v='152' />
    <tag k='addr:street' v='Maloneys Lane' />
  </node>
  <node id='3466610263' action='modify' timestamp='2015-04-20T00:49:44Z' uid='1607708' user='CDP1' visible='true' version='1' changeset='30344619' lat='-34.5595235' lon='150.5555089' />
  <node id='3466610264' action='modify' timestamp='2015-04-20T00:49:44Z' uid='1607708' user='CDP1' visible='true' version='1' changeset='30344619' lat='-34.5595374' lon='150.5555934' />
  <node id='3466610265' action='modify' timestamp='2015-04-20T00:49:44Z' uid='1607708' user='CDP1' visible='true' version='1' changeset='30344619' lat='-34.5596606' lon='150.5555636' />
  <node id='3466610266' action='modify' timestamp='2015-04-20T00:49:44Z' uid='1607708' user='CDP1' visible='true' version='1' changeset='30344619' lat='-34.5596468' lon='150.5554791' />
  <node id='4950348068' action='modify' timestamp='2017-07-04T07:23:13Z' uid='4148813' user='Fa7C0N' visible='true' version='1' changeset='50026441' lat='-34.5652458' lon='150.5542795' />
  <node id='4950348069' action='modify' timestamp='2017-07-04T07:23:13Z' uid='4148813' user='Fa7C0N' visible='true' version='1' changeset='50026441' lat='-34.5652362' lon='150.5542061' />
  <node id='4950348070' action='modify' timestamp='2017-07-04T07:23:13Z' uid='4148813' user='Fa7C0N' visible='true' version='1' changeset='50026441' lat='-34.5652694' lon='150.5541998' />
  <node id='4950348071' action='modify' timestamp='2017-07-04T07:23:13Z' uid='4148813' user='Fa7C0N' visible='true' version='1' changeset='50026441' lat='-34.565279' lon='150.5542732' />
  <node id='4950348072' action='modify' timestamp='2017-07-04T07:23:13Z' uid='4148813' user='Fa7C0N' visible='true' version='1' changeset='50026441' lat='-34.5653786' lon='150.5543262' />
  <node id='4950348073' action='modify' timestamp='2017-07-04T07:23:13Z' uid='4148813' user='Fa7C0N' visible='true' version='1' changeset='50026441' lat='-34.5654073' lon='150.5543207' />
  <node id='4950348074' action='modify' timestamp='2017-07-04T07:23:13Z' uid='4148813' user='Fa7C0N' visible='true' version='1' changeset='50026441' lat='-34.5652642' lon='150.5541594' />
  <node id='4950348075' action='modify' timestamp='2017-07-04T07:23:13Z' uid='4148813' user='Fa7C0N' visible='true' version='1' changeset='50026441' lat='-34.5653547' lon='150.5541421' />
  <node id='4950348076' action='modify' timestamp='2017-07-04T07:23:13Z' uid='4148813' user='Fa7C0N' visible='true' version='1' changeset='50026441' lat='-34.5654172' lon='150.554397' />
  <node id='4950348077' action='modify' timestamp='2017-07-04T07:23:13Z' uid='4148813' user='Fa7C0N' visible='true' version='1' changeset='50026441' lat='-34.565298' lon='150.5544198' />
  <way id='339462928' action='modify' timestamp='2015-04-20T00:49:44Z' uid='1607708' user='CDP1' visible='true' version='1' changeset='30344619'>
    <nd ref='3466610263' />
    <nd ref='3466610264' />
    <nd ref='3466610265' />
    <nd ref='3466610266' />
    <nd ref='3466610263' />
    <tag k='addr:housenumber' v='1740' />
    <tag k='addr:street' v='Kangaloon Road' />
    <tag k='amenity' v='place_of_worship' />
    <tag k='building' v='yes' />
    <tag k='denomination' v='united' />
    <tag k='name' v='Kangaloon Uniting Church' />
    <tag k='religion' v='christian' />
    <tag k='roof:colour' v='red' />
    <tag k='roof:shape' v='gabled' />
  </way>
  <way id='504968435' action='modify' timestamp='2017-07-04T07:23:13Z' uid='4148813' user='Fa7C0N' visible='true' version='1' changeset='50026441'>
    <nd ref='4950348077' />
    <nd ref='4950348076' />
    <nd ref='4950348073' />
    <nd ref='4950348072' />
    <nd ref='4950348075' />
    <nd ref='4950348074' />
    <nd ref='4950348070' />
    <nd ref='4950348069' />
    <nd ref='4950348068' />
    <nd ref='4950348071' />
    <nd ref='4950348077' />
    <tag k='addr:housenumber' v='70' />
    <tag k='addr:street' v='Warreeah Lane' />
    <tag k='building' v='yes' />
  </way>
</osm>
