<?xml version='1.0' encoding='UTF-8'?>
<osm version='0.6' generator='JOSM'>
  <node id='-102249' action='modify' visible='true' lat='-33.87662208803' lon='150.75943399447'>
    <tag k='addr:housenumber' v='35' />
    <tag k='addr:street' v='Lawson Road' />
  </node>
  <node id='-102251' action='modify' visible='true' lat='-33.88185079199' lon='150.76264649035'>
    <tag k='addr:housenumber' v='100' />
    <tag k='addr:street' v='Martin Road' />
  </node>
  <node id='-102253' action='modify' visible='true' lat='-33.87942507731' lon='150.75870012849'>
    <tag k='addr:housenumber' v='83-87' />
    <tag k='addr:street' v='Lawson Road' />
  </node>
  <node id='-102255' action='modify' visible='true' lat='-33.87617610862' lon='150.76385492416'>
    <tag k='addr:housenumber' v='10' />
    <tag k='addr:street' v='Martin Road' />
  </node>
  <node id='-102257' action='modify' visible='true' lat='-33.87777225162' lon='150.75709902586'>
    <tag k='addr:housenumber' v='65' />
    <tag k='addr:street' v='Lawson Road' />
  </node>
  <node id='-102259' action='modify' visible='true' lat='-33.87903583849' lon='150.7620560688'>
    <tag k='addr:housenumber' v='55' />
    <tag k='addr:street' v='Martin Road' />
  </node>
  <node id='-102261' action='modify' visible='true' lat='-33.88782430361' lon='150.76123894305'>
    <tag k='addr:housenumber' v='170' />
    <tag k='addr:street' v='Martin Road' />
  </node>
  <node id='-102263' action='modify' visible='true' lat='-33.88075816605' lon='150.76419594227'>
    <tag k='addr:housenumber' v='80' />
    <tag k='addr:street' v='Martin Road' />
  </node>
  <node id='-102265' action='modify' visible='true' lat='-33.87177137053' lon='150.7560564489'>
    <tag k='addr:housenumber' v='1783-1789' />
    <tag k='addr:street' v='Elizabeth Drive' />
  </node>
  <node id='-102267' action='modify' visible='true' lat='-33.87744297737' lon='150.75910206304'>
    <tag k='addr:housenumber' v='55' />
    <tag k='addr:street' v='Lawson Road' />
  </node>
  <node id='-102269' action='modify' visible='true' lat='-33.87243393543' lon='150.76466297745'>
    <tag k='addr:housenumber' v='1669-1723' />
    <tag k='addr:street' v='Elizabeth Drive' />
  </node>
  <node id='-102271' action='modify' visible='true' lat='-33.88411251207' lon='150.75785504998'>
    <tag k='addr:housenumber' v='145' />
    <tag k='addr:street' v='Lawson Road' />
  </node>
  <node id='-102273' action='modify' visible='true' lat='-33.87672850653' lon='150.76713770519'>
    <tag k='addr:housenumber' v='1910' />
    <tag k='addr:street' v='Elizabeth Drive' />
  </node>
  <node id='-102275' action='modify' visible='true' lat='-33.88675392658' lon='150.75734568951'>
    <tag k='addr:housenumber' v='195' />
    <tag k='addr:street' v='Lawson Road' />
  </node>
  <node id='-102277' action='modify' visible='true' lat='-33.88024975721' lon='150.76189612433'>
    <tag k='addr:housenumber' v='65' />
    <tag k='addr:street' v='Martin Road' />
  </node>
  <node id='-102279' action='modify' visible='true' lat='-33.88940859947' lon='150.7577134745'>
    <tag k='addr:housenumber' v='190' />
    <tag k='addr:street' v='Lawson Road' />
  </node>
  <node id='-102281' action='modify' visible='true' lat='-33.88438599606' lon='150.76420278896'>
    <tag k='addr:housenumber' v='130' />
    <tag k='addr:street' v='Martin Road' />
  </node>
  <node id='-102283' action='modify' visible='true' lat='-33.88625773351' lon='150.75904799304'>
    <tag k='addr:housenumber' v='140' />
    <tag k='addr:street' v='Lawson Road' />
  </node>
  <node id='-102285' action='modify' visible='true' lat='-33.88961050195' lon='150.75678598958'>
    <tag k='addr:housenumber' v='225' />
    <tag k='addr:street' v='Lawson Road' />
  </node>
  <node id='-102287' action='modify' visible='true' lat='-33.87698925073' lon='150.75926979857'>
    <tag k='addr:housenumber' v='45' />
    <tag k='addr:street' v='Lawson Road' />
  </node>
  <node id='-102289' visible='true' lat='-33.87706497518' lon='150.76131614366'>
    <tag k='addr:housenumber' v='25' />
    <tag k='addr:street' v='Martin Road' />
  </node>
  <node id='-102291' action='modify' visible='true' lat='-33.88222658708' lon='150.75811563473'>
    <tag k='addr:housenumber' v='115' />
    <tag k='addr:street' v='Lawson Road' />
  </node>
  <node id='-102293' action='modify' visible='true' lat='-33.88700537088' lon='150.76223425616'>
    <tag k='addr:housenumber' v='160' />
    <tag k='addr:street' v='Martin Road' />
  </node>
  <node id='-102295' action='modify' visible='true' lat='-33.87600852754' lon='150.75824337435'>
    <tag k='addr:housenumber' v='25' />
    <tag k='addr:street' v='Lawson Road' />
  </node>
  <node id='-102297' visible='true' lat='-33.88898343093' lon='150.76243010691'>
    <tag k='addr:housenumber' v='180' />
    <tag k='addr:street' v='Martin Road' />
  </node>
  <node id='-102299' action='modify' visible='true' lat='-33.88227699248' lon='150.76234917658'>
    <tag k='addr:housenumber' v='110' />
    <tag k='addr:street' v='Martin Road' />
  </node>
  <node id='-102301' action='modify' visible='true' lat='-33.88500959671' lon='150.75778322392'>
    <tag k='addr:housenumber' v='165' />
    <tag k='addr:street' v='Lawson Road' />
  </node>
  <node id='-102303' action='modify' visible='true' lat='-33.88576376637' lon='150.76265620183'>
    <tag k='addr:housenumber' v='150' />
    <tag k='addr:street' v='Martin Road' />
  </node>
  <node id='-102305' action='modify' visible='true' lat='-33.90762790175' lon='150.7315472049'>
    <tag k='addr:housenumber' v='270' />
    <tag k='addr:street' v='Badgerys Creek Road' />
  </node>
  <node id='-102307' action='modify' visible='true' lat='-33.88038709541' lon='150.76316096866'>
    <tag k='addr:housenumber' v='70' />
    <tag k='addr:street' v='Martin Road' />
  </node>
  <node id='-102309' action='modify' visible='true' lat='-33.87939980752' lon='150.76524807423'>
    <tag k='addr:housenumber' v='50' />
    <tag k='addr:street' v='Martin Road' />
  </node>
  <node id='-102311' action='modify' visible='true' lat='-33.88827032101' lon='150.76025929553'>
    <tag k='addr:housenumber' v='165' />
    <tag k='addr:street' v='Martin Road' />
  </node>
  <node id='-102313' action='modify' visible='true' lat='-33.88627485025' lon='150.75731063094'>
    <tag k='addr:housenumber' v='185' />
    <tag k='addr:street' v='Lawson Road' />
  </node>
  <node id='-102315' action='modify' visible='true' lat='-33.88701533106' lon='150.7581003072'>
    <tag k='addr:housenumber' v='150' />
    <tag k='addr:street' v='Lawson Road' />
  </node>
  <node id='-102317' action='modify' visible='true' lat='-33.87506169953' lon='150.75925369476'>
    <tag k='addr:housenumber' v='5' />
    <tag k='addr:street' v='Lawson Road' />
  </node>
  <node id='-102319' action='modify' visible='true' lat='-33.88885533066' lon='150.75777404091'>
    <tag k='addr:housenumber' v='180' />
    <tag k='addr:street' v='Lawson Road' />
  </node>
  <node id='-102321' action='modify' visible='true' lat='-33.88305759935' lon='150.76225746933'>
    <tag k='addr:housenumber' v='120' />
    <tag k='addr:street' v='Martin Road' />
  </node>
  <node id='-102323' action='modify' visible='true' lat='-33.90429588408' lon='150.73115088791'>
    <tag k='addr:housenumber' v='300' />
    <tag k='addr:street' v='Badgerys Creek Road' />
  </node>
  <node id='-102325' visible='true' lat='-33.88815280629' lon='150.75504335288'>
    <tag k='addr:housenumber' v='215' />
    <tag k='addr:street' v='Lawson Road' />
  </node>
  <node id='-102327' visible='true' lat='-33.87769664436' lon='150.76118898813'>
    <tag k='addr:housenumber' v='35' />
    <tag k='addr:street' v='Martin Road' />
  </node>
  <node id='-102329' action='modify' visible='true' lat='-33.8876810912' lon='150.75797644819'>
    <tag k='addr:housenumber' v='160' />
    <tag k='addr:street' v='Lawson Road' />
  </node>
  <node id='-102331' action='modify' visible='true' lat='-33.87640857667' lon='150.76646862484'>
    <tag k='addr:housenumber' v='1920' />
    <tag k='addr:street' v='Elizabeth Drive' />
  </node>
  <node id='-102333' action='modify' visible='true' lat='-33.89087638796' lon='150.75747179465'>
    <tag k='addr:housenumber' v='210' />
    <tag k='addr:street' v='Lawson Road' />
  </node>
  <node id='-102335' action='modify' visible='true' lat='-33.88470129473' lon='150.76411119435'>
    <tag k='addr:housenumber' v='140' />
    <tag k='addr:street' v='Martin Road' />
  </node>
  <node id='-102337' action='modify' visible='true' lat='-33.89033497787' lon='150.75734608456'>
    <tag k='addr:housenumber' v='200' />
    <tag k='addr:street' v='Lawson Road' />
  </node>
  <node id='-102339' action='modify' visible='true' lat='-33.87894938404' lon='150.75856851986'>
    <tag k='addr:housenumber' v='75' />
    <tag k='addr:street' v='Lawson Road' />
  </node>
  <node id='-102341' action='modify' visible='true' lat='-33.87301138152' lon='150.75943200879'>
    <tag k='addr:housenumber' v='1745' />
    <tag k='addr:street' v='Elizabeth Drive' />
  </node>
  <node id='-102343' action='modify' visible='true' lat='-33.87248206387' lon='150.75800920601'>
    <tag k='addr:housenumber' v='1763-1781' />
    <tag k='addr:street' v='Elizabeth Drive' />
  </node>
  <node id='-102345' action='modify' visible='true' lat='-33.87865389669' lon='150.76369100458'>
    <tag k='addr:housenumber' v='40' />
    <tag k='addr:street' v='Martin Road' />
  </node>
  <node id='-102347' action='modify' visible='true' lat='-33.88440310296' lon='150.75769822896'>
    <tag k='addr:housenumber' v='155' />
    <tag k='addr:street' v='Lawson Road' />
  </node>
  <node id='-102349' action='modify' visible='true' lat='-33.89193507792' lon='150.7612066121'>
    <tag k='addr:housenumber' v='211' />
    <tag k='addr:street' v='Martin Road' />
  </node>
  <node id='-102351' action='modify' visible='true' lat='-33.86849093025' lon='150.76378113068'>
    <tag k='addr:housenumber' v='1669A' />
    <tag k='addr:street' v='Elizabeth Drive' />
  </node>
  <node id='-102353' action='modify' visible='true' lat='-33.88999359714' lon='150.75663563672'>
    <tag k='addr:housenumber' v='235' />
    <tag k='addr:street' v='Lawson Road' />
  </node>
  <node id='-102355' action='modify' visible='true' lat='-33.89195666132' lon='150.76288821732'>
    <tag k='addr:housenumber' v='230' />
    <tag k='addr:street' v='Martin Road' />
  </node>
  <node id='-102357' action='modify' visible='true' lat='-33.87184018697' lon='150.76133109246'>
    <tag k='addr:housenumber' v='1725-1743' />
    <tag k='addr:street' v='Elizabeth Drive' />
  </node>
  <node id='-102359' action='modify' visible='true' lat='-33.87533777834' lon='150.76201257876'>
    <tag k='addr:housenumber' v='1970' />
    <tag k='addr:street' v='Elizabeth Drive' />
  </node>
  <node id='-102361' action='modify' visible='true' lat='-33.87560575676' lon='150.75887222011'>
    <tag k='addr:housenumber' v='15' />
    <tag k='addr:street' v='Lawson Road' />
  </node>
  <node id='-102363' action='modify' visible='true' lat='-33.88759312084' lon='150.75710055604'>
    <tag k='addr:housenumber' v='205' />
    <tag k='addr:street' v='Lawson Road' />
  </node>
  <node id='-102365' action='modify' visible='true' lat='-33.87824183373' lon='150.763826504'>
    <tag k='addr:housenumber' v='30' />
    <tag k='addr:street' v='Martin Road' />
  </node>
  <node id='-102367' action='modify' visible='true' lat='-33.8833721389' lon='150.75799311332'>
    <tag k='addr:housenumber' v='135' />
    <tag k='addr:street' v='Lawson Road' />
  </node>
  <node id='-102369' action='modify' visible='true' lat='-33.89003137173' lon='150.76519428681'>
    <tag k='addr:housenumber' v='210' />
    <tag k='addr:street' v='Martin Road' />
  </node>
  <node id='-102371' action='modify' visible='true' lat='-33.87654320643' lon='150.76579388944'>
    <tag k='addr:housenumber' v='1930' />
    <tag k='addr:street' v='Elizabeth Drive' />
  </node>
  <node id='-102373' action='modify' visible='true' lat='-33.8905198611' lon='150.76171975706'>
    <tag k='addr:housenumber' v='195' />
    <tag k='addr:street' v='Martin Road' />
  </node>
  <node id='-102375' action='modify' visible='true' lat='-33.88268743248' lon='150.75821163855'>
    <tag k='addr:housenumber' v='125' />
    <tag k='addr:street' v='Lawson Road' />
  </node>
  <node id='-102377' action='modify' visible='true' lat='-33.88145119702' lon='150.76275748824'>
    <tag k='addr:housenumber' v='90' />
    <tag k='addr:street' v='Martin Road' />
  </node>
  <node id='-102379' visible='true' lat='-33.88527556472' lon='150.75588957927'>
    <tag k='addr:housenumber' v='175' />
    <tag k='addr:street' v='Lawson Road' />
  </node>
  <node id='-102381' action='modify' visible='true' lat='-33.87557768783' lon='150.76084901125'>
    <tag k='addr:housenumber' v='1990' />
    <tag k='addr:street' v='Elizabeth Drive' />
  </node>
  <node id='-102383' action='modify' visible='true' lat='-33.90652712846' lon='150.72791442833'>
    <tag k='addr:housenumber' v='290' />
    <tag k='addr:street' v='Badgerys Creek Road' />
  </node>
  <node id='-102385' action='modify' visible='true' lat='-33.87976662103' lon='150.76424127785'>
    <tag k='addr:housenumber' v='60' />
    <tag k='addr:street' v='Martin Road' />
  </node>
  <node id='-102387' action='modify' visible='true' lat='-33.88218252333' lon='150.76140346983'>
    <tag k='addr:housenumber' v='75' />
    <tag k='addr:street' v='Martin Road' />
  </node>
  <node id='-102389' action='modify' visible='true' lat='-33.88296187581' lon='150.76069536665'>
    <tag k='addr:housenumber' v='85' />
    <tag k='addr:street' v='Martin Road' />
  </node>
  <node id='-102391' action='modify' visible='true' lat='-33.8905500988' lon='150.75645710224'>
    <tag k='addr:housenumber' v='245' />
    <tag k='addr:street' v='Lawson Road' />
  </node>
  <node id='-102393' visible='true' lat='-33.86475792345' lon='150.75814320094'>
    <tag k='addr:housenumber' v='1725A' />
    <tag k='addr:street' v='Elizabeth Drive' />
  </node>
  <node id='-102395' action='modify' visible='true' lat='-33.8914091453' lon='150.75637095421'>
    <tag k='addr:housenumber' v='255' />
    <tag k='addr:street' v='Lawson Road' />
  </node>
  <node id='-102397' action='modify' visible='true' lat='-33.86790845418' lon='150.74510344963'>
    <tag k='addr:housenumber' v='1793-1951' />
    <tag k='addr:street' v='Elizabeth Drive' />
  </node>
  <node id='-102399' visible='true' lat='-33.90393433671' lon='150.74558384317'>
    <tag k='addr:housenumber' v='475' />
    <tag k='addr:street' v='Badgerys Creek Road' />
  </node>
  <node id='-102401' visible='true' lat='-33.90136743138' lon='150.73281265252'>
    <tag k='addr:housenumber' v='320' />
    <tag k='addr:street' v='Badgerys Creek Road' />
  </node>
  <node id='-102403' action='modify' visible='true' lat='-33.86268157855' lon='150.74425311779'>
    <tag k='addr:housenumber' v='1953-2109' />
    <tag k='addr:street' v='Elizabeth Drive' />
  </node>
  <node id='-102405' action='modify' visible='true' lat='-33.89433282868' lon='150.76196259455'>
    <tag k='addr:housenumber' v='225' />
    <tag k='addr:street' v='Martin Road' />
  </node>
  <node id='-102407' action='modify' visible='true' lat='-33.89435941976' lon='150.75698450449'>
    <tag k='addr:housenumber' v='225' />
    <tag k='addr:street' v='Martin Road' />
  </node>
</osm>
