<?xml version='1.0' encoding='UTF-8'?>
<osm version='0.6' generator='JOSM'>
  <node id='-518651' action='modify' lat='-33.86544292419' lon='151.1165405001'>
    <tag k='addr:housenumber' v='11/99-105' />
    <tag k='addr:street' v='Regatta Road' />
  </node>
  <node id='-518652' action='modify' lat='-33.86800157685' lon='151.11604882222'>
    <tag k='addr:housenumber' v='7/41-43' />
    <tag k='addr:street' v='Regatta Road' />
  </node>
  <node id='-518653' action='modify' lat='-33.86544292419' lon='151.1165405001'>
    <tag k='addr:housenumber' v='10/99-105' />
    <tag k='addr:street' v='Regatta Road' />
  </node>
  <node id='-518654' action='modify' lat='-33.86800157685' lon='151.11604882222'>
    <tag k='addr:housenumber' v='6/41-43' />
    <tag k='addr:street' v='Regatta Road' />
  </node>
  <node id='-518655' action='modify' lat='-33.86544292419' lon='151.1165405001'>
    <tag k='addr:housenumber' v='9/99-105' />
    <tag k='addr:street' v='Regatta Road' />
  </node>
  <node id='-518656' action='modify' lat='-33.86800157685' lon='151.11604882222'>
    <tag k='addr:housenumber' v='5/41-43' />
    <tag k='addr:street' v='Regatta Road' />
  </node>
  <node id='-518657' action='modify' lat='-33.86544292419' lon='151.1165405001'>
    <tag k='addr:housenumber' v='8/99-105' />
    <tag k='addr:street' v='Regatta Road' />
  </node>
  <node id='-518658' action='modify' lat='-33.86777821848' lon='151.11609328037'>
    <tag k='addr:housenumber' v='10/45' />
    <tag k='addr:street' v='Regatta Road' />
  </node>
  <node id='-518659' action='modify' lat='-33.86544292419' lon='151.1165405001'>
    <tag k='addr:housenumber' v='99-105' />
    <tag k='addr:street' v='Regatta Road' />
  </node>
  <node id='-518660' action='modify' lat='-33.86544292419' lon='151.1165405001'>
    <tag k='addr:housenumber' v='2/99-105' />
    <tag k='addr:street' v='Regatta Road' />
  </node>
  <node id='-518661' action='modify' lat='-33.86544292419' lon='151.1165405001'>
    <tag k='addr:housenumber' v='6/99-105' />
    <tag k='addr:street' v='Regatta Road' />
  </node>
  <node id='-518662' action='modify' lat='-33.86777821848' lon='151.11609328037'>
    <tag k='addr:housenumber' v='9/45' />
    <tag k='addr:street' v='Regatta Road' />
  </node>
  <node id='-518663' action='modify' lat='-33.86777821848' lon='151.11609328037'>
    <tag k='addr:housenumber' v='7/45' />
    <tag k='addr:street' v='Regatta Road' />
  </node>
  <node id='-518664' action='modify' lat='-33.86777821848' lon='151.11609328037'>
    <tag k='addr:housenumber' v='5/45' />
    <tag k='addr:street' v='Regatta Road' />
  </node>
  <node id='-518665' action='modify' lat='-33.86777821848' lon='151.11609328037'>
    <tag k='addr:housenumber' v='2/45' />
    <tag k='addr:street' v='Regatta Road' />
  </node>
  <node id='-518666' action='modify' lat='-33.86824993203' lon='151.11679372952'>
    <tag k='addr:housenumber' v='22-24' />
    <tag k='addr:street' v='Regatta Road' />
  </node>
  <node id='-518667' action='modify' lat='-33.86777821848' lon='151.11609328037'>
    <tag k='addr:housenumber' v='11/45' />
    <tag k='addr:street' v='Regatta Road' />
  </node>
  <node id='-518668' action='modify' lat='-33.86777821848' lon='151.11609328037'>
    <tag k='addr:housenumber' v='6/45' />
    <tag k='addr:street' v='Regatta Road' />
  </node>
  <node id='-518669' action='modify' lat='-33.86777821848' lon='151.11609328037'>
    <tag k='addr:housenumber' v='8/45' />
    <tag k='addr:street' v='Regatta Road' />
  </node>
  <node id='-518670' action='modify' lat='-33.86777821848' lon='151.11609328037'>
    <tag k='addr:housenumber' v='4/45' />
    <tag k='addr:street' v='Regatta Road' />
  </node>
  <node id='-518671' action='modify' lat='-33.86824993203' lon='151.11679372952'>
    <tag k='addr:housenumber' v='5/22-24' />
    <tag k='addr:street' v='Regatta Road' />
  </node>
  <node id='-518672' action='modify' lat='-33.86824993203' lon='151.11679372952'>
    <tag k='addr:housenumber' v='6/22-24' />
    <tag k='addr:street' v='Regatta Road' />
  </node>
  <node id='-518673' action='modify' lat='-33.86777821848' lon='151.11609328037'>
    <tag k='addr:housenumber' v='45-49' />
    <tag k='addr:street' v='Regatta Road' />
  </node>
  <node id='-518674' action='modify' lat='-33.86824993203' lon='151.11679372952'>
    <tag k='addr:housenumber' v='7/22-24' />
    <tag k='addr:street' v='Regatta Road' />
  </node>
  <node id='-518675' action='modify' lat='-33.86777821848' lon='151.11609328037'>
    <tag k='addr:housenumber' v='3/45' />
    <tag k='addr:street' v='Regatta Road' />
  </node>
  <node id='-518676' action='modify' lat='-33.86824993203' lon='151.11679372952'>
    <tag k='addr:housenumber' v='8/22-24' />
    <tag k='addr:street' v='Regatta Road' />
  </node>
  <node id='-518677' action='modify' lat='-33.86777821848' lon='151.11609328037'>
    <tag k='addr:housenumber' v='1/45' />
    <tag k='addr:street' v='Regatta Road' />
  </node>
  <node id='-518678' action='modify' lat='-33.86824993203' lon='151.11679372952'>
    <tag k='addr:housenumber' v='1/22-24' />
    <tag k='addr:street' v='Regatta Road' />
  </node>
  <node id='-518679' action='modify' lat='-33.86824993203' lon='151.11679372952'>
    <tag k='addr:housenumber' v='2/22-24' />
    <tag k='addr:street' v='Regatta Road' />
  </node>
  <node id='-518680' action='modify' lat='-33.86824993203' lon='151.11679372952'>
    <tag k='addr:housenumber' v='3/22-24' />
    <tag k='addr:street' v='Regatta Road' />
  </node>
  <node id='-518681' action='modify' lat='-33.86824993203' lon='151.11679372952'>
    <tag k='addr:housenumber' v='4/22-24' />
    <tag k='addr:street' v='Regatta Road' />
  </node>
  <node id='-518682' action='modify' lat='-33.86473917981' lon='151.11669843285'>
    <tag k='addr:housenumber' v='119-123' />
    <tag k='addr:street' v='Regatta Road' />
  </node>
  <node id='-518683' action='modify' lat='-33.86473917981' lon='151.11669843285'>
    <tag k='addr:housenumber' v='6/119-123' />
    <tag k='addr:street' v='Regatta Road' />
  </node>
  <node id='-518684' action='modify' lat='-33.86473917981' lon='151.11669843285'>
    <tag k='addr:housenumber' v='7/119-123' />
    <tag k='addr:street' v='Regatta Road' />
  </node>
  <node id='-518685' action='modify' lat='-33.86473917981' lon='151.11669843285'>
    <tag k='addr:housenumber' v='8/119-123' />
    <tag k='addr:street' v='Regatta Road' />
  </node>
  <node id='-518686' action='modify' lat='-33.86473917981' lon='151.11669843285'>
    <tag k='addr:housenumber' v='9/119-123' />
    <tag k='addr:street' v='Regatta Road' />
  </node>
  <node id='-518687' action='modify' lat='-33.86497298669' lon='151.11664820707'>
    <tag k='addr:housenumber' v='113' />
    <tag k='addr:street' v='Regatta Road' />
  </node>
  <node id='-518688' action='modify' lat='-33.86473917981' lon='151.11669843285'>
    <tag k='addr:housenumber' v='2/119-123' />
    <tag k='addr:street' v='Regatta Road' />
  </node>
  <node id='-518689' action='modify' lat='-33.86473917981' lon='151.11669843285'>
    <tag k='addr:housenumber' v='3/119-123' />
    <tag k='addr:street' v='Regatta Road' />
  </node>
  <node id='-518690' action='modify' lat='-33.86473917981' lon='151.11669843285'>
    <tag k='addr:housenumber' v='4/119-123' />
    <tag k='addr:street' v='Regatta Road' />
  </node>
  <node id='-518691' action='modify' lat='-33.86473917981' lon='151.11669843285'>
    <tag k='addr:housenumber' v='5/119-123' />
    <tag k='addr:street' v='Regatta Road' />
  </node>
  <node id='-518692' action='modify' lat='-33.86497298669' lon='151.11664820707'>
    <tag k='addr:housenumber' v='6/113' />
    <tag k='addr:street' v='Regatta Road' />
  </node>
  <node id='-518693' action='modify' lat='-33.86497298669' lon='151.11664820707'>
    <tag k='addr:housenumber' v='7/113' />
    <tag k='addr:street' v='Regatta Road' />
  </node>
  <node id='-518694' action='modify' lat='-33.86473917981' lon='151.11669843285'>
    <tag k='addr:housenumber' v='1/119-123' />
    <tag k='addr:street' v='Regatta Road' />
  </node>
  <node id='-518695' action='modify' lat='-33.86497298669' lon='151.11664820707'>
    <tag k='addr:housenumber' v='8/113' />
    <tag k='addr:street' v='Regatta Road' />
  </node>
  <node id='-518696' action='modify' lat='-33.86473917981' lon='151.11669843285'>
    <tag k='addr:housenumber' v='10/119-123' />
    <tag k='addr:street' v='Regatta Road' />
  </node>
  <node id='-518697' action='modify' lat='-33.86497298669' lon='151.11664820707'>
    <tag k='addr:housenumber' v='1/113' />
    <tag k='addr:street' v='Regatta Road' />
  </node>
  <node id='-518698' action='modify' lat='-33.86473917981' lon='151.11669843285'>
    <tag k='addr:housenumber' v='11/119-123' />
    <tag k='addr:street' v='Regatta Road' />
  </node>
  <node id='-518699' action='modify' lat='-33.86497298669' lon='151.11664820707'>
    <tag k='addr:housenumber' v='2/113' />
    <tag k='addr:street' v='Regatta Road' />
  </node>
  <node id='-518700' action='modify' lat='-33.86497298669' lon='151.11664820707'>
    <tag k='addr:housenumber' v='3/113' />
    <tag k='addr:street' v='Regatta Road' />
  </node>
  <node id='-518701' action='modify' lat='-33.86497298669' lon='151.11664820707'>
    <tag k='addr:housenumber' v='4/113' />
    <tag k='addr:street' v='Regatta Road' />
  </node>
  <node id='-518702' action='modify' lat='-33.86497298669' lon='151.11664820707'>
    <tag k='addr:housenumber' v='5/113' />
    <tag k='addr:street' v='Regatta Road' />
  </node>
  <node id='-518703' action='modify' lat='-33.86519102127' lon='151.11662169817'>
    <tag k='addr:housenumber' v='2/107-111' />
    <tag k='addr:street' v='Regatta Road' />
  </node>
  <node id='-518704' action='modify' lat='-33.86519102127' lon='151.11662169817'>
    <tag k='addr:housenumber' v='1/107-111' />
    <tag k='addr:street' v='Regatta Road' />
  </node>
  <node id='-518705' action='modify' lat='-33.86519102127' lon='151.11662169817'>
    <tag k='addr:housenumber' v='107-111' />
    <tag k='addr:street' v='Regatta Road' />
  </node>
  <node id='-518706' action='modify' lat='-33.86519102127' lon='151.11662169817'>
    <tag k='addr:housenumber' v='6/107-111' />
    <tag k='addr:street' v='Regatta Road' />
  </node>
  <node id='-518707' action='modify' lat='-33.86519102127' lon='151.11662169817'>
    <tag k='addr:housenumber' v='5/107-111' />
    <tag k='addr:street' v='Regatta Road' />
  </node>
  <node id='-518708' action='modify' lat='-33.86519102127' lon='151.11662169817'>
    <tag k='addr:housenumber' v='4/107-111' />
    <tag k='addr:street' v='Regatta Road' />
  </node>
  <node id='-518709' action='modify' lat='-33.86519102127' lon='151.11662169817'>
    <tag k='addr:housenumber' v='3/107-111' />
    <tag k='addr:street' v='Regatta Road' />
  </node>
  <node id='-518710' action='modify' lat='-33.86519102127' lon='151.11662169817'>
    <tag k='addr:housenumber' v='9/107-111' />
    <tag k='addr:street' v='Regatta Road' />
  </node>
  <node id='-518711' action='modify' lat='-33.86519102127' lon='151.11662169817'>
    <tag k='addr:housenumber' v='8/107-111' />
    <tag k='addr:street' v='Regatta Road' />
  </node>
  <node id='-518712' action='modify' lat='-33.86519102127' lon='151.11662169817'>
    <tag k='addr:housenumber' v='7/107-111' />
    <tag k='addr:street' v='Regatta Road' />
  </node>
  <node id='-518713' action='modify' lat='-33.86568081214' lon='151.1165014459'>
    <tag k='addr:housenumber' v='95' />
    <tag k='addr:street' v='Regatta Road' />
  </node>
  <node id='-518714' action='modify' lat='-33.86568081214' lon='151.1165014459'>
    <tag k='addr:housenumber' v='5/95' />
    <tag k='addr:street' v='Regatta Road' />
  </node>
  <node id='-518715' action='modify' lat='-33.86568081214' lon='151.1165014459'>
    <tag k='addr:housenumber' v='4/95' />
    <tag k='addr:street' v='Regatta Road' />
  </node>
  <node id='-518716' action='modify' lat='-33.86568081214' lon='151.1165014459'>
    <tag k='addr:housenumber' v='3/95' />
    <tag k='addr:street' v='Regatta Road' />
  </node>
  <node id='-518717' action='modify' lat='-33.86568081214' lon='151.1165014459'>
    <tag k='addr:housenumber' v='2/95' />
    <tag k='addr:street' v='Regatta Road' />
  </node>
  <node id='-518718' action='modify' lat='-33.86568081214' lon='151.1165014459'>
    <tag k='addr:housenumber' v='1/95' />
    <tag k='addr:street' v='Regatta Road' />
  </node>
  <node id='-518719' action='modify' lat='-33.86568081214' lon='151.1165014459'>
    <tag k='addr:housenumber' v='8/95' />
    <tag k='addr:street' v='Regatta Road' />
  </node>
  <node id='-518720' action='modify' lat='-33.86568081214' lon='151.1165014459'>
    <tag k='addr:housenumber' v='7/95' />
    <tag k='addr:street' v='Regatta Road' />
  </node>
  <node id='-518721' action='modify' lat='-33.86568081214' lon='151.1165014459'>
    <tag k='addr:housenumber' v='6/95' />
    <tag k='addr:street' v='Regatta Road' />
  </node>
  <node id='-518722' action='modify' lat='-33.86786702917' lon='151.11430148611'>
    <tag k='addr:housenumber' v='5/6' />
    <tag k='addr:street' v='Walker Street' />
  </node>
  <node id='-518723' action='modify' lat='-33.86786702917' lon='151.11430148611'>
    <tag k='addr:housenumber' v='6' />
    <tag k='addr:street' v='Walker Street' />
  </node>
  <node id='-518724' action='modify' lat='-33.86786702917' lon='151.11430148611'>
    <tag k='addr:housenumber' v='1/6' />
    <tag k='addr:street' v='Walker Street' />
  </node>
  <node id='-518725' action='modify' lat='-33.86786702917' lon='151.11430148611'>
    <tag k='addr:housenumber' v='2/6' />
    <tag k='addr:street' v='Walker Street' />
  </node>
  <node id='-518726' action='modify' lat='-33.86786702917' lon='151.11430148611'>
    <tag k='addr:housenumber' v='3/6' />
    <tag k='addr:street' v='Walker Street' />
  </node>
  <node id='-518727' action='modify' lat='-33.86786702917' lon='151.11430148611'>
    <tag k='addr:housenumber' v='4/6' />
    <tag k='addr:street' v='Walker Street' />
  </node>
  <node id='-518728' action='modify' lat='-33.86755493411' lon='151.11613641709'>
    <tag k='addr:housenumber' v='51-53' />
    <tag k='addr:street' v='Regatta Road' />
  </node>
  <node id='-518729' action='modify' lat='-33.86755493411' lon='151.11613641709'>
    <tag k='addr:housenumber' v='4/51-53' />
    <tag k='addr:street' v='Regatta Road' />
  </node>
  <node id='-518730' action='modify' lat='-33.86755493411' lon='151.11613641709'>
    <tag k='addr:housenumber' v='3/51-53' />
    <tag k='addr:street' v='Regatta Road' />
  </node>
  <node id='-518731' action='modify' lat='-33.86755493411' lon='151.11613641709'>
    <tag k='addr:housenumber' v='2/51-53' />
    <tag k='addr:street' v='Regatta Road' />
  </node>
  <node id='-518732' action='modify' lat='-33.86755493411' lon='151.11613641709'>
    <tag k='addr:housenumber' v='1/51-53' />
    <tag k='addr:street' v='Regatta Road' />
  </node>
  <node id='-518733' action='modify' lat='-33.86755493411' lon='151.11613641709'>
    <tag k='addr:housenumber' v='6/51-53' />
    <tag k='addr:street' v='Regatta Road' />
  </node>
  <node id='-518734' action='modify' lat='-33.86755493411' lon='151.11613641709'>
    <tag k='addr:housenumber' v='5/51-53' />
    <tag k='addr:street' v='Regatta Road' />
  </node>
  <node id='-518735' action='modify' lat='-33.86590059031' lon='151.11645863488'>
    <tag k='addr:housenumber' v='4/89-93' />
    <tag k='addr:street' v='Regatta Road' />
  </node>
  <node id='-518736' action='modify' lat='-33.86590059031' lon='151.11645863488'>
    <tag k='addr:housenumber' v='3/89-93' />
    <tag k='addr:street' v='Regatta Road' />
  </node>
  <node id='-518737' action='modify' lat='-33.86590059031' lon='151.11645863488'>
    <tag k='addr:housenumber' v='2/89-93' />
    <tag k='addr:street' v='Regatta Road' />
  </node>
  <node id='-518738' action='modify' lat='-33.86590059031' lon='151.11645863488'>
    <tag k='addr:housenumber' v='11/89-93' />
    <tag k='addr:street' v='Regatta Road' />
  </node>
  <node id='-518739' action='modify' lat='-33.86590059031' lon='151.11645863488'>
    <tag k='addr:housenumber' v='9/89-93' />
    <tag k='addr:street' v='Regatta Road' />
  </node>
  <node id='-518740' action='modify' lat='-33.86590059031' lon='151.11645863488'>
    <tag k='addr:housenumber' v='7/89-93' />
    <tag k='addr:street' v='Regatta Road' />
  </node>
  <node id='-518741' action='modify' lat='-33.86590059031' lon='151.11645863488'>
    <tag k='addr:housenumber' v='6/89-93' />
    <tag k='addr:street' v='Regatta Road' />
  </node>
  <node id='-518742' action='modify' lat='-33.86590059031' lon='151.11645863488'>
    <tag k='addr:housenumber' v='5/89-93' />
    <tag k='addr:street' v='Regatta Road' />
  </node>
  <node id='-518743' action='modify' lat='-33.86590059031' lon='151.11645863488'>
    <tag k='addr:housenumber' v='89-93' />
    <tag k='addr:street' v='Regatta Road' />
  </node>
  <node id='-518744' action='modify' lat='-33.86590059031' lon='151.11645863488'>
    <tag k='addr:housenumber' v='10/89-93' />
    <tag k='addr:street' v='Regatta Road' />
  </node>
  <node id='-518745' action='modify' lat='-33.86590059031' lon='151.11645863488'>
    <tag k='addr:housenumber' v='8/89-93' />
    <tag k='addr:street' v='Regatta Road' />
  </node>
  <node id='-518746' action='modify' lat='-33.86590059031' lon='151.11645863488'>
    <tag k='addr:housenumber' v='1/89-93' />
    <tag k='addr:street' v='Regatta Road' />
  </node>
  <node id='-518747' action='modify' lat='-33.86733072587' lon='151.11618095294'>
    <tag k='addr:housenumber' v='55-59' />
    <tag k='addr:street' v='Regatta Road' />
  </node>
  <node id='-518748' action='modify' lat='-33.86733072587' lon='151.11618095294'>
    <tag k='addr:housenumber' v='8/55-59' />
    <tag k='addr:street' v='Regatta Road' />
  </node>
  <node id='-518749' action='modify' lat='-33.86733072587' lon='151.11618095294'>
    <tag k='addr:housenumber' v='9/55-59' />
    <tag k='addr:street' v='Regatta Road' />
  </node>
  <node id='-518750' action='modify' lat='-33.86733072587' lon='151.11618095294'>
    <tag k='addr:housenumber' v='10/55-59' />
    <tag k='addr:street' v='Regatta Road' />
  </node>
  <node id='-518751' action='modify' lat='-33.86733072587' lon='151.11618095294'>
    <tag k='addr:housenumber' v='11/55-59' />
    <tag k='addr:street' v='Regatta Road' />
  </node>
  <node id='-518752' action='modify' lat='-33.86733072587' lon='151.11618095294'>
    <tag k='addr:housenumber' v='4/55-59' />
    <tag k='addr:street' v='Regatta Road' />
  </node>
  <node id='-518753' action='modify' lat='-33.86733072587' lon='151.11618095294'>
    <tag k='addr:housenumber' v='5/55-59' />
    <tag k='addr:street' v='Regatta Road' />
  </node>
  <node id='-518754' action='modify' lat='-33.86733072587' lon='151.11618095294'>
    <tag k='addr:housenumber' v='6/55-59' />
    <tag k='addr:street' v='Regatta Road' />
  </node>
  <node id='-518755' action='modify' lat='-33.86733072587' lon='151.11618095294'>
    <tag k='addr:housenumber' v='7/55-59' />
    <tag k='addr:street' v='Regatta Road' />
  </node>
  <node id='-518756' action='modify' lat='-33.86434761441' lon='151.11677667912'>
    <tag k='addr:housenumber' v='129' />
    <tag k='addr:street' v='Regatta Road' />
  </node>
  <node id='-518757' action='modify' lat='-33.86400408414' lon='151.11685030056'>
    <tag k='addr:housenumber' v='12/137' />
    <tag k='addr:street' v='Regatta Road' />
  </node>
  <node id='-518758' action='modify' lat='-33.86733072587' lon='151.11618095294'>
    <tag k='addr:housenumber' v='1/55-59' />
    <tag k='addr:street' v='Regatta Road' />
  </node>
  <node id='-518759' action='modify' lat='-33.86400408414' lon='151.11685030056'>
    <tag k='addr:housenumber' v='1/137' />
    <tag k='addr:street' v='Regatta Road' />
  </node>
  <node id='-518760' action='modify' lat='-33.86733072587' lon='151.11618095294'>
    <tag k='addr:housenumber' v='2/55-59' />
    <tag k='addr:street' v='Regatta Road' />
  </node>
  <node id='-518761' action='modify' lat='-33.86400408414' lon='151.11685030056'>
    <tag k='addr:housenumber' v='137' />
    <tag k='addr:street' v='Regatta Road' />
  </node>
  <node id='-518762' action='modify' lat='-33.86733072587' lon='151.11618095294'>
    <tag k='addr:housenumber' v='3/55-59' />
    <tag k='addr:street' v='Regatta Road' />
  </node>
  <node id='-518763' action='modify' lat='-33.86434761441' lon='151.11677667912'>
    <tag k='addr:housenumber' v='6/129' />
    <tag k='addr:street' v='Regatta Road' />
  </node>
  <node id='-518764' action='modify' lat='-33.86400408414' lon='151.11685030056'>
    <tag k='addr:housenumber' v='8/137' />
    <tag k='addr:street' v='Regatta Road' />
  </node>
  <node id='-518765' action='modify' lat='-33.86434761441' lon='151.11677667912'>
    <tag k='addr:housenumber' v='7/129' />
    <tag k='addr:street' v='Regatta Road' />
  </node>
  <node id='-518766' action='modify' lat='-33.86400408414' lon='151.11685030056'>
    <tag k='addr:housenumber' v='9/137' />
    <tag k='addr:street' v='Regatta Road' />
  </node>
  <node id='-518767' action='modify' lat='-33.86434761441' lon='151.11677667912'>
    <tag k='addr:housenumber' v='8/129' />
    <tag k='addr:street' v='Regatta Road' />
  </node>
  <node id='-518768' action='modify' lat='-33.86400408414' lon='151.11685030056'>
    <tag k='addr:housenumber' v='10/137' />
    <tag k='addr:street' v='Regatta Road' />
  </node>
  <node id='-518769' action='modify' lat='-33.86434761441' lon='151.11677667912'>
    <tag k='addr:housenumber' v='9/129' />
    <tag k='addr:street' v='Regatta Road' />
  </node>
  <node id='-518770' action='modify' lat='-33.86400408414' lon='151.11685030056'>
    <tag k='addr:housenumber' v='11/137' />
    <tag k='addr:street' v='Regatta Road' />
  </node>
  <node id='-518771' action='modify' lat='-33.86434761441' lon='151.11677667912'>
    <tag k='addr:housenumber' v='2/129' />
    <tag k='addr:street' v='Regatta Road' />
  </node>
  <node id='-518772' action='modify' lat='-33.86400408414' lon='151.11685030056'>
    <tag k='addr:housenumber' v='4/137' />
    <tag k='addr:street' v='Regatta Road' />
  </node>
  <node id='-518773' action='modify' lat='-33.86434761441' lon='151.11677667912'>
    <tag k='addr:housenumber' v='3/129' />
    <tag k='addr:street' v='Regatta Road' />
  </node>
  <node id='-518774' action='modify' lat='-33.86400408414' lon='151.11685030056'>
    <tag k='addr:housenumber' v='5/137' />
    <tag k='addr:street' v='Regatta Road' />
  </node>
  <node id='-518775' action='modify' lat='-33.86434761441' lon='151.11677667912'>
    <tag k='addr:housenumber' v='4/129' />
    <tag k='addr:street' v='Regatta Road' />
  </node>
  <node id='-518776' action='modify' lat='-33.86400408414' lon='151.11685030056'>
    <tag k='addr:housenumber' v='6/137' />
    <tag k='addr:street' v='Regatta Road' />
  </node>
  <node id='-518777' action='modify' lat='-33.86434761441' lon='151.11677667912'>
    <tag k='addr:housenumber' v='5/129' />
    <tag k='addr:street' v='Regatta Road' />
  </node>
  <node id='-518778' action='modify' lat='-33.86400408414' lon='151.11685030056'>
    <tag k='addr:housenumber' v='7/137' />
    <tag k='addr:street' v='Regatta Road' />
  </node>
  <node id='-518779' action='modify' lat='-33.86451765573' lon='151.11674244278'>
    <tag k='addr:housenumber' v='7/125' />
    <tag k='addr:street' v='Regatta Road' />
  </node>
  <node id='-518780' action='modify' lat='-33.86451765573' lon='151.11674244278'>
    <tag k='addr:housenumber' v='8/125' />
    <tag k='addr:street' v='Regatta Road' />
  </node>
  <node id='-518781' action='modify' lat='-33.86451765573' lon='151.11674244278'>
    <tag k='addr:housenumber' v='125' />
    <tag k='addr:street' v='Regatta Road' />
  </node>
  <node id='-518782' action='modify' lat='-33.86400408414' lon='151.11685030056'>
    <tag k='addr:housenumber' v='2/137' />
    <tag k='addr:street' v='Regatta Road' />
  </node>
  <node id='-518783' action='modify' lat='-33.86434761441' lon='151.11677667912'>
    <tag k='addr:housenumber' v='1/129' />
    <tag k='addr:street' v='Regatta Road' />
  </node>
  <node id='-518784' action='modify' lat='-33.86400408414' lon='151.11685030056'>
    <tag k='addr:housenumber' v='3/137' />
    <tag k='addr:street' v='Regatta Road' />
  </node>
  <node id='-518785' action='modify' lat='-33.86451765573' lon='151.11674244278'>
    <tag k='addr:housenumber' v='3/125' />
    <tag k='addr:street' v='Regatta Road' />
  </node>
  <node id='-518786' action='modify' lat='-33.86451765573' lon='151.11674244278'>
    <tag k='addr:housenumber' v='4/125' />
    <tag k='addr:street' v='Regatta Road' />
  </node>
  <node id='-518787' action='modify' lat='-33.86451765573' lon='151.11674244278'>
    <tag k='addr:housenumber' v='5/125' />
    <tag k='addr:street' v='Regatta Road' />
  </node>
  <node id='-518788' action='modify' lat='-33.86451765573' lon='151.11674244278'>
    <tag k='addr:housenumber' v='6/125' />
    <tag k='addr:street' v='Regatta Road' />
  </node>
  <node id='-518789' action='modify' lat='-33.86710686925' lon='151.11622398013'>
    <tag k='addr:housenumber' v='1/61' />
    <tag k='addr:street' v='Regatta Road' />
  </node>
  <node id='-518790' action='modify' lat='-33.86710686925' lon='151.11622398013'>
    <tag k='addr:housenumber' v='61' />
    <tag k='addr:street' v='Regatta Road' />
  </node>
  <node id='-518791' action='modify' lat='-33.86451765573' lon='151.11674244278'>
    <tag k='addr:housenumber' v='1/125' />
    <tag k='addr:street' v='Regatta Road' />
  </node>
  <node id='-518792' action='modify' lat='-33.86451765573' lon='151.11674244278'>
    <tag k='addr:housenumber' v='2/125' />
    <tag k='addr:street' v='Regatta Road' />
  </node>
  <node id='-518793' action='modify' lat='-33.86710686925' lon='151.11622398013'>
    <tag k='addr:housenumber' v='6/61' />
    <tag k='addr:street' v='Regatta Road' />
  </node>
  <node id='-518794' action='modify' lat='-33.86710686925' lon='151.11622398013'>
    <tag k='addr:housenumber' v='7/61' />
    <tag k='addr:street' v='Regatta Road' />
  </node>
  <node id='-518795' action='modify' lat='-33.86710686925' lon='151.11622398013'>
    <tag k='addr:housenumber' v='8/61' />
    <tag k='addr:street' v='Regatta Road' />
  </node>
  <node id='-518796' action='modify' lat='-33.86710686925' lon='151.11622398013'>
    <tag k='addr:housenumber' v='9/61' />
    <tag k='addr:street' v='Regatta Road' />
  </node>
  <node id='-518797' action='modify' lat='-33.86710686925' lon='151.11622398013'>
    <tag k='addr:housenumber' v='2/61' />
    <tag k='addr:street' v='Regatta Road' />
  </node>
  <node id='-518798' action='modify' lat='-33.86710686925' lon='151.11622398013'>
    <tag k='addr:housenumber' v='3/61' />
    <tag k='addr:street' v='Regatta Road' />
  </node>
  <node id='-518799' action='modify' lat='-33.86710686925' lon='151.11622398013'>
    <tag k='addr:housenumber' v='4/61' />
    <tag k='addr:street' v='Regatta Road' />
  </node>
  <node id='-518800' action='modify' lat='-33.86710686925' lon='151.11622398013'>
    <tag k='addr:housenumber' v='5/61' />
    <tag k='addr:street' v='Regatta Road' />
  </node>
  <node id='-518801' action='modify' lat='-33.86612140139' lon='151.11641156492'>
    <tag k='addr:housenumber' v='5/85-87' />
    <tag k='addr:street' v='Regatta Road' />
  </node>
  <node id='-518802' action='modify' lat='-33.86612140139' lon='151.11641156492'>
    <tag k='addr:housenumber' v='3/85-87' />
    <tag k='addr:street' v='Regatta Road' />
  </node>
  <node id='-518803' action='modify' lat='-33.86612140139' lon='151.11641156492'>
    <tag k='addr:housenumber' v='1/85-87' />
    <tag k='addr:street' v='Regatta Road' />
  </node>
  <node id='-518804' action='modify' lat='-33.86612140139' lon='151.11641156492'>
    <tag k='addr:housenumber' v='85-87' />
    <tag k='addr:street' v='Regatta Road' />
  </node>
  <node id='-518805' action='modify' lat='-33.86612140139' lon='151.11641156492'>
    <tag k='addr:housenumber' v='6/85-87' />
    <tag k='addr:street' v='Regatta Road' />
  </node>
  <node id='-518806' action='modify' lat='-33.86612140139' lon='151.11641156492'>
    <tag k='addr:housenumber' v='4/85-87' />
    <tag k='addr:street' v='Regatta Road' />
  </node>
  <node id='-518807' action='modify' lat='-33.86612140139' lon='151.11641156492'>
    <tag k='addr:housenumber' v='2/85-87' />
    <tag k='addr:street' v='Regatta Road' />
  </node>
  <node id='-518808' action='modify' lat='-33.86612140139' lon='151.11641156492'>
    <tag k='addr:housenumber' v='7/85-87' />
    <tag k='addr:street' v='Regatta Road' />
  </node>
  <node id='-518809' action='modify' lat='-33.86723416627' lon='151.11469043892'>
    <tag k='addr:housenumber' v='4/25' />
    <tag k='addr:street' v='Bayview Road' />
  </node>
  <node id='-518810' action='modify' lat='-33.86419075085' lon='151.11681179974'>
    <tag k='addr:housenumber' v='133' />
    <tag k='addr:street' v='Regatta Road' />
  </node>
  <node id='-518811' action='modify' lat='-33.86723416627' lon='151.11469043892'>
    <tag k='addr:housenumber' v='2/25' />
    <tag k='addr:street' v='Bayview Road' />
  </node>
  <node id='-518812' action='modify' lat='-33.86723416627' lon='151.11469043892'>
    <tag k='addr:housenumber' v='25' />
    <tag k='addr:street' v='Bayview Road' />
  </node>
  <node id='-518813' action='modify' lat='-33.86612140139' lon='151.11641156492'>
    <tag k='addr:housenumber' v='8/85-87' />
    <tag k='addr:street' v='Regatta Road' />
  </node>
  <node id='-518814' action='modify' lat='-33.86419075085' lon='151.11681179974'>
    <tag k='addr:housenumber' v='7/133' />
    <tag k='addr:street' v='Regatta Road' />
  </node>
  <node id='-518815' action='modify' lat='-33.86822510389' lon='151.11600623672'>
    <tag k='addr:housenumber' v='9/35-39' />
    <tag k='addr:street' v='Regatta Road' />
  </node>
  <node id='-518816' action='modify' lat='-33.86723416627' lon='151.11469043892'>
    <tag k='addr:housenumber' v='5/25' />
    <tag k='addr:street' v='Bayview Road' />
  </node>
  <node id='-518817' action='modify' lat='-33.86419075085' lon='151.11681179974'>
    <tag k='addr:housenumber' v='8/133' />
    <tag k='addr:street' v='Regatta Road' />
  </node>
  <node id='-518818' action='modify' lat='-33.86822510389' lon='151.11600623672'>
    <tag k='addr:housenumber' v='10/35-39' />
    <tag k='addr:street' v='Regatta Road' />
  </node>
  <node id='-518819' action='modify' lat='-33.86723416627' lon='151.11469043892'>
    <tag k='addr:housenumber' v='3/25' />
    <tag k='addr:street' v='Bayview Road' />
  </node>
  <node id='-518820' action='modify' lat='-33.86419075085' lon='151.11681179974'>
    <tag k='addr:housenumber' v='9/133' />
    <tag k='addr:street' v='Regatta Road' />
  </node>
  <node id='-518821' action='modify' lat='-33.86822510389' lon='151.11600623672'>
    <tag k='addr:housenumber' v='11/35-39' />
    <tag k='addr:street' v='Regatta Road' />
  </node>
  <node id='-518822' action='modify' lat='-33.86723416627' lon='151.11469043892'>
    <tag k='addr:housenumber' v='1/25' />
    <tag k='addr:street' v='Bayview Road' />
  </node>
  <node id='-518823' action='modify' lat='-33.86419075085' lon='151.11681179974'>
    <tag k='addr:housenumber' v='1/133' />
    <tag k='addr:street' v='Regatta Road' />
  </node>
  <node id='-518824' action='modify' lat='-33.86822510389' lon='151.11600623672'>
    <tag k='addr:housenumber' v='35-39' />
    <tag k='addr:street' v='Regatta Road' />
  </node>
  <node id='-518825' action='modify' lat='-33.86419075085' lon='151.11681179974'>
    <tag k='addr:housenumber' v='3/133' />
    <tag k='addr:street' v='Regatta Road' />
  </node>
  <node id='-518826' action='modify' lat='-33.86822510389' lon='151.11600623672'>
    <tag k='addr:housenumber' v='5/35-39' />
    <tag k='addr:street' v='Regatta Road' />
  </node>
  <node id='-518827' action='modify' lat='-33.86419075085' lon='151.11681179974'>
    <tag k='addr:housenumber' v='4/133' />
    <tag k='addr:street' v='Regatta Road' />
  </node>
  <node id='-518828' action='modify' lat='-33.86822510389' lon='151.11600623672'>
    <tag k='addr:housenumber' v='6/35-39' />
    <tag k='addr:street' v='Regatta Road' />
  </node>
  <node id='-518829' action='modify' lat='-33.86419075085' lon='151.11681179974'>
    <tag k='addr:housenumber' v='5/133' />
    <tag k='addr:street' v='Regatta Road' />
  </node>
  <node id='-518830' action='modify' lat='-33.86822510389' lon='151.11600623672'>
    <tag k='addr:housenumber' v='7/35-39' />
    <tag k='addr:street' v='Regatta Road' />
  </node>
  <node id='-518831' action='modify' lat='-33.86419075085' lon='151.11681179974'>
    <tag k='addr:housenumber' v='6/133' />
    <tag k='addr:street' v='Regatta Road' />
  </node>
  <node id='-518832' action='modify' lat='-33.86822510389' lon='151.11600623672'>
    <tag k='addr:housenumber' v='8/35-39' />
    <tag k='addr:street' v='Regatta Road' />
  </node>
  <node id='-518833' action='modify' lat='-33.86822510389' lon='151.11600623672'>
    <tag k='addr:housenumber' v='1/35-39' />
    <tag k='addr:street' v='Regatta Road' />
  </node>
  <node id='-518834' action='modify' lat='-33.86822510389' lon='151.11600623672'>
    <tag k='addr:housenumber' v='2/35-39' />
    <tag k='addr:street' v='Regatta Road' />
  </node>
  <node id='-518835' action='modify' lat='-33.86822510389' lon='151.11600623672'>
    <tag k='addr:housenumber' v='3/35-39' />
    <tag k='addr:street' v='Regatta Road' />
  </node>
  <node id='-518836' action='modify' lat='-33.86419075085' lon='151.11681179974'>
    <tag k='addr:housenumber' v='2/133' />
    <tag k='addr:street' v='Regatta Road' />
  </node>
  <node id='-518837' action='modify' lat='-33.86822510389' lon='151.11600623672'>
    <tag k='addr:housenumber' v='4/35-39' />
    <tag k='addr:street' v='Regatta Road' />
  </node>
  <node id='-518838' action='modify' lat='-33.86800157685' lon='151.11604882222'>
    <tag k='addr:housenumber' v='41-43' />
    <tag k='addr:street' v='Regatta Road' />
  </node>
  <node id='-518839' action='modify' lat='-33.86544292419' lon='151.1165405001'>
    <tag k='addr:housenumber' v='1/99-105' />
    <tag k='addr:street' v='Regatta Road' />
  </node>
  <node id='-518840' action='modify' lat='-33.86544292419' lon='151.1165405001'>
    <tag k='addr:housenumber' v='12/99-105' />
    <tag k='addr:street' v='Regatta Road' />
  </node>
  <node id='-518841' action='modify' lat='-33.86800157685' lon='151.11604882222'>
    <tag k='addr:housenumber' v='4/41-43' />
    <tag k='addr:street' v='Regatta Road' />
  </node>
  <node id='-518842' action='modify' lat='-33.86544292419' lon='151.1165405001'>
    <tag k='addr:housenumber' v='7/99-105' />
    <tag k='addr:street' v='Regatta Road' />
  </node>
  <node id='-518843' action='modify' lat='-33.86800157685' lon='151.11604882222'>
    <tag k='addr:housenumber' v='3/41-43' />
    <tag k='addr:street' v='Regatta Road' />
  </node>
  <node id='-518844' action='modify' lat='-33.86544292419' lon='151.1165405001'>
    <tag k='addr:housenumber' v='5/99-105' />
    <tag k='addr:street' v='Regatta Road' />
  </node>
  <node id='-518845' action='modify' lat='-33.86800157685' lon='151.11604882222'>
    <tag k='addr:housenumber' v='2/41-43' />
    <tag k='addr:street' v='Regatta Road' />
  </node>
  <node id='-518846' action='modify' lat='-33.86544292419' lon='151.1165405001'>
    <tag k='addr:housenumber' v='4/99-105' />
    <tag k='addr:street' v='Regatta Road' />
  </node>
  <node id='-518847' action='modify' lat='-33.86800157685' lon='151.11604882222'>
    <tag k='addr:housenumber' v='1/41-43' />
    <tag k='addr:street' v='Regatta Road' />
  </node>
  <node id='-518848' action='modify' lat='-33.86544292419' lon='151.1165405001'>
    <tag k='addr:housenumber' v='3/99-105' />
    <tag k='addr:street' v='Regatta Road' />
  </node>
</osm>
