<?xml version='1.0' encoding='UTF-8'?>
<osm version='0.6' generator='JOSM'>
  <node id='-146928' action='modify' lat='-33.82792129311' lon='151.11653936582'>
    <tag k='addr:housenumber' v='2/1' />
    <tag k='addr:street' v='Kemp Street' />
  </node>
  <node id='-146929' action='modify' lat='-33.82792129311' lon='151.11653936582'>
    <tag k='addr:housenumber' v='1/1' />
    <tag k='addr:street' v='Kemp Street' />
  </node>
  <node id='-146930' action='modify' lat='-33.82767357372' lon='151.11521681934'>
    <tag k='addr:housenumber' v='13' />
    <tag k='addr:street' v='Bayview Street' />
  </node>
  <node id='-146931' action='modify' lat='-33.82767357372' lon='151.11521681934'>
    <tag k='addr:housenumber' v='1/13' />
    <tag k='addr:street' v='Bayview Street' />
  </node>
  <node id='-146932' action='modify' lat='-33.82767357372' lon='151.11521681934'>
    <tag k='addr:housenumber' v='2/13' />
    <tag k='addr:street' v='Bayview Street' />
  </node>
  <node id='-146933' action='modify' lat='-33.82767357372' lon='151.11521681934'>
    <tag k='addr:housenumber' v='3/13' />
    <tag k='addr:street' v='Bayview Street' />
  </node>
  <node id='-146934' action='modify' lat='-33.82767357372' lon='151.11521681934'>
    <tag k='addr:housenumber' v='4/13' />
    <tag k='addr:street' v='Bayview Street' />
  </node>
  <node id='-146935' action='modify' lat='-33.83057217337' lon='151.11559565908'>
    <tag k='addr:housenumber' v='17' />
    <tag k='addr:street' v='Kemp Street' />
  </node>
  <node id='-146936' action='modify' lat='-33.83057217337' lon='151.11559565908'>
    <tag k='addr:housenumber' v='1/17' />
    <tag k='addr:street' v='Kemp Street' />
  </node>
  <node id='-146937' action='modify' lat='-33.83057217337' lon='151.11559565908'>
    <tag k='addr:housenumber' v='2/17' />
    <tag k='addr:street' v='Kemp Street' />
  </node>
  <node id='-146938' action='modify' lat='-33.82747097528' lon='151.11631279263'>
    <tag k='addr:housenumber' v='122' />
    <tag k='addr:street' v='Morrison Road' />
  </node>
  <node id='-146939' action='modify' lat='-33.83057217337' lon='151.11559565908'>
    <tag k='addr:housenumber' v='3/17' />
    <tag k='addr:street' v='Kemp Street' />
  </node>
  <node id='-146940' action='modify' lat='-33.82747097528' lon='151.11631279263'>
    <tag k='addr:housenumber' v='1/122' />
    <tag k='addr:street' v='Morrison Road' />
  </node>
  <node id='-146941' action='modify' lat='-33.82747097528' lon='151.11631279263'>
    <tag k='addr:housenumber' v='2/122' />
    <tag k='addr:street' v='Morrison Road' />
  </node>
  <node id='-146942' action='modify' lat='-33.82747097528' lon='151.11631279263'>
    <tag k='addr:housenumber' v='3/122' />
    <tag k='addr:street' v='Morrison Road' />
  </node>
  <node id='-146943' action='modify' lat='-33.83323346124' lon='151.11859087958'>
    <tag k='addr:housenumber' v='52' />
    <tag k='addr:street' v='Champion Road' />
  </node>
  <node id='-146944' action='modify' lat='-33.83323346124' lon='151.11859087958'>
    <tag k='addr:housenumber' v='1/52' />
    <tag k='addr:street' v='Champion Road' />
  </node>
  <node id='-146945' action='modify' lat='-33.83323346124' lon='151.11859087958'>
    <tag k='addr:housenumber' v='2/52' />
    <tag k='addr:street' v='Champion Road' />
  </node>
  <node id='-146946' action='modify' lat='-33.83323346124' lon='151.11859087958'>
    <tag k='addr:housenumber' v='3/52' />
    <tag k='addr:street' v='Champion Road' />
  </node>
  <node id='-146947' action='modify' lat='-33.83323346124' lon='151.11859087958'>
    <tag k='addr:housenumber' v='4/52' />
    <tag k='addr:street' v='Champion Road' />
  </node>
  <node id='-146948' action='modify' lat='-33.83620148498' lon='151.11709181006'>
    <tag k='addr:housenumber' v='90' />
    <tag k='addr:street' v='Champion Road' />
  </node>
  <node id='-146949' action='modify' lat='-33.83620148498' lon='151.11709181006'>
    <tag k='addr:housenumber' v='1/90' />
    <tag k='addr:street' v='Champion Road' />
  </node>
  <node id='-146950' action='modify' lat='-33.83249943488' lon='151.11673780671'>
    <tag k='addr:housenumber' v='109' />
    <tag k='addr:street' v='Tennyson Road' />
  </node>
  <node id='-146951' action='modify' lat='-33.83620148498' lon='151.11709181006'>
    <tag k='addr:housenumber' v='2/90' />
    <tag k='addr:street' v='Champion Road' />
  </node>
  <node id='-146952' action='modify' lat='-33.83249943488' lon='151.11673780671'>
    <tag k='addr:housenumber' v='1/109' />
    <tag k='addr:street' v='Tennyson Road' />
  </node>
  <node id='-146953' action='modify' lat='-33.8286930886' lon='151.11744802275'>
    <tag k='addr:housenumber' v='73' />
    <tag k='addr:street' v='Tennyson Road' />
  </node>
  <node id='-146954' action='modify' lat='-33.83620148498' lon='151.11709181006'>
    <tag k='addr:housenumber' v='4/90' />
    <tag k='addr:street' v='Champion Road' />
  </node>
  <node id='-146955' action='modify' lat='-33.83249943488' lon='151.11673780671'>
    <tag k='addr:housenumber' v='2/109' />
    <tag k='addr:street' v='Tennyson Road' />
  </node>
  <node id='-146956' action='modify' lat='-33.8286930886' lon='151.11744802275'>
    <tag k='addr:housenumber' v='2/73' />
    <tag k='addr:street' v='Tennyson Road' />
  </node>
  <node id='-146957' action='modify' lat='-33.83620148498' lon='151.11709181006'>
    <tag k='addr:housenumber' v='3/90' />
    <tag k='addr:street' v='Champion Road' />
  </node>
  <node id='-146958' action='modify' lat='-33.83249943488' lon='151.11673780671'>
    <tag k='addr:housenumber' v='3/109' />
    <tag k='addr:street' v='Tennyson Road' />
  </node>
  <node id='-146959' action='modify' lat='-33.8286930886' lon='151.11744802275'>
    <tag k='addr:housenumber' v='1/73' />
    <tag k='addr:street' v='Tennyson Road' />
  </node>
  <node id='-146960' action='modify' lat='-33.83249943488' lon='151.11673780671'>
    <tag k='addr:housenumber' v='4/109' />
    <tag k='addr:street' v='Tennyson Road' />
  </node>
  <node id='-146961' action='modify' lat='-33.8286930886' lon='151.11744802275'>
    <tag k='addr:housenumber' v='3/73' />
    <tag k='addr:street' v='Tennyson Road' />
  </node>
  <node id='-146962' action='modify' lat='-33.82969169485' lon='151.1156837339'>
    <tag k='addr:housenumber' v='16' />
    <tag k='addr:street' v='Teemer Street' />
  </node>
  <node id='-146963' action='modify' lat='-33.82924552928' lon='151.11726237614'>
    <tag k='addr:housenumber' v='79' />
    <tag k='addr:street' v='Tennyson Road' />
  </node>
  <node id='-146964' action='modify' lat='-33.82969169485' lon='151.1156837339'>
    <tag k='addr:housenumber' v='1/16' />
    <tag k='addr:street' v='Teemer Street' />
  </node>
  <node id='-146965' action='modify' lat='-33.82924552928' lon='151.11726237614'>
    <tag k='addr:housenumber' v='1/79' />
    <tag k='addr:street' v='Tennyson Road' />
  </node>
  <node id='-146966' action='modify' lat='-33.82969169485' lon='151.1156837339'>
    <tag k='addr:housenumber' v='3/16' />
    <tag k='addr:street' v='Teemer Street' />
  </node>
  <node id='-146967' action='modify' lat='-33.82932496746' lon='151.11670899982'>
    <tag k='addr:housenumber' v='14' />
    <tag k='addr:street' v='Kemp Street' />
  </node>
  <node id='-146968' action='modify' lat='-33.82924552928' lon='151.11726237614'>
    <tag k='addr:housenumber' v='2/79' />
    <tag k='addr:street' v='Tennyson Road' />
  </node>
  <node id='-146969' action='modify' lat='-33.82969169485' lon='151.1156837339'>
    <tag k='addr:housenumber' v='2/16' />
    <tag k='addr:street' v='Teemer Street' />
  </node>
  <node id='-146970' action='modify' lat='-33.82932496746' lon='151.11670899982'>
    <tag k='addr:housenumber' v='1/14' />
    <tag k='addr:street' v='Kemp Street' />
  </node>
  <node id='-146971' action='modify' lat='-33.82924552928' lon='151.11726237614'>
    <tag k='addr:housenumber' v='3/79' />
    <tag k='addr:street' v='Tennyson Road' />
  </node>
  <node id='-146972' action='modify' lat='-33.82932496746' lon='151.11670899982'>
    <tag k='addr:housenumber' v='2/14' />
    <tag k='addr:street' v='Kemp Street' />
  </node>
  <node id='-146973' action='modify' lat='-33.82932496746' lon='151.11670899982'>
    <tag k='addr:housenumber' v='3/14' />
    <tag k='addr:street' v='Kemp Street' />
  </node>
  <node id='-146974' action='modify' lat='-33.83182030353' lon='151.11455057021'>
    <tag k='addr:housenumber' v='3-9A' />
    <tag k='addr:street' v='Beach Street' />
  </node>
  <node id='-146975' action='modify' lat='-33.83182030353' lon='151.11455057021'>
    <tag k='addr:housenumber' v='1/3-9A' />
    <tag k='addr:street' v='Beach Street' />
  </node>
  <node id='-146976' action='modify' lat='-33.83182030353' lon='151.11455057021'>
    <tag k='addr:housenumber' v='2/3-9A' />
    <tag k='addr:street' v='Beach Street' />
  </node>
  <node id='-146977' action='modify' lat='-33.83182030353' lon='151.11455057021'>
    <tag k='addr:housenumber' v='3/3-9A' />
    <tag k='addr:street' v='Beach Street' />
  </node>
  <node id='-146978' action='modify' lat='-33.82840370404' lon='151.11772772565'>
    <tag k='addr:housenumber' v='69' />
    <tag k='addr:street' v='Tennyson Road' />
  </node>
  <node id='-146979' action='modify' lat='-33.83063361001' lon='151.11372370252'>
    <tag k='addr:housenumber' v='51' />
    <tag k='addr:street' v='Bayview Street' />
  </node>
  <node id='-146980' action='modify' lat='-33.83182030353' lon='151.11455057021'>
    <tag k='addr:housenumber' v='4/3-9A' />
    <tag k='addr:street' v='Beach Street' />
  </node>
  <node id='-146981' action='modify' lat='-33.82840370404' lon='151.11772772565'>
    <tag k='addr:housenumber' v='1/69' />
    <tag k='addr:street' v='Tennyson Road' />
  </node>
  <node id='-146982' action='modify' lat='-33.83063361001' lon='151.11372370252'>
    <tag k='addr:housenumber' v='1/51' />
    <tag k='addr:street' v='Bayview Street' />
  </node>
  <node id='-146983' action='modify' lat='-33.83182030353' lon='151.11455057021'>
    <tag k='addr:housenumber' v='5/3-9A' />
    <tag k='addr:street' v='Beach Street' />
  </node>
  <node id='-146984' action='modify' lat='-33.82840370404' lon='151.11772772565'>
    <tag k='addr:housenumber' v='2/69' />
    <tag k='addr:street' v='Tennyson Road' />
  </node>
  <node id='-146985' action='modify' lat='-33.83063361001' lon='151.11372370252'>
    <tag k='addr:housenumber' v='2/51' />
    <tag k='addr:street' v='Bayview Street' />
  </node>
  <node id='-146986' action='modify' lat='-33.83182030353' lon='151.11455057021'>
    <tag k='addr:housenumber' v='6/3-9A' />
    <tag k='addr:street' v='Beach Street' />
  </node>
  <node id='-146987' action='modify' lat='-33.82840370404' lon='151.11772772565'>
    <tag k='addr:housenumber' v='3/69' />
    <tag k='addr:street' v='Tennyson Road' />
  </node>
  <node id='-146988' action='modify' lat='-33.83063361001' lon='151.11372370252'>
    <tag k='addr:housenumber' v='51A' />
    <tag k='addr:street' v='Bayview Street' />
  </node>
  <node id='-146989' action='modify' lat='-33.83182030353' lon='151.11455057021'>
    <tag k='addr:housenumber' v='7/3-9A' />
    <tag k='addr:street' v='Beach Street' />
  </node>
  <node id='-146990' action='modify' lat='-33.83063361001' lon='151.11372370252'>
    <tag k='addr:housenumber' v='51B' />
    <tag k='addr:street' v='Bayview Street' />
  </node>
  <node id='-146991' action='modify' lat='-33.83182030353' lon='151.11455057021'>
    <tag k='addr:housenumber' v='8/3-9A' />
    <tag k='addr:street' v='Beach Street' />
  </node>
  <node id='-146992' action='modify' lat='-33.82911437548' lon='151.11877661913'>
    <tag k='addr:housenumber' v='3' />
    <tag k='addr:street' v='Champion Road' />
  </node>
  <node id='-146993' action='modify' lat='-33.83182030353' lon='151.11455057021'>
    <tag k='addr:housenumber' v='9/3-9A' />
    <tag k='addr:street' v='Beach Street' />
  </node>
  <node id='-146994' action='modify' lat='-33.82911437548' lon='151.11877661913'>
    <tag k='addr:housenumber' v='1/3' />
    <tag k='addr:street' v='Champion Road' />
  </node>
  <node id='-146995' action='modify' lat='-33.83182030353' lon='151.11455057021'>
    <tag k='addr:housenumber' v='10/3-9A' />
    <tag k='addr:street' v='Beach Street' />
  </node>
  <node id='-146996' action='modify' lat='-33.82911437548' lon='151.11877661913'>
    <tag k='addr:housenumber' v='2/3' />
    <tag k='addr:street' v='Champion Road' />
  </node>
  <node id='-146997' action='modify' lat='-33.82792129311' lon='151.11653936582'>
    <tag k='addr:housenumber' v='1' />
    <tag k='addr:street' v='Kemp Street' />
  </node>
  <node id='-146998' action='modify' lat='-33.83182030353' lon='151.11455057021'>
    <tag k='addr:housenumber' v='11/3-9A' />
    <tag k='addr:street' v='Beach Street' />
  </node>
  <node id='-146999' action='modify' lat='-33.82911437548' lon='151.11877661913'>
    <tag k='addr:housenumber' v='3/3' />
    <tag k='addr:street' v='Champion Road' />
  </node>
  <node id='-147000' action='modify' lat='-33.82792129311' lon='151.11653936582'>
    <tag k='addr:housenumber' v='9/1' />
    <tag k='addr:street' v='Kemp Street' />
  </node>
  <node id='-147001' action='modify' lat='-33.83182030353' lon='151.11455057021'>
    <tag k='addr:housenumber' v='12/3-9A' />
    <tag k='addr:street' v='Beach Street' />
  </node>
  <node id='-147002' action='modify' lat='-33.82792129311' lon='151.11653936582'>
    <tag k='addr:housenumber' v='8/1' />
    <tag k='addr:street' v='Kemp Street' />
  </node>
  <node id='-147003' action='modify' lat='-33.83182030353' lon='151.11455057021'>
    <tag k='addr:housenumber' v='13/3-9A' />
    <tag k='addr:street' v='Beach Street' />
  </node>
  <node id='-147004' action='modify' lat='-33.82792129311' lon='151.11653936582'>
    <tag k='addr:housenumber' v='7/1' />
    <tag k='addr:street' v='Kemp Street' />
  </node>
  <node id='-147005' action='modify' lat='-33.83182030353' lon='151.11455057021'>
    <tag k='addr:housenumber' v='14/3-9A' />
    <tag k='addr:street' v='Beach Street' />
  </node>
  <node id='-147006' action='modify' lat='-33.82792129311' lon='151.11653936582'>
    <tag k='addr:housenumber' v='6/1' />
    <tag k='addr:street' v='Kemp Street' />
  </node>
  <node id='-147007' action='modify' lat='-33.83182030353' lon='151.11455057021'>
    <tag k='addr:housenumber' v='15/3-9A' />
    <tag k='addr:street' v='Beach Street' />
  </node>
  <node id='-147008' action='modify' lat='-33.82792129311' lon='151.11653936582'>
    <tag k='addr:housenumber' v='5/1' />
    <tag k='addr:street' v='Kemp Street' />
  </node>
  <node id='-147009' action='modify' lat='-33.82792129311' lon='151.11653936582'>
    <tag k='addr:housenumber' v='4/1' />
    <tag k='addr:street' v='Kemp Street' />
  </node>
  <node id='-147010' action='modify' lat='-33.82792129311' lon='151.11653936582'>
    <tag k='addr:housenumber' v='3/1' />
    <tag k='addr:street' v='Kemp Street' />
  </node>
</osm>
